ID,CONFIDENCE,TYPE,TIMESTAMP
1,100,3,2014-11-06 21:32:44
2,48,4,2014-11-06 21:40:59
3,72,2,2014-11-06 21:41:10
4,92,2,2014-11-06 21:41:14
5,64,4,2014-11-06 21:41:51
6,51,2,2014-11-06 21:42:19
7,62,2,2014-11-06 21:42:23
8,92,2,2014-11-06 21:42:27
9,100,2,2014-11-06 21:42:31
10,100,2,2014-11-06 21:42:35
11,100,2,2014-11-06 21:42:38
12,100,2,2014-11-06 21:42:43
13,100,2,2014-11-06 21:42:46
14,100,2,2014-11-06 21:42:50
15,92,2,2014-11-06 21:42:54
16,85,2,2014-11-06 21:42:58
17,85,2,2014-11-06 21:43:01
18,100,2,2014-11-06 21:43:05
19,100,2,2014-11-06 21:43:09
20,38,2,2014-11-06 21:43:27
21,73,3,2014-11-06 21:43:59
22,100,3,2014-11-06 21:44:03
23,100,3,2014-11-06 21:44:19
24,92,3,2014-11-06 21:44:22
25,85,3,2014-11-06 21:44:26
26,100,3,2014-11-06 21:44:30
27,92,3,2014-11-06 21:44:34
28,92,3,2014-11-06 21:44:37
29,100,3,2014-11-06 21:44:44
30,92,3,2014-11-06 21:44:48
31,100,3,2014-11-06 21:44:52
32,39,2,2014-11-06 21:45:09
33,100,5,2014-11-06 21:45:26
34,42,4,2014-11-06 21:45:35
35,66,3,2014-11-06 21:46:14
36,64,0,2014-11-06 21:46:45
37,54,0,2014-11-06 21:46:49
38,85,0,2014-11-06 21:46:53
39,100,0,2014-11-06 21:46:57
40,100,0,2014-11-06 21:47:00
41,100,0,2014-11-06 21:47:04
42,69,0,2014-11-06 21:47:07
43,73,0,2014-11-06 21:47:35
44,77,0,2014-11-06 21:47:39
45,85,0,2014-11-06 21:47:43
46,85,0,2014-11-06 21:47:47
47,100,0,2014-11-06 21:47:50
48,100,0,2014-11-06 21:47:54
49,100,0,2014-11-06 21:47:58
50,100,0,2014-11-06 21:48:02
51,100,0,2014-11-06 21:48:05
52,100,0,2014-11-06 21:48:09
53,92,0,2014-11-06 21:48:13
54,100,0,2014-11-06 21:48:16
55,100,0,2014-11-06 21:48:20
56,92,0,2014-11-06 21:48:24
57,62,0,2014-11-06 21:48:28
58,64,3,2014-11-06 21:48:49
59,100,5,2014-11-06 21:49:18
60,58,0,2014-11-06 21:49:19
61,80,2,2014-11-06 21:49:48
62,92,2,2014-11-06 21:50:00
63,100,2,2014-11-06 21:50:04
64,100,2,2014-11-06 21:50:08
65,69,2,2014-11-06 21:50:11
66,69,2,2014-11-06 21:50:16
67,92,2,2014-11-06 21:50:20
68,100,2,2014-11-06 21:50:24
69,92,2,2014-11-06 21:50:28
70,92,2,2014-11-06 21:50:31
71,100,2,2014-11-06 21:50:35
72,85,2,2014-11-06 21:50:39
73,85,2,2014-11-06 21:50:43
74,92,2,2014-11-06 21:50:47
75,69,2,2014-11-06 21:50:51
76,100,2,2014-11-06 21:50:54
77,85,2,2014-11-06 21:50:58
78,62,2,2014-11-06 21:51:02
79,85,2,2014-11-06 21:51:06
80,92,2,2014-11-06 21:51:09
81,92,2,2014-11-06 21:51:13
82,62,2,2014-11-06 21:51:17
83,100,2,2014-11-06 21:51:20
84,100,2,2014-11-06 21:51:24
85,92,2,2014-11-06 21:51:28
86,92,2,2014-11-06 21:51:31
87,85,2,2014-11-06 21:51:35
88,100,2,2014-11-06 21:51:39
89,92,2,2014-11-06 21:51:42
90,100,2,2014-11-06 21:51:46
91,100,2,2014-11-06 21:52:08
92,100,2,2014-11-06 21:52:12
93,100,2,2014-11-06 21:52:15
94,92,2,2014-11-06 21:52:19
95,100,2,2014-11-06 21:52:23
96,69,2,2014-11-06 21:52:27
97,100,2,2014-11-06 21:52:30
98,54,2,2014-11-06 21:52:34
99,100,2,2014-11-06 21:52:38
100,100,2,2014-11-06 21:52:42
101,69,2,2014-11-06 21:52:46
102,85,2,2014-11-06 21:52:49
103,85,2,2014-11-06 21:52:53
104,69,2,2014-11-06 21:52:57
105,77,2,2014-11-06 21:53:00
106,62,2,2014-11-06 21:53:04
107,85,2,2014-11-06 21:53:08
108,69,2,2014-11-06 21:53:31
109,100,2,2014-11-06 21:53:35
110,100,2,2014-11-06 21:53:39
111,85,2,2014-11-06 21:53:43
112,100,2,2014-11-06 21:53:46
113,85,2,2014-11-06 21:53:50
114,100,2,2014-11-06 21:53:54
115,69,2,2014-11-06 21:53:58
116,85,2,2014-11-06 21:54:01
117,100,2,2014-11-06 21:54:05
118,100,2,2014-11-06 21:54:09
119,69,2,2014-11-06 21:54:12
120,100,2,2014-11-06 21:54:16
121,100,2,2014-11-06 21:54:20
122,100,2,2014-11-06 21:54:23
123,100,2,2014-11-06 21:54:27
124,92,2,2014-11-06 21:54:31
125,92,2,2014-11-06 21:54:35
126,100,2,2014-11-06 21:54:38
127,100,2,2014-11-06 21:54:42
128,100,2,2014-11-06 21:54:46
129,100,2,2014-11-06 21:54:50
130,100,2,2014-11-06 21:54:53
131,92,2,2014-11-06 21:54:57
132,92,2,2014-11-06 21:55:01
133,92,2,2014-11-06 21:55:05
134,100,2,2014-11-06 21:55:09
135,85,2,2014-11-06 21:55:12
136,85,2,2014-11-06 21:55:16
137,100,2,2014-11-06 21:55:20
138,69,2,2014-11-06 21:55:23
139,100,2,2014-11-06 21:55:27
140,100,2,2014-11-06 21:55:31
141,69,2,2014-11-06 21:55:34
142,69,2,2014-11-06 21:55:38
143,69,2,2014-11-06 21:55:41
144,38,2,2014-11-06 21:56:02
145,85,2,2014-11-06 21:56:08
146,92,2,2014-11-06 21:56:11
147,92,2,2014-11-06 21:56:15
148,85,2,2014-11-06 21:56:19
149,92,2,2014-11-06 21:56:23
150,100,2,2014-11-06 21:56:26
151,62,2,2014-11-06 21:56:39
152,62,2,2014-11-06 21:56:42
153,41,4,2014-11-06 21:57:26
154,100,3,2014-11-06 21:57:52
155,100,3,2014-11-06 21:57:56
156,100,3,2014-11-06 21:57:59
157,100,3,2014-11-06 21:58:03
158,100,3,2014-11-06 21:58:06
159,100,5,2014-11-06 21:58:19
160,100,5,2014-11-06 21:58:32
161,100,5,2014-11-06 21:58:36
162,60,4,2014-11-06 21:58:36
163,100,5,2014-11-06 21:58:40
164,52,4,2014-11-06 21:59:00
165,54,4,2014-11-06 21:59:34
166,52,4,2014-11-06 22:00:11
167,68,3,2014-11-06 22:00:38
168,100,3,2014-11-06 22:00:41
169,92,3,2014-11-06 22:00:45
170,52,3,2014-11-06 22:01:22
171,62,4,2014-11-06 22:01:43
172,73,4,2014-11-06 22:02:10
173,56,4,2014-11-06 22:02:39
174,66,3,2014-11-06 22:03:19
175,100,3,2014-11-06 22:03:23
176,100,3,2014-11-06 22:03:27
177,100,3,2014-11-06 22:03:30
178,100,3,2014-11-06 22:03:34
179,58,3,2014-11-06 22:03:46
180,100,3,2014-11-06 22:03:50
181,100,3,2014-11-06 22:03:53
182,100,3,2014-11-06 22:03:57
183,100,3,2014-11-06 22:04:01
184,100,3,2014-11-06 22:04:05
185,92,3,2014-11-06 22:04:09
186,100,3,2014-11-06 22:04:13
187,100,3,2014-11-06 22:04:16
188,100,3,2014-11-06 22:04:20
189,92,3,2014-11-06 22:04:24
190,92,3,2014-11-06 22:04:27
191,100,3,2014-11-06 22:04:31
192,92,3,2014-11-06 22:04:35
193,100,3,2014-11-06 22:04:39
194,100,3,2014-11-06 22:04:42
195,100,3,2014-11-06 22:04:46
196,100,3,2014-11-06 22:04:50
197,100,3,2014-11-06 22:04:54
198,100,3,2014-11-06 22:04:57
199,100,3,2014-11-06 22:05:01
200,100,3,2014-11-06 22:05:05
201,100,3,2014-11-06 22:05:08
202,100,3,2014-11-06 22:05:12
203,54,3,2014-11-06 22:05:15
204,69,3,2014-11-06 22:05:20
205,85,3,2014-11-06 22:05:23
206,100,5,2014-11-06 22:05:35
207,63,3,2014-11-06 22:06:03
208,100,3,2014-11-06 22:06:06
209,100,3,2014-11-06 22:06:10
210,100,3,2014-11-06 22:06:14
211,100,3,2014-11-06 22:06:17
212,100,3,2014-11-06 22:06:21
213,100,3,2014-11-06 22:06:25
214,100,3,2014-11-06 22:06:29
215,100,3,2014-11-06 22:06:33
216,100,3,2014-11-06 22:06:37
217,100,3,2014-11-06 22:06:40
218,100,3,2014-11-06 22:06:44
219,92,3,2014-11-06 22:06:48
220,100,3,2014-11-06 22:06:52
221,100,3,2014-11-06 22:06:56
222,100,3,2014-11-06 22:07:00
223,100,3,2014-11-06 22:07:03
224,100,3,2014-11-06 22:07:07
225,100,3,2014-11-06 22:07:10
226,100,3,2014-11-06 22:07:15
227,100,3,2014-11-06 22:07:18
228,100,3,2014-11-06 22:07:22
229,100,3,2014-11-06 22:07:26
230,100,3,2014-11-06 22:07:30
231,100,3,2014-11-06 22:07:33
232,100,3,2014-11-06 22:07:37
233,100,3,2014-11-06 22:07:41
234,100,3,2014-11-06 22:07:45
235,100,3,2014-11-06 22:07:48
236,100,3,2014-11-06 22:07:52
237,100,3,2014-11-06 22:07:56
238,100,3,2014-11-06 22:07:59
239,100,3,2014-11-06 22:08:04
240,100,3,2014-11-06 22:08:07
241,100,3,2014-11-06 22:08:11
242,100,3,2014-11-06 22:08:14
243,100,3,2014-11-06 22:08:18
244,100,3,2014-11-06 22:08:22
245,100,3,2014-11-06 22:08:25
246,100,3,2014-11-06 22:08:29
247,100,3,2014-11-06 22:08:33
248,100,3,2014-11-06 22:08:36
249,100,3,2014-11-06 22:08:40
250,100,3,2014-11-06 22:08:44
251,100,3,2014-11-06 22:08:47
252,100,3,2014-11-06 22:08:52
253,100,3,2014-11-06 22:08:55
254,100,3,2014-11-06 22:08:59
255,100,3,2014-11-06 22:09:03
256,100,3,2014-11-06 22:09:07
257,100,3,2014-11-06 22:09:10
258,100,3,2014-11-06 22:09:14
259,100,3,2014-11-06 22:09:18
260,100,3,2014-11-06 22:09:22
261,100,3,2014-11-06 22:09:26
262,100,3,2014-11-06 22:09:29
263,100,3,2014-11-06 22:09:33
264,100,3,2014-11-06 22:09:37
265,100,3,2014-11-06 22:09:41
266,100,3,2014-11-06 22:09:45
267,100,3,2014-11-06 22:09:48
268,100,3,2014-11-06 22:09:52
269,100,3,2014-11-06 22:09:56
270,100,3,2014-11-06 22:10:00
271,100,3,2014-11-06 22:10:04
272,100,3,2014-11-06 22:10:07
273,100,3,2014-11-06 22:10:11
274,100,3,2014-11-06 22:10:15
275,100,3,2014-11-06 22:10:18
276,100,3,2014-11-06 22:10:23
277,100,3,2014-11-06 22:10:26
278,100,3,2014-11-06 22:10:30
279,100,3,2014-11-06 22:10:34
280,100,3,2014-11-06 22:10:38
281,100,3,2014-11-06 22:10:41
282,100,3,2014-11-06 22:10:45
283,100,3,2014-11-06 22:10:49
284,100,3,2014-11-06 22:10:53
285,100,3,2014-11-06 22:10:57
286,100,3,2014-11-06 22:11:00
287,100,3,2014-11-06 22:11:04
288,100,3,2014-11-06 22:11:08
289,100,3,2014-11-06 22:11:12
290,100,3,2014-11-06 22:11:15
291,100,3,2014-11-06 22:11:19
292,100,3,2014-11-06 22:11:23
293,50,3,2014-11-06 22:11:35
294,100,3,2014-11-06 22:11:38
295,100,3,2014-11-06 22:11:42
296,100,3,2014-11-06 22:11:46
297,100,3,2014-11-06 22:11:50
298,100,3,2014-11-06 22:11:53
299,100,3,2014-11-06 22:11:57
300,100,3,2014-11-06 22:12:01
301,100,3,2014-11-06 22:12:04
302,100,3,2014-11-06 22:12:08
303,100,3,2014-11-06 22:12:12
304,100,3,2014-11-06 22:12:16
305,100,3,2014-11-06 22:12:19
306,100,3,2014-11-06 22:12:23
307,100,3,2014-11-06 22:12:27
308,100,3,2014-11-06 22:12:30
309,100,3,2014-11-06 22:12:34
310,100,3,2014-11-06 22:12:38
311,100,3,2014-11-06 22:12:41
312,100,3,2014-11-06 22:12:45
313,100,3,2014-11-06 22:12:49
314,100,3,2014-11-06 22:12:52
315,100,3,2014-11-06 22:12:56
316,100,3,2014-11-06 22:13:00
317,100,3,2014-11-06 22:13:04
318,100,3,2014-11-06 22:13:08
319,100,3,2014-11-06 22:13:11
320,100,3,2014-11-06 22:13:15
321,100,3,2014-11-06 22:13:19
322,100,3,2014-11-06 22:13:23
323,100,3,2014-11-06 22:13:27
324,100,3,2014-11-06 22:13:31
325,100,3,2014-11-06 22:13:34
326,100,3,2014-11-06 22:13:38
327,100,3,2014-11-06 22:13:42
328,100,3,2014-11-06 22:13:46
329,100,3,2014-11-06 22:13:50
330,100,3,2014-11-06 22:13:53
331,100,3,2014-11-06 22:13:57
332,100,3,2014-11-06 22:14:01
333,100,3,2014-11-06 22:14:05
334,100,5,2014-11-06 22:47:59
335,66,4,2014-11-06 22:48:26
336,50,4,2014-11-06 22:48:55
337,100,5,2014-11-06 22:49:16
338,65,4,2014-11-06 22:49:25
339,33,4,2014-11-06 22:49:44
340,50,4,2014-11-06 22:50:08
341,42,0,2014-11-06 22:50:36
342,77,0,2014-11-06 22:50:39
343,69,0,2014-11-06 22:50:43
344,100,5,2014-11-06 22:50:55
345,100,5,2014-11-06 22:51:05
346,27,4,2014-11-06 22:51:08
347,77,2,2014-11-06 22:51:19
348,56,3,2014-11-06 22:51:49
349,97,2,2014-11-06 22:52:00
350,62,2,2014-11-06 22:52:04
351,85,2,2014-11-06 22:52:08
352,85,2,2014-11-06 22:52:11
353,100,2,2014-11-06 22:52:15
354,100,2,2014-11-06 22:52:19
355,85,2,2014-11-06 22:52:22
356,92,2,2014-11-06 22:52:56
357,100,2,2014-11-06 22:53:01
358,100,2,2014-11-06 22:53:05
359,100,2,2014-11-06 22:53:08
360,100,2,2014-11-06 22:53:12
361,100,2,2014-11-06 22:53:16
362,100,5,2014-11-06 22:53:39
363,39,0,2014-11-06 22:53:48
364,62,0,2014-11-06 22:53:52
365,46,0,2014-11-06 22:54:09
366,92,0,2014-11-06 22:54:12
367,71,2,2014-11-06 22:54:33
368,46,2,2014-11-06 22:54:37
369,46,4,2014-11-06 22:54:59
370,55,3,2014-11-06 22:55:37
371,69,3,2014-11-06 22:55:40
372,54,3,2014-11-06 22:55:45
373,100,3,2014-11-06 22:55:48
374,100,3,2014-11-06 22:55:52
375,100,3,2014-11-06 22:55:56
376,100,3,2014-11-06 22:55:59
377,100,3,2014-11-06 22:56:03
378,100,3,2014-11-06 22:56:07
379,100,3,2014-11-06 22:56:10
380,85,3,2014-11-06 22:56:14
381,92,3,2014-11-06 22:56:18
382,100,3,2014-11-06 22:56:22
383,100,3,2014-11-06 22:56:26
384,92,3,2014-11-06 22:56:30
385,72,3,2014-11-06 22:57:09
386,100,3,2014-11-06 22:57:12
387,100,3,2014-11-06 22:57:16
388,100,3,2014-11-06 22:57:20
389,100,3,2014-11-06 22:57:24
390,100,3,2014-11-06 22:57:27
391,92,3,2014-11-06 22:57:31
392,54,3,2014-11-06 22:57:35
393,92,3,2014-11-06 22:57:38
394,100,3,2014-11-06 22:57:42
395,100,3,2014-11-06 22:57:46
396,100,3,2014-11-06 22:57:49
397,100,3,2014-11-06 22:57:53
398,100,3,2014-11-06 22:57:57
399,100,3,2014-11-06 22:58:00
400,100,5,2014-11-06 22:58:21
401,100,5,2014-11-06 22:58:31
402,100,5,2014-11-06 22:58:39
403,43,4,2014-11-06 22:58:39
404,100,5,2014-11-06 22:59:29
405,67,4,2014-11-06 22:59:38
406,100,5,2014-11-06 23:00:01
407,66,4,2014-11-06 23:00:17
408,49,4,2014-11-06 23:00:58
409,72,0,2014-11-06 23:01:19
410,62,0,2014-11-06 23:01:23
411,77,0,2014-11-06 23:01:27
412,39,0,2014-11-06 23:02:17
413,54,0,2014-11-06 23:02:21
414,100,0,2014-11-06 23:02:24
415,85,0,2014-11-06 23:02:28
416,100,0,2014-11-06 23:02:32
417,100,0,2014-11-06 23:02:35
418,85,4,2014-11-06 23:03:04
419,38,3,2014-11-06 23:03:33
420,69,4,2014-11-06 23:03:45
421,77,3,2014-11-06 23:04:06
422,100,0,2014-11-06 23:04:27
423,46,4,2014-11-06 23:04:47
424,51,0,2014-11-06 23:05:33
425,46,0,2014-11-06 23:05:37
426,71,3,2014-11-06 23:05:59
427,82,0,2014-11-06 23:06:29
428,52,0,2014-11-06 23:07:13
429,75,3,2014-11-06 23:07:33
430,54,3,2014-11-06 23:07:36
431,58,0,2014-11-06 23:07:56
432,92,0,2014-11-06 23:08:00
433,59,4,2014-11-06 23:08:34
434,64,0,2014-11-06 23:08:56
435,77,0,2014-11-06 23:09:00
436,77,0,2014-11-06 23:09:04
437,31,0,2014-11-06 23:09:08
438,100,0,2014-11-06 23:09:11
439,100,0,2014-11-06 23:09:15
440,100,0,2014-11-06 23:09:18
441,85,0,2014-11-06 23:09:22
442,92,0,2014-11-06 23:09:25
443,46,4,2014-11-06 23:09:55
444,42,4,2014-11-06 23:10:24
445,46,0,2014-11-06 23:10:53
446,50,4,2014-11-06 23:11:22
447,52,2,2014-11-06 23:11:50
448,54,2,2014-11-06 23:12:08
449,92,2,2014-11-06 23:12:11
450,54,2,2014-11-06 23:12:15
451,69,2,2014-11-06 23:12:19
452,60,2,2014-11-06 23:12:37
453,100,2,2014-11-06 23:12:41
454,100,2,2014-11-06 23:12:45
455,31,2,2014-11-06 23:12:48
456,62,2,2014-11-06 23:12:52
457,85,2,2014-11-06 23:12:55
458,85,2,2014-11-06 23:12:59
459,69,2,2014-11-06 23:13:02
460,77,2,2014-11-06 23:13:06
461,100,2,2014-11-06 23:13:10
462,100,2,2014-11-06 23:13:13
463,60,2,2014-11-06 23:13:41
464,51,2,2014-11-06 23:14:14
465,77,2,2014-11-06 23:14:18
466,46,2,2014-11-06 23:14:45
467,100,5,2014-11-06 23:14:49
468,42,2,2014-11-06 23:15:13
469,100,2,2014-11-06 23:15:17
470,92,2,2014-11-06 23:15:20
471,100,2,2014-11-06 23:15:24
472,52,4,2014-11-06 23:15:58
473,54,0,2014-11-06 23:16:18
474,46,0,2014-11-06 23:16:22
475,92,0,2014-11-06 23:16:25
476,66,4,2014-11-06 23:16:45
477,54,4,2014-11-06 23:17:14
478,55,2,2014-11-06 23:17:41
479,85,2,2014-11-06 23:17:45
480,62,2,2014-11-06 23:17:49
481,100,5,2014-11-06 23:18:18
482,41,0,2014-11-06 23:18:18
483,75,3,2014-11-06 23:18:57
484,100,3,2014-11-06 23:19:00
485,100,3,2014-11-06 23:19:04
486,100,3,2014-11-06 23:19:07
487,100,3,2014-11-06 23:19:11
488,100,3,2014-11-06 23:19:14
489,100,3,2014-11-06 23:19:18
490,100,3,2014-11-06 23:19:21
491,100,3,2014-11-06 23:19:25
492,100,3,2014-11-06 23:19:28
493,100,3,2014-11-06 23:19:32
494,100,3,2014-11-06 23:19:36
495,100,3,2014-11-06 23:19:39
496,100,3,2014-11-06 23:19:43
497,100,3,2014-11-06 23:19:46
498,100,3,2014-11-06 23:19:50
499,100,3,2014-11-06 23:19:53
500,100,3,2014-11-06 23:19:57
501,100,3,2014-11-06 23:20:00
502,100,3,2014-11-06 23:20:04
503,100,3,2014-11-06 23:20:07
504,62,3,2014-11-06 23:20:11
505,100,3,2014-11-06 23:20:15
506,62,3,2014-11-06 23:20:18
507,100,3,2014-11-06 23:20:22
508,100,3,2014-11-06 23:20:25
509,100,3,2014-11-06 23:20:29
510,100,3,2014-11-06 23:20:32
511,100,3,2014-11-06 23:20:36
512,100,3,2014-11-06 23:20:39
513,100,3,2014-11-06 23:20:43
514,100,3,2014-11-06 23:20:47
515,100,3,2014-11-06 23:20:50
516,100,3,2014-11-06 23:20:54
517,100,3,2014-11-06 23:20:57
518,100,3,2014-11-06 23:21:01
519,100,3,2014-11-06 23:21:05
520,100,3,2014-11-06 23:21:08
521,100,3,2014-11-06 23:21:12
522,100,3,2014-11-06 23:21:15
523,100,3,2014-11-06 23:21:19
524,100,3,2014-11-06 23:21:22
525,100,3,2014-11-06 23:21:26
526,100,3,2014-11-06 23:21:30
527,100,3,2014-11-06 23:21:33
528,100,3,2014-11-06 23:21:37
529,100,3,2014-11-06 23:21:40
530,100,3,2014-11-06 23:21:44
531,100,3,2014-11-06 23:21:47
532,100,3,2014-11-06 23:21:51
533,100,3,2014-11-06 23:21:55
534,100,3,2014-11-06 23:21:58
535,100,3,2014-11-06 23:22:02
536,100,3,2014-11-06 23:22:05
537,100,3,2014-11-06 23:22:09
538,100,3,2014-11-06 23:22:12
539,100,3,2014-11-06 23:22:16
540,100,3,2014-11-06 23:22:19
541,100,3,2014-11-06 23:22:23
542,100,3,2014-11-06 23:22:26
543,100,3,2014-11-06 23:22:30
544,100,3,2014-11-06 23:22:34
545,100,3,2014-11-06 23:22:37
546,100,3,2014-11-06 23:22:41
547,100,3,2014-11-06 23:22:44
548,100,3,2014-11-06 23:22:48
549,100,3,2014-11-06 23:22:51
550,100,3,2014-11-06 23:22:55
551,100,3,2014-11-06 23:22:58
552,100,3,2014-11-06 23:23:02
553,100,3,2014-11-06 23:23:06
554,100,3,2014-11-06 23:23:09
555,100,3,2014-11-06 23:23:13
556,100,3,2014-11-06 23:23:17
