50,4,1415840730981
90,3,1415840751465
100,3,1415840755032
100,3,1415840758527
77,3,1415840762051
62,3,1415840799758
77,3,1415840803238
100,3,1415840807047
100,3,1415840810531
100,3,1415840814126
100,3,1415840817660
100,3,1415840821233
100,3,1415840824796
100,3,1415840828625
100,3,1415840832211
100,3,1415840835731
100,3,1415840839291
100,3,1415840842868
100,3,1415840846428
64,4,1415840875590
63,3,1415840913412
100,3,1415840917214
100,3,1415840921033
100,3,1415840924928
100,3,1415840928717
100,3,1415840932543
100,3,1415840936291
100,3,1415840939871
100,3,1415840944471
100,3,1415840948357
100,3,1415840952134
100,3,1415840955831
100,3,1415840959814
100,3,1415840963655
100,3,1415840967625
100,3,1415840971603
100,3,1415840975510
100,3,1415840979476
100,3,1415840983139
100,3,1415840987101
100,3,1415840991310
100,3,1415840995073
100,3,1415840998977
100,3,1415841002877
100,3,1415841006845
100,3,1415841010608
100,3,1415841014944
100,3,1415841018523
100,3,1415841022306
100,3,1415841026090
100,3,1415841030054
100,3,1415841033899
100,3,1415841038482
100,3,1415841042034
100,3,1415841045814
100,3,1415841049599
100,3,1415841053369
100,3,1415841057148
100,3,1415841061353
100,3,1415841065137
100,3,1415841069116
100,3,1415841072767
100,3,1415841076532
100,3,1415841080300
100,3,1415841084771
100,3,1415841088308
100,3,1415841092068
100,3,1415841095892
100,3,1415841099680
100,3,1415841103285
100,3,1415841107668
100,3,1415841111436
100,3,1415841115198
100,3,1415841118978
100,3,1415841122767
100,3,1415841126567
100,3,1415841130368
71,4,1415841159582
46,3,1415841188793
57,4,1415841208217
42,4,1415841237416
62,3,1415841275098
100,3,1415841279020
100,3,1415841282939
100,3,1415841286550
100,3,1415841290338
100,3,1415841294102
100,3,1415841297902
100,3,1415841301678
100,3,1415841305224
100,3,1415841309458
100,3,1415841313165
100,3,1415841316736
100,3,1415841320709
100,3,1415841324272
100,3,1415841328237
100,3,1415841331924
100,3,1415841335707
100,3,1415841339568
100,3,1415841343435
100,3,1415841347170
100,3,1415841350705
100,3,1415841354511
100,3,1415841358291
100,3,1415841362252
100,3,1415841366850
100,3,1415841370415
100,3,1415841374193
100,3,1415841377978
100,3,1415841382088
100,3,1415841385971
100,3,1415841389693
100,3,1415841393473
100,3,1415841397263
100,3,1415841401045
100,3,1415841405033
100,3,1415841408914
100,3,1415841413240
100,3,1415841416985
100,3,1415841420753
100,3,1415841424554
100,3,1415841428595
100,3,1415841432583
100,3,1415841436844
100,3,1415841440593
100,3,1415841445165
100,3,1415841448701
100,3,1415841452445
100,3,1415841456190
100,3,1415841459934
100,3,1415841463774
100,3,1415841467644
100,3,1415841471845
100,3,1415841475608
100,3,1415841479396
100,3,1415841483182
100,3,1415841487153
100,3,1415841490944
100,3,1415841494833
100,3,1415841498598
100,3,1415841502377
100,3,1415841505928
100,3,1415841509890
100,3,1415841513632
100,3,1415841517394
100,3,1415841521212
100,3,1415841525122
100,3,1415841528814
100,3,1415841532594
100,3,1415841536574
100,3,1415841540298
100,3,1415841543930
100,3,1415841547732
100,3,1415841551503
100,3,1415841555470
100,3,1415841559099
100,3,1415841562917
100,3,1415841566660
100,3,1415841570238
100,3,1415841574203
100,3,1415841577950
100,3,1415841581732
100,3,1415841585515
100,3,1415841589300
100,3,1415841593158
100,3,1415841597051
100,3,1415841601198
100,3,1415841604881
100,3,1415841608823
100,3,1415841612628
100,3,1415841616685
100,3,1415841620417
100,3,1415841624205
100,3,1415841627991
100,3,1415841631862
100,3,1415841635738
100,3,1415841639544
100,3,1415841643328
100,3,1415841647514
100,3,1415841651277
100,3,1415841655238
100,3,1415841658964
100,3,1415841662750
100,3,1415841666584
100,3,1415841670375
100,3,1415841674726
100,3,1415841678914
100,3,1415841682892
100,3,1415841686692
100,3,1415841690460
100,3,1415841694305
100,3,1415841698088
100,3,1415841701878
100,3,1415841705661
100,3,1415841709563
100,3,1415841713350
100,3,1415841717354
100,3,1415841721419
100,3,1415841725204
100,3,1415841729129
100,3,1415841732893
100,3,1415841736663
100,3,1415841740870
100,3,1415841745008
100,3,1415841748794
100,3,1415841752558
100,3,1415841756377
52,4,1415842663075
58,4,1415842692464
58,4,1415842721631
64,4,1415842758158
40,4,1415842787525
50,4,1415842816960
50,4,1415842846168
100,5,1415842901690
63,3,1415842918898
100,3,1415842922933
100,3,1415842926713
100,3,1415842930246
100,3,1415842934194
100,3,1415842937975
100,3,1415842941761
100,3,1415842946236
100,3,1415842949881
100,3,1415842953474
100,3,1415842957440
100,3,1415842961229
100,3,1415842965032
100,3,1415842968890
100,3,1415842972598
100,3,1415842976384
100,3,1415842980137
100,3,1415842984031
100,3,1415842987837
100,3,1415842991702
100,3,1415842995583
100,3,1415842999466
100,3,1415843003408
100,3,1415843007079
100,3,1415843010991
100,3,1415843014570
100,3,1415843018797
100,3,1415843022698
100,3,1415843026647
100,3,1415843030429
100,3,1415843034170
100,3,1415843038006
100,3,1415843042218
100,3,1415843045908
100,3,1415843049751
100,3,1415843053395
100,3,1415843057062
100,3,1415843060845
100,3,1415843065154
100,3,1415843069050
100,3,1415843072793
100,3,1415843076582
100,3,1415843080341
100,3,1415843084175
100,3,1415843088403
100,3,1415843092187
100,3,1415843095927
100,3,1415843099712
100,3,1415843103577
100,3,1415843107373
100,3,1415843111602
100,3,1415843115384
100,3,1415843119174
100,3,1415843122977
100,3,1415843126934
100,3,1415843130507
100,3,1415843134286
100,3,1415843138074
100,3,1415843141855
100,3,1415843145661
100,3,1415843150361
100,3,1415843153948
100,3,1415843157736
100,3,1415843161520
100,3,1415843165386
100,3,1415843169270
100,3,1415843173012
100,3,1415843176760
100,3,1415843180540
100,3,1415843184248
100,3,1415843188231
100,3,1415843191957
100,3,1415843195742
100,3,1415843199906
100,3,1415843203690
100,3,1415843207351
100,3,1415843211140
100,3,1415843214740
100,3,1415843218489
100,3,1415843222669
100,3,1415843226774
100,3,1415843230361
100,3,1415843234304
100,3,1415843237994
100,3,1415843241554
100,3,1415843245383
100,3,1415843249273
100,3,1415843253029
100,3,1415843257436
100,3,1415843261000
100,3,1415843264823
100,3,1415843268790
100,3,1415843272571
100,3,1415843276258
100,3,1415843280439
100,3,1415843284296
100,3,1415843288206
100,3,1415843291971
100,3,1415843295757
100,3,1415843299543
100,3,1415843303290
100,3,1415843307098
100,3,1415843310851
100,3,1415843314631
100,3,1415843318438
100,3,1415843321978
100,3,1415843372974
100,3,1415843378758
100,3,1415843382719
100,3,1415843386601
100,3,1415843390384
100,3,1415843394163
100,3,1415843397953
100,3,1415843401929
56,4,1415845663528
46,4,1415845692774
100,5,1415845713322
87,3,1415845713400
46,4,1415845725415
100,5,1415845754688
60,4,1415845754831
100,3,1415845775947
100,3,1415845779721
100,3,1415845783502
100,3,1415845787261
100,3,1415845790925
100,3,1415845794720
100,3,1415845798705
100,3,1415845802469
100,3,1415845806251
100,3,1415845810058
100,3,1415845814046
100,3,1415845817837
100,3,1415845822110
100,3,1415845825991
100,3,1415845829746
100,3,1415845833345
100,3,1415845837202
85,3,1415845841061
100,3,1415845844843
100,3,1415845848861
100,3,1415845852694
100,3,1415845856492
100,3,1415845860825
100,3,1415845864363
100,3,1415845868085
100,3,1415845872051
100,3,1415845875841
100,3,1415845879708
100,3,1415845883529
100,3,1415845887769
100,3,1415845891500
100,3,1415845895025
100,3,1415845898553
100,3,1415845902726
100,3,1415845906503
100,3,1415845910273
100,3,1415845914236
100,3,1415845917996
100,3,1415845921787
100,3,1415845926196
100,3,1415845929755
100,3,1415845933570
100,3,1415845937505
100,3,1415845941311
100,3,1415845945100
100,3,1415845948696
100,3,1415845952493
100,3,1415845956027
100,3,1415845959796
100,3,1415845963556
100,3,1415845967320
100,3,1415845971547
100,3,1415845975291
100,3,1415845979074
100,3,1415845982860
100,3,1415845986631
100,3,1415845990352
100,3,1415845994094
100,3,1415845998574
100,3,1415846002204
100,3,1415846005984
100,3,1415846009851
100,3,1415846013602
100,3,1415846018055
100,3,1415846021603
100,3,1415846025388
100,3,1415846029177
100,3,1415846032960
100,3,1415846036853
100,3,1415846040720
100,3,1415846045094
100,3,1415846049057
100,3,1415846052812
100,3,1415846056505
100,3,1415846060681
100,3,1415846064521
100,3,1415846068519
100,3,1415846072264
100,3,1415846076031
100,3,1415846080117
100,3,1415846083779
100,3,1415846087649
100,3,1415846091649
100,3,1415846095431
100,3,1415846099141
100,3,1415846102975
100,3,1415846106837
100,3,1415846110991
100,3,1415846114776
100,3,1415846118556
100,3,1415846122683
100,3,1415846126313
69,3,1415846139161
100,3,1415846142946
100,3,1415846146967
100,3,1415846150494
92,3,1415846154263
92,3,1415846157965
100,3,1415846161750
100,3,1415846165412
100,3,1415846169368
100,3,1415846172981
100,3,1415846176722
100,3,1415846181332
100,3,1415846184902
100,3,1415846189081
100,3,1415846192763
100,3,1415846196554
100,3,1415846200315
100,3,1415846204421
100,3,1415846208108
100,3,1415846211852
100,3,1415846215635
100,3,1415846219421
100,3,1415846223209
100,3,1415846227172
100,3,1415846231442
100,3,1415846235178
100,3,1415846239047
100,3,1415846242827
100,3,1415846247044
100,3,1415846250695
100,3,1415846254460
100,3,1415846258241
64,4,1415847493952
46,4,1415847523011
100,3,1415847543904
100,3,1415847547492
100,3,1415847551363
100,3,1415847555274
100,3,1415847559425
100,3,1415847563619
100,3,1415847567360
100,3,1415847570942
100,3,1415847574709
100,3,1415847578471
100,3,1415847582216
100,3,1415847586596
100,3,1415847590434
100,3,1415847594369
100,3,1415847598313
100,3,1415847602035
100,3,1415847605851
100,3,1415847609529
100,3,1415847613290
100,3,1415847616982
100,3,1415847620738
100,3,1415847624643
100,3,1415847629004
100,3,1415847632715
100,3,1415847636582
100,3,1415847640345
100,3,1415847644115
100,3,1415847648134
100,3,1415847652103
100,3,1415847655843
100,3,1415847659602
100,3,1415847663374
100,3,1415847667109
100,3,1415847671287
100,3,1415847675064
100,3,1415847678850
100,3,1415847682614
100,3,1415847686365
100,3,1415847690442
100,3,1415847694238
100,3,1415847698493
100,3,1415847702318
100,3,1415847706105
100,3,1415847709882
100,3,1415847713738
100,3,1415847717574
92,3,1415847721550
100,3,1415847725330
100,3,1415847729051
100,3,1415847732713
100,3,1415847736637
100,3,1415847740424
100,3,1415847744189
100,3,1415847748515
100,3,1415847752481
100,3,1415847756240
100,3,1415847760007
100,3,1415847763894
100,3,1415847767616
100,3,1415847771402
100,3,1415847775322
100,3,1415847779014
100,3,1415847782998
100,3,1415847786848
100,3,1415847791217
100,3,1415847794770
100,3,1415847798514
100,3,1415847802279
100,3,1415847806062
100,3,1415847809970
100,3,1415847813846
100,3,1415847817539
100,3,1415847821289
100,3,1415847825045
100,3,1415847828830
100,3,1415847832627
100,3,1415847836300
100,3,1415847839965
100,3,1415847843853
100,3,1415847847492
100,3,1415847851269
100,3,1415847855838
100,3,1415847859408
100,3,1415847863232
100,3,1415847867014
100,3,1415847870723
100,3,1415847874461
100,3,1415847878638
100,3,1415847882834
100,3,1415847886622
100,3,1415847890463
100,3,1415847894227
100,3,1415847898172
100,3,1415847902546
100,3,1415847906144
100,3,1415847909928
100,3,1415847913710
100,3,1415847917454
100,3,1415847921432
100,3,1415847925153
100,3,1415847929410
100,3,1415847933153
73,3,1415847962729
100,3,1415847966520
100,3,1415847970475
100,3,1415847974330
100,3,1415847978163
100,3,1415847981954
100,3,1415847985735
100,3,1415847989519
100,3,1415847993304
100,3,1415847997703
100,3,1415848001492
100,3,1415848005160
100,3,1415848009101
100,3,1415848012907
100,3,1415848016871
100,3,1415848020693
100,3,1415848024475
100,5,1415848737898
100,5,1415848746631
37,4,1415848763852
71,2,1415848783135
100,5,1415848795113
100,5,1415848798589
66,4,1415848807078
100,5,1415848836505
69,4,1415848836842
100,5,1415848857918
56,4,1415848867015
56,4,1415848896391
35,0,1415848927083
48,2,1415848946414
42,3,1415848976018
92,3,1415848979798
56,4,1415849009964
84,2,1415849020752
92,2,1415849024531
100,2,1415849028297
100,2,1415849032114
100,2,1415849036003
100,2,1415849039641
100,2,1415849043250
100,2,1415849047081
100,2,1415849050888
92,2,1415849054799
100,2,1415849058918
85,2,1415849062722
100,2,1415849066480
85,2,1415849070252
85,2,1415849074017
100,2,1415849077920
92,2,1415849082376
100,2,1415849085950
100,2,1415849089735
92,2,1415849093513
85,2,1415849097302
38,4,1415849125983
56,4,1415849150462
54,4,1415849181123
85,4,1415849210443
62,4,1415849240499
43,2,1415849260714
39,2,1415849285113
64,3,1415849315021
100,3,1415849319399
100,3,1415849322999
85,3,1415849326869
100,3,1415849330636
50,3,1415849342896
100,3,1415849346924
85,3,1415849351507
92,3,1415849355071
100,3,1415849358800
100,3,1415849362594
100,3,1415849366472
100,3,1415849370212
100,3,1415849373986
100,3,1415849377880
100,3,1415849381638
100,3,1415849385396
50,3,1415849397894
100,3,1415849401858
92,3,1415849405586
100,3,1415849409791
100,3,1415849413553
100,3,1415849417284
100,3,1415849420933
77,3,1415849424808
100,3,1415849428734
100,3,1415849433421
85,3,1415849437206
61,4,1415849458148
92,3,1415849479569
77,3,1415849483166
92,3,1415849487131
92,3,1415849490909
62,3,1415849494637
58,4,1415849524532
75,4,1415849554901
50,4,1415849584420
83,4,1415849615062
48,4,1415849643529
52,4,1415849667988
61,2,1415849687552
77,2,1415849691707
62,2,1415849695491
77,2,1415849699277
54,4,1415849711967
100,5,1415849742187
62,4,1415849742207
100,3,1415849763435
100,3,1415849767240
100,3,1415849771009
100,3,1415849774775
100,3,1415849779291
100,3,1415849783095
100,3,1415849786920
100,3,1415849790710
92,3,1415849794494
69,3,1415849798242
62,3,1415849811209
100,3,1415849814823
100,3,1415849818661
100,3,1415849822391
100,3,1415849826207
100,3,1415849829945
100,3,1415849833864
100,3,1415849837596
100,3,1415849841155
100,3,1415849844919
85,3,1415849848664
100,3,1415849852607
85,3,1415849856410
100,3,1415849860256
100,3,1415849864491
92,3,1415849868249
87,3,1415849897960
100,3,1415849901679
100,3,1415849905469
100,3,1415849909906
100,3,1415849913723
92,3,1415849917520
100,3,1415849921283
100,3,1415849925085
100,3,1415849928830
100,3,1415849933201
100,3,1415849936916
100,3,1415849940722
100,3,1415849944685
85,3,1415849948394
85,3,1415849952141
100,3,1415849956567
100,3,1415849960145
100,3,1415849963934
100,3,1415849967719
100,3,1415849971459
100,3,1415849975270
100,3,1415849979090
100,3,1415849983318
100,3,1415849987147
100,3,1415849990767
100,3,1415849994530
100,3,1415849998453
100,3,1415850002253
100,3,1415850005761
100,3,1415850009344
100,3,1415850013308
100,3,1415850017067
100,3,1415850020854
100,3,1415850024542
100,3,1415850028305
100,3,1415850032141
100,3,1415850036677
100,3,1415850040615
100,3,1415850044351
100,3,1415850048248
100,3,1415850051931
100,3,1415850055454
100,3,1415850074631
100,3,1415850078698
100,3,1415850082489
92,3,1415850086270
77,3,1415850090071
92,3,1415850093843
100,3,1415850097577
100,3,1415850101374
100,3,1415850105149
100,3,1415850108918
100,3,1415850112833
100,3,1415850116869
100,3,1415850120650
100,3,1415850124232
100,3,1415850128054
100,3,1415850131869
100,3,1415850135726
100,3,1415850139891
85,3,1415850143663
85,3,1415850147481
100,3,1415850151245
100,5,1415850155158
39,2,1415850182594
85,2,1415850186154
55,2,1415850214902
85,2,1415850218721
54,2,1415850222653
40,4,1415850252062
100,5,1415850273375
57,3,1415850290982
77,3,1415850295182
100,3,1415850298924
100,3,1415850302905
100,3,1415850306650
100,3,1415850310423
54,3,1415850314206
50,3,1415850326492
100,3,1415850330353
100,3,1415850334018
100,3,1415850338255
100,3,1415850341955
100,3,1415850345701
100,3,1415850349520
100,3,1415850353385
100,3,1415850356965
100,3,1415850361312
100,3,1415850364876
100,3,1415850368638
100,3,1415850372445
100,3,1415850376279
100,3,1415850380018
85,3,1415850383786
100,3,1415850388212
100,3,1415850391893
100,3,1415850395670
100,3,1415850399393
100,3,1415850403147
100,3,1415850406886
92,3,1415850411345
100,3,1415850414931
100,3,1415850418684
100,3,1415850422492
100,3,1415850426254
77,3,1415850430089
100,3,1415850433971
100,3,1415850437864
100,3,1415850441430
100,3,1415850445192
100,3,1415850449089
100,3,1415850453425
100,3,1415850457006
100,3,1415850460755
100,3,1415850464494
100,3,1415850468272
100,3,1415850472186
100,3,1415850476492
100,3,1415850480281
100,3,1415850484038
100,3,1415850487785
100,3,1415850491591
100,3,1415850495355
100,3,1415850499713
100,3,1415850503302
100,3,1415850507116
100,3,1415850510735
92,3,1415850514651
100,3,1415850518868
85,3,1415850522692
100,3,1415850526389
100,3,1415850530156
100,3,1415850534061
100,3,1415850537642
77,3,1415850541489
100,3,1415850545736
92,3,1415850549530
85,3,1415850553398
100,3,1415850557150
100,3,1415850561012
100,3,1415850564775
100,3,1415850569123
100,3,1415850572982
100,3,1415850576750
100,3,1415850580707
73,3,1415850610086
92,3,1415850614545
100,3,1415850618255
85,3,1415850622119
77,3,1415850625826
100,3,1415850629618
100,3,1415850633315
100,3,1415850637094
100,3,1415850641673
100,3,1415850645344
100,3,1415850649148
100,3,1415850652857
100,3,1415850656639
100,3,1415850660424
100,3,1415850664809
100,3,1415850668416
92,3,1415850672202
100,3,1415850676163
100,3,1415850679950
100,3,1415850683733
100,3,1415850687586
100,3,1415850691845
100,3,1415850695609
100,3,1415850699461
100,3,1415850703274
100,3,1415850707024
85,3,1415850710749
100,3,1415850714454
100,3,1415850718093
100,3,1415850721923
100,3,1415850725614
100,3,1415850729364
100,3,1415850732991
100,3,1415850736835
92,3,1415850740582
100,3,1415850744577
92,3,1415850748307
100,3,1415850752051
100,3,1415850755798
100,3,1415850759640
92,3,1415850763867
100,3,1415850767700
100,3,1415850771436
100,3,1415850775168
100,3,1415850778957
100,5,1415851025902
35,3,1415851046963
50,3,1415851059409
100,5,1415851079016
35,4,1415851079168
69,3,1415851109942
92,3,1415851113897
85,3,1415851117403
47,3,1415851129644
54,3,1415851141953
92,3,1415851145776
100,3,1415851149550
100,3,1415851153308
64,3,1415851183017
62,3,1415851187168
100,3,1415851191103
85,3,1415851194913
85,3,1415851198692
50,3,1415851210955
100,3,1415851214749
100,3,1415851219141
50,3,1415851231381
62,3,1415851235161
100,3,1415851238943
69,3,1415851242760
41,3,1415851264141
92,3,1415851267942
77,3,1415851271811
100,3,1415851275559
69,3,1415851279432
77,3,1415851283250
100,5,1415851304895
52,4,1415851313853
56,4,1415851343900
100,5,1415851347677
75,3,1415851374961
100,3,1415851378736
100,3,1415851382533
100,3,1415851386310
100,3,1415851390100
100,3,1415851394034
100,3,1415851397742
100,3,1415851401520
100,3,1415851405272
100,3,1415851409014
54,3,1415851412839
48,4,1415851442259
87,3,1415851464009
100,3,1415851467715
77,3,1415851471320
100,3,1415851475047
100,3,1415851478793
100,3,1415851483367
100,3,1415851487200
100,3,1415851490988
100,3,1415851494771
100,3,1415851498555
100,3,1415851502297
100,3,1415851506240
100,3,1415851510048
100,3,1415851513813
100,3,1415851517602
92,3,1415851521324
85,3,1415851525149
100,3,1415851529028
92,3,1415851533042
92,3,1415851536824
100,3,1415851540654
100,3,1415851544428
100,3,1415851548315
100,3,1415851552095
100,3,1415851555846
100,3,1415851559590
77,3,1415851563335
100,3,1415851567080
100,3,1415851570999
100,3,1415851574749
92,3,1415851579109
54,3,1415851591318
100,3,1415851595096
100,3,1415851599039
100,3,1415851602822
100,3,1415851606584
100,3,1415851610964
100,3,1415851614562
100,3,1415851618267
100,3,1415851622031
100,3,1415851625852
100,3,1415851630110
100,3,1415851633752
100,3,1415851637709
92,3,1415851641430
100,3,1415851645174
100,3,1415851648941
92,3,1415851652690
100,3,1415851656522
100,3,1415851660156
92,3,1415851664123
92,3,1415851667974
69,3,1415851671749
100,3,1415851675531
92,3,1415851679315
100,3,1415851683101
85,3,1415851687533
100,3,1415851691289
100,3,1415851695051
100,3,1415851698875
100,3,1415851702627
100,3,1415851706465
100,3,1415851710693
100,3,1415851714479
100,3,1415851718246
92,3,1415851721986
100,3,1415851725729
85,3,1415851729661
100,3,1415851733411
100,3,1415851736964
100,3,1415851740725
100,3,1415851744490
100,3,1415851748296
100,3,1415851752134
100,3,1415851755944
100,3,1415851759686
100,3,1415851763427
100,3,1415851767176
100,3,1415851770923
69,3,1415851774524
100,3,1415851778304
100,3,1415851782538
77,3,1415851786280
100,3,1415851790205
100,3,1415851793946
100,3,1415851797812
85,3,1415851801560
100,3,1415851805343
77,3,1415851809128
100,3,1415851812906
77,3,1415851816699
100,3,1415851820540
100,3,1415851824326
100,3,1415851828617
100,3,1415851832395
100,3,1415851836159
100,3,1415851839981
100,3,1415851843728
100,3,1415851847454
100,3,1415851851291
100,3,1415851855441
92,3,1415851859190
100,3,1415851862954
100,3,1415851866676
85,3,1415851870465
100,3,1415851874397
100,3,1415851878116
100,3,1415851882089
100,3,1415851885661
100,3,1415851889549
100,3,1415851893330
100,3,1415851897024
100,3,1415851900699
100,3,1415851905023
100,3,1415851908749
100,3,1415851912604
100,3,1415851916628
100,3,1415851920293
100,3,1415851923996
77,3,1415851927626
100,3,1415851931352
100,3,1415851935517
62,3,1415851939494
92,3,1415851943444
100,3,1415851947244
100,5,1415852199895
52,4,1415852226961
44,4,1415852257550
46,2,1415852276919
54,4,1415852290052
40,4,1415852309392
71,4,1415852340519
54,4,1415852366542
87,2,1415852377327
92,2,1415852381263
92,2,1415852385305
92,2,1415852389092
100,2,1415852392994
100,2,1415852396750
100,2,1415852400553
92,2,1415852404287
85,2,1415852408774
92,2,1415852412382
100,2,1415852416179
77,2,1415852419983
100,2,1415852423850
92,2,1415852427667
54,2,1415852432058
100,2,1415852435690
85,2,1415852439436
77,2,1415852443194
46,4,1415852455503
44,4,1415852474965
48,4,1415852505170
92,2,1415852515929
100,2,1415852519695
58,4,1415852544193
48,4,1415852574024
29,2,1415852598471
69,2,1415852602351
69,2,1415852606114
56,4,1415852636905
77,2,1415852656502
50,2,1415852668896
100,2,1415852672703
60,4,1415852702024
100,5,1415852714362
100,5,1415852722913
51,3,1415852740943
100,3,1415852745101
77,3,1415852748861
100,3,1415852752632
100,3,1415852756393
100,3,1415852760816
100,3,1415852764383
100,3,1415852768145
100,3,1415852771981
100,3,1415852775680
100,3,1415852779531
100,3,1415852783408
85,3,1415852787575
100,3,1415852791380
100,3,1415852795122
100,3,1415852798866
100,3,1415852802647
100,5,1415852814991
100,5,1415852818470
52,3,1415852835667
77,3,1415852839176
54,3,1415852851235
54,4,1415852880204
100,3,1415852900969
100,3,1415852904800
100,3,1415852909319
100,3,1415852912869
77,3,1415852916660
100,3,1415852920528
100,3,1415852924036
100,3,1415852927685
100,3,1415852931741
100,3,1415852935654
100,3,1415852939560
100,3,1415852943327
100,3,1415852947108
100,3,1415852951069
100,3,1415852955444
100,3,1415852959002
100,3,1415852962977
100,3,1415852966931
100,3,1415852970655
100,3,1415852974441
100,3,1415852978404
100,3,1415852982763
100,3,1415852986797
100,3,1415852990718
100,3,1415852994503
100,3,1415852998270
100,3,1415853002094
100,3,1415853005956
100,3,1415853009942
100,3,1415853013774
100,3,1415853017518
100,3,1415853021077
100,3,1415853025023
100,3,1415853028602
100,3,1415853032410
100,3,1415853036170
100,3,1415853040041
100,3,1415853043874
100,3,1415853047390
100,3,1415853050968
100,3,1415853054912
100,3,1415853058600
100,3,1415853062363
100,3,1415853066344
100,3,1415853070371
100,3,1415853074138
100,3,1415853077922
100,3,1415853081770
100,3,1415853085492
100,3,1415853089477
100,3,1415853093078
100,3,1415853097227
100,3,1415853100967
100,3,1415853104749
100,3,1415853108570
100,3,1415853112322
100,3,1415853116126
100,3,1415853119908
100,3,1415853123851
100,3,1415853127826
100,3,1415853131650
100,3,1415853135387
100,3,1415853139747
100,3,1415853143491
100,3,1415853147370
100,3,1415853150983
100,3,1415853154748
100,3,1415853158730
100,3,1415853162477
100,3,1415853166665
100,3,1415853170506
100,3,1415853174290
100,3,1415853178078
100,3,1415853181941
100,3,1415853186372
100,3,1415853189972
100,3,1415853193756
100,3,1415853197538
100,3,1415853201323
100,3,1415853205371
100,3,1415853209250
100,3,1415853213398
100,3,1415853217182
100,3,1415853221146
100,3,1415853224930
100,3,1415853228720
100,3,1415853232501
100,3,1415853236666
100,3,1415853240454
100,3,1415853244359
100,3,1415853248117
100,3,1415853251884
100,3,1415853255688
100,3,1415853260220
100,3,1415853263795
100,3,1415853267804
100,3,1415853271817
100,3,1415853275671
85,3,1415853279651
100,3,1415853284077
100,3,1415853287880
100,3,1415853291668
100,3,1415853295455
100,3,1415853299270
100,3,1415853303025
100,3,1415853306799
100,3,1415853310890
100,3,1415853314393
100,3,1415853318210
100,3,1415853321904
100,3,1415853325667
100,3,1415853329319
100,3,1415853333333
100,3,1415853337163
100,3,1415853340889
100,3,1415853344711
100,3,1415853348497
100,3,1415853352479
100,3,1415853356604
100,3,1415853360383
100,3,1415853364052
100,3,1415853367841
100,3,1415853371716
100,3,1415853375647
100,3,1415853379296
100,3,1415853383163
58,4,1415860108511
73,3,1415860137754
100,3,1415860141251
100,3,1415860144966
100,3,1415860148484
100,3,1415860152179
100,3,1415860155906
100,3,1415860159439
100,3,1415860162929
100,3,1415860166713
100,3,1415860170545
100,3,1415860174311
100,3,1415860177917
100,3,1415860181486
100,3,1415860185299
100,3,1415860189684
100,3,1415860193294
100,3,1415860197044
100,3,1415860200960
100,3,1415860204771
100,3,1415860208634
69,3,1415860213074
43,3,1415860225438
100,5,1415860255478
42,4,1415860255522
55,3,1415860293088
77,3,1415860296657
100,3,1415860300198
92,3,1415860303694
100,3,1415860307204
100,3,1415860310773
100,3,1415860314551
100,3,1415860318065
69,3,1415860321681
100,3,1415860325210
100,3,1415860328772
100,3,1415860332364
77,3,1415860335901
100,5,1415860348052
100,5,1415860356658
83,4,1415860365219
69,3,1415860394409
100,3,1415860398025
100,3,1415860401571
74,4,1415860422106
50,4,1415860451237
42,3,1415860480376
62,3,1415860483982
100,3,1415860487553
100,3,1415860491124
100,3,1415860494662
100,3,1415860498197
100,3,1415860501742
100,3,1415860505246
100,3,1415860509039
92,3,1415860512552
100,3,1415860516207
100,3,1415860519752
100,3,1415860523296
92,3,1415860526852
100,3,1415860530378
92,3,1415860533878
92,3,1415860537544
50,3,1415860549564
100,3,1415860553408
100,3,1415860557005
100,3,1415860560564
100,3,1415860564130
100,3,1415860567683
92,3,1415860571272
85,3,1415860574825
54,3,1415860586994
100,3,1415860590726
100,3,1415860594258
100,3,1415860597791
77,4,1415860623648
59,3,1415860661543
43,4,1415860673546
95,3,1415860694592
92,3,1415860698138
100,3,1415860701656
50,3,1415860713674
92,3,1415860717274
100,5,1415860720746
100,5,1415860724267
69,3,1415860749955
100,3,1415860753779
100,3,1415860757544
100,3,1415860761369
100,3,1415860765191
100,3,1415860769696
100,3,1415860773458
100,3,1415860777249
100,3,1415860780972
100,3,1415860784733
100,3,1415860788521
100,3,1415860792415
100,3,1415860795948
100,3,1415860800056
100,3,1415860803570
100,3,1415860807360
100,3,1415860811436
100,3,1415860815095
85,3,1415860818860
100,3,1415860822613
100,3,1415860826402
100,3,1415860830165
100,3,1415860834282
100,3,1415860838597
100,3,1415860842402
100,3,1415860846236
100,3,1415860850112
100,3,1415860853796
100,3,1415860857952
100,3,1415860861590
100,3,1415860865404
100,3,1415860869130
100,3,1415860872933
100,3,1415860876795
100,3,1415860880597
100,3,1415860884369
100,3,1415860888217
100,3,1415860891841
100,3,1415860895785
100,3,1415860899653
100,3,1415860903428
100,3,1415860908153
100,3,1415860911786
100,3,1415860915540
100,3,1415860919816
100,3,1415860923781
100,3,1415860927561
100,3,1415860931926
100,3,1415860935713
100,3,1415860939786
100,3,1415860943573
100,3,1415860947200
100,3,1415860950931
100,3,1415860954675
100,3,1415860959229
100,3,1415860963045
100,3,1415860966882
100,3,1415860970646
100,3,1415860974420
100,3,1415860978126
100,3,1415860981685
100,3,1415860985431
100,3,1415860989196
100,3,1415860992978
100,3,1415860996761
100,3,1415861001077
100,3,1415861004630
100,3,1415861008380
100,3,1415861012335
100,3,1415861016225
100,3,1415861019911
100,3,1415861023878
100,3,1415861028034
100,3,1415861031809
100,3,1415861035713
100,3,1415861039899
100,3,1415861043830
100,3,1415861047415
100,3,1415861051151
100,3,1415861055074
100,3,1415861058737
100,3,1415861062605
100,3,1415861066426
100,3,1415861070210
100,3,1415861074381
100,3,1415861078124
100,3,1415861081870
100,3,1415861085628
100,3,1415861089576
100,3,1415861093321
100,3,1415861097621
100,3,1415861101495
100,3,1415861105198
100,3,1415861108979
100,3,1415861112740
100,3,1415861116525
100,3,1415861120812
100,3,1415861124900
100,3,1415861128733
100,3,1415861133068
100,3,1415861136996
100,3,1415861140869
100,3,1415861144667
100,3,1415861148388
100,3,1415861152152
100,3,1415861155905
100,3,1415861160255
100,3,1415861164059
100,3,1415861167848
100,3,1415861171633
100,3,1415861175480
100,3,1415861179333
100,3,1415861183100
100,3,1415861187026
100,3,1415861190740
100,3,1415861194520
100,3,1415861198395
100,3,1415861202266
100,3,1415861206075
100,3,1415861210319
100,3,1415861214198
100,3,1415861217946
100,3,1415861221726
100,3,1415861225521
100,3,1415861229301
100,3,1415861233041
100,3,1415882700538
100,5,1415882723234
66,3,1415882750142
100,3,1415882753963
100,3,1415882757821
100,3,1415882761916
100,3,1415882765825
100,3,1415882769583
100,3,1415882774085
100,3,1415882777665
100,3,1415882781786
100,3,1415882785684
100,3,1415882789338
100,3,1415882793252
100,3,1415882797577
100,3,1415882801573
100,3,1415882805389
100,3,1415882809235
100,3,1415882813142
100,3,1415882817040
100,3,1415882821660
100,3,1415882825438
100,3,1415882829200
100,3,1415882832796
100,3,1415882836706
100,3,1415882840306
100,3,1415882843834
100,3,1415882847438
100,3,1415882851238
100,3,1415882855063
100,3,1415882859247
100,3,1415882863273
100,3,1415882867038
100,3,1415882870777
100,3,1415882874537
100,3,1415882878385
100,3,1415882882347
100,3,1415882885880
100,3,1415882889716
100,3,1415882893542
100,3,1415882897464
100,3,1415882901290
100,3,1415882905493
100,3,1415882909301
100,3,1415882913164
100,3,1415882916995
100,3,1415882920988
100,3,1415882924742
100,3,1415882928642
100,3,1415882932392
100,3,1415882936193
100,3,1415882940057
100,3,1415882944084
100,3,1415882947944
100,3,1415882951834
100,3,1415882956240
100,3,1415882960222
100,3,1415882963774
100,3,1415882967592
100,3,1415882971420
100,3,1415882975384
100,3,1415882979329
100,3,1415882983251
100,3,1415882987182
100,3,1415882990862
100,3,1415882994704
100,3,1415882999103
100,3,1415883002684
100,3,1415883006179
100,3,1415883009723
77,3,1415883013506
46,3,1415883017023
50,3,1415883029026
50,3,1415883041110
100,3,1415883044844
100,3,1415883048854
100,3,1415883052675
100,3,1415883056478
100,3,1415883060369
100,3,1415883064120
100,3,1415883067990
100,3,1415883072110
100,3,1415883075898
100,3,1415883079824
100,3,1415883084510
100,3,1415883088147
100,3,1415883091956
100,3,1415883095767
100,3,1415883099724
100,3,1415883103570
100,3,1415883107376
100,3,1415883111851
100,3,1415883115644
100,3,1415883119490
100,3,1415883123331
100,3,1415883127151
100,3,1415883130745
100,3,1415883135205
100,3,1415883138817
100,3,1415883142720
100,3,1415883146399
100,3,1415883150464
100,3,1415883154186
100,3,1415883158017
100,3,1415883161841
100,3,1415883165708
100,3,1415883169529
100,3,1415883173548
100,3,1415883177335
100,3,1415883181756
100,3,1415883185328
100,3,1415883189081
100,3,1415883193046
100,3,1415883196905
100,3,1415883200710
100,3,1415883204551
100,3,1415883208359
100,3,1415883212342
100,3,1415883216066
100,3,1415883219910
100,3,1415883223723
100,3,1415883227557
100,3,1415883231831
62,3,1415883536229
100,3,1415883540123
100,3,1415883544086
100,3,1415883548632
100,3,1415883552224
100,3,1415883556042
100,3,1415883559887
100,3,1415883563705
100,3,1415883567690
100,3,1415883571466
100,3,1415883575766
100,3,1415883579610
100,3,1415883583415
100,3,1415883587302
100,3,1415883591596
100,3,1415883595428
100,3,1415883599716
100,3,1415883603521
100,3,1415883607428
100,3,1415883611365
100,3,1415883615193
100,3,1415883619016
100,3,1415883623441
100,3,1415883627297
100,3,1415883631311
100,3,1415883635031
100,3,1415883638879
100,3,1415883642728
100,3,1415883647057
100,3,1415883650639
100,3,1415883654271
100,3,1415883657861
100,3,1415883661503
100,3,1415883665993
100,3,1415883669778
100,3,1415883673543
100,3,1415883677402
100,3,1415883681301
100,3,1415883685023
100,3,1415883688887
100,3,1415883693247
100,3,1415883697084
100,3,1415883700882
100,3,1415883704680
100,3,1415883708550
100,3,1415883712909
100,3,1415883716471
100,3,1415883720324
100,3,1415883724080
100,3,1415883727961
100,3,1415883731891
100,3,1415883735720
100,3,1415883739924
100,3,1415883743761
100,3,1415883747551
100,3,1415883751519
100,3,1415883755595
100,3,1415883759261
100,3,1415883763049
100,3,1415883767135
100,3,1415883771115
100,3,1415883774964
100,3,1415883778805
100,3,1415883782594
100,3,1415883786376
100,3,1415883790621
100,3,1415883794623
100,3,1415883798452
100,3,1415883802216
100,3,1415883806035
100,3,1415883809827
100,3,1415883813819
100,3,1415883817616
100,3,1415883821443
100,3,1415883825283
100,3,1415883829092
100,3,1415883832891
100,3,1415883836429
100,3,1415883839960
54,3,1415883843559
100,3,1415883847101
85,3,1415883850746
66,3,1415883863011
100,3,1415883866900
100,3,1415883870695
100,3,1415883875081
100,3,1415883879108
100,3,1415883882768
100,3,1415883886573
100,3,1415883890423
100,3,1415883894164
100,3,1415883898257
100,3,1415883901847
100,3,1415883905670
92,3,1415883909486
100,3,1415883913283
100,3,1415883917279
92,3,1415883921210
100,3,1415883925035
100,3,1415883928881
100,3,1415883932718
100,3,1415883936527
77,3,1415883940528
100,3,1415883944419
100,3,1415883948601
100,3,1415883952332
100,3,1415883956231
100,3,1415883960426
100,3,1415883964230
100,3,1415883968020
100,3,1415883971831
100,3,1415883975656
100,3,1415883979610
100,3,1415883983240
100,3,1415883986895
100,3,1415883990714
100,3,1415883994861
100,3,1415883998700
100,3,1415884002779
100,3,1415884006386
100,3,1415884010247
92,3,1415884014101
100,3,1415884018302
100,5,1415884297075
58,4,1415884321698
73,3,1415884350785
85,3,1415884354291
100,3,1415884357870
100,3,1415884361456
85,3,1415884365050
69,3,1415884368604
69,3,1415884372223
58,3,1415884399262
100,5,1415884411437
100,5,1415884420025
100,5,1415884428578
100,5,1415884437167
41,4,1415884437190
48,4,1415884466514
100,5,1415884478852
81,3,1415884495968
100,3,1415884500336
92,3,1415884504022
100,3,1415884507722
54,4,1415884520934
100,3,1415884542985
100,3,1415884546894
100,3,1415884550426
100,3,1415884554279
100,3,1415884557856
100,3,1415884561682
100,3,1415884565505
100,3,1415884569513
100,3,1415884573693
100,3,1415884577919
100,3,1415884581738
100,3,1415884585530
100,3,1415884589529
100,3,1415884593682
100,3,1415884597433
100,3,1415884601285
100,3,1415884605113
100,3,1415884608925
100,3,1415884612632
100,3,1415884616667
100,3,1415884620522
100,3,1415884624515
100,3,1415884628378
100,3,1415884632234
100,3,1415884636092
100,3,1415884639968
100,3,1415884643812
100,3,1415884647774
100,3,1415884651621
100,3,1415884655466
100,3,1415884659330
100,3,1415884663305
100,3,1415884667179
100,3,1415884670965
100,3,1415884674811
100,3,1415884678651
100,3,1415884682257
100,3,1415884686304
100,3,1415884690186
100,3,1415884694051
100,3,1415884697882
100,3,1415884701688
100,3,1415884706042
100,3,1415884709650
100,3,1415884713456
100,3,1415884717279
100,3,1415884721086
100,3,1415884724941
100,3,1415884728873
100,3,1415884733099
100,3,1415884736994
100,3,1415884740770
100,3,1415884744612
100,3,1415884748462
100,3,1415884752202
100,3,1415884756045
100,3,1415884759852
100,3,1415884763656
100,3,1415884767713
100,3,1415884771524
100,3,1415884775361
100,3,1415884779683
100,3,1415884783260
100,3,1415884787145
100,3,1415884790954
100,3,1415884794955
100,3,1415884798791
100,3,1415884802714
100,3,1415884806907
100,3,1415884810745
100,3,1415884814637
100,3,1415884818439
100,3,1415884822275
100,3,1415884826491
100,3,1415884830506
100,3,1415884834297
100,3,1415884838098
100,3,1415884841687
100,3,1415884845545
100,3,1415884849389
100,3,1415884853212
100,3,1415884857548
100,3,1415884861372
100,3,1415884865245
100,3,1415884869257
100,3,1415884873003
100,3,1415884876807
100,3,1415884880629
100,3,1415884884934
100,3,1415884889134
100,3,1415884893046
100,3,1415884896891
100,3,1415884900722
100,3,1415884904586
100,3,1415884908440
100,3,1415884912652
100,3,1415884916473
100,3,1415884920459
100,3,1415884924292
100,3,1415884928193
100,3,1415884932090
100,3,1415884935942
100,3,1415884939805
100,3,1415884943625
100,3,1415884947470
100,3,1415884951521
100,3,1415884955340
100,3,1415884959570
100,3,1415884963432
100,3,1415884967256
100,3,1415884971078
100,3,1415884975078
100,3,1415884978891
100,3,1415884982735
100,3,1415884986576
100,3,1415884990399
100,3,1415884994310
100,3,1415884998009
100,3,1415885001829
100,3,1415885006103
100,3,1415885009945
100,3,1415885013962
100,3,1415885017813
100,3,1415885021693
100,3,1415885025511
37,3,1415885189083
100,3,1415885193361
58,3,1415885205680
100,3,1415885209642
100,3,1415885213328
100,3,1415885217160
100,3,1415885220771
100,3,1415885224627
100,3,1415885228246
100,3,1415885231953
100,3,1415885235836
100,3,1415885239755
100,3,1415885243647
100,3,1415885248088
100,3,1415885251932
100,3,1415885255741
100,3,1415885259805
100,3,1415885263582
100,3,1415885267425
100,3,1415885271866
100,3,1415885275483
100,3,1415885279288
100,3,1415885283212
100,3,1415885287120
100,3,1415885290798
100,3,1415885294608
100,3,1415885298575
100,3,1415885302418
100,3,1415885306598
100,3,1415885310183
100,3,1415885314018
100,3,1415885317832
100,3,1415885321634
100,3,1415885325457
100,3,1415885329946
100,3,1415885333489
100,3,1415885337286
100,3,1415885341082
100,3,1415885344707
100,3,1415885348534
100,3,1415885352528
100,3,1415885356354
100,3,1415885360137
100,3,1415885364004
100,3,1415885367885
100,3,1415885371770
100,3,1415885375596
100,3,1415885379508
100,3,1415885383209
100,3,1415885387046
100,3,1415885391023
100,3,1415885394812
100,3,1415885398643
100,3,1415885402667
100,3,1415885406622
100,3,1415885410512
100,3,1415885414324
100,3,1415885418169
100,3,1415885422018
100,3,1415885425633
100,3,1415885429321
100,3,1415885432988
100,3,1415885436810
100,3,1415885440633
100,3,1415885444438
100,3,1415885448417
100,3,1415885452269
100,3,1415885455989
100,3,1415885459839
100,3,1415885464464
100,3,1415885468085
100,3,1415885472059
100,3,1415885475876
100,3,1415885479797
100,3,1415885483389
65,3,1415885521698
100,3,1415885525649
100,3,1415885529559
100,3,1415885533464
100,3,1415885537234
100,3,1415885541630
100,3,1415885545437
100,3,1415885549435
100,3,1415885553164
100,3,1415885557010
100,3,1415885560795
100,3,1415885564679
100,3,1415885568494
100,3,1415885572324
100,3,1415885576170
100,3,1415885580083
100,3,1415885584110
100,3,1415885588567
100,3,1415885592333
100,3,1415885596159
100,3,1415885599961
92,3,1415885603785
100,3,1415885607645
100,3,1415885611536
100,3,1415885615518
100,3,1415885619320
100,3,1415885623121
100,3,1415885626957
77,3,1415885630933
100,3,1415885634856
50,3,1415885644214
100,3,1415885648379
100,3,1415885652476
100,3,1415885656183
46,3,1415885660636
100,3,1415885664434
85,3,1415885668281
100,5,1415885680720
59,4,1415885707231
88,4,1415885738025
100,5,1415885759517
100,5,1415885763779
35,4,1415885767369
100,5,1415885789094
37,0,1415885797857
36,0,1415885823091
33,0,1415885847786
100,5,1415885863489
52,2,1415885867032
100,2,1415885870485
100,2,1415885874322
69,2,1415885877879
100,5,1415885881494
100,5,1415885885045
85,2,1415885889414
100,2,1415885893556
100,2,1415885897341
100,2,1415885901326
100,2,1415885905089
100,2,1415885908870
100,2,1415885912559
100,2,1415885916363
77,2,1415885920200
100,2,1415885924027
92,2,1415885927791
100,5,1415885958435
50,3,1415885958461
48,4,1415885987619
100,5,1415886008232
40,0,1415886025259
100,3,1415886046440
100,3,1415886050220
100,3,1415886053963
100,3,1415886057776
100,3,1415886061595
85,3,1415886065324
92,3,1415886069086
69,3,1415886072863
85,3,1415886076773
75,3,1415886106444
100,3,1415886110208
100,3,1415886113805
100,3,1415886117811
92,3,1415886121575
92,3,1415886125322
100,3,1415886129097
100,3,1415886132906
58,3,1415886145259
92,3,1415886149184
44,4,1415886178498
37,4,1415886209902
68,4,1415886239489
50,4,1415886269417
50,4,1415886290461
60,0,1415886320213
34,3,1415886350099
77,0,1415886371621
92,0,1415886375422
100,0,1415886379346
100,0,1415886383048
69,0,1415886386896
100,0,1415886390620
100,0,1415886394802
100,0,1415886398606
100,0,1415886402488
100,0,1415886406237
92,0,1415886409983
62,0,1415886413731
77,3,1415886435151
48,0,1415886465958
85,0,1415886469873
92,0,1415886473718
62,0,1415886477559
62,0,1415886481415
100,5,1415886494065
52,4,1415886511383
52,0,1415886550401
43,0,1415886588922
61,3,1415886627175
85,3,1415886631003
77,3,1415886635521
100,3,1415886639116
46,3,1415886642883
82,0,1415886664032
69,0,1415886667869
100,0,1415886671487
100,0,1415886675485
85,0,1415886679291
100,0,1415886683182
62,0,1415886686966
77,0,1415886691020
92,0,1415886694612
69,0,1415886698995
100,0,1415886702765
54,0,1415886706529
92,3,1415886727507
85,3,1415886731428
97,0,1415886752490
100,0,1415886756269
77,0,1415886760211
77,0,1415886764042
100,5,1415886783928
60,2,1415886783999
100,2,1415886787549
100,2,1415886791704
100,2,1415886795222
100,5,1415886798711
95,2,1415886805711
100,2,1415886809197
92,2,1415886812832
100,2,1415886816565
85,2,1415886820548
100,2,1415886824316
100,2,1415886828118
100,2,1415886831885
92,2,1415886835670
100,2,1415886839449
92,2,1415886843238
100,2,1415886847069
100,2,1415886851420
92,2,1415886855039
54,2,1415886858802
31,2,1415886862634
85,2,1415886866139
100,5,1415886869666
69,2,1415886876759
100,5,1415886880314
100,5,1415886883928
84,2,1415886887495
92,2,1415886891236
100,2,1415886895068
100,2,1415886898984
100,2,1415886902769
100,2,1415886907101
100,2,1415886910890
77,2,1415886914681
48,2,1415886942719
46,2,1415886946551
85,2,1415886950430
69,2,1415886954195
100,5,1415886966295
41,4,1415886983495
50,3,1415887012796
100,3,1415887016293
62,3,1415887028361
100,3,1415887031885
100,3,1415887035607
100,3,1415887039242
100,3,1415887042715
100,3,1415887046222
100,3,1415887049721
100,3,1415887053460
100,3,1415887057014
92,3,1415887060549
100,3,1415887064045
100,3,1415887067597
100,3,1415887071085
100,3,1415887074575
100,3,1415887078099
100,3,1415887081617
100,3,1415887085164
100,3,1415887088916
100,3,1415887092437
100,3,1415887099608
100,3,1415887103401
100,3,1415887106937
100,3,1415887110434
100,3,1415887113970
100,3,1415887117567
100,3,1415887121136
100,3,1415887124735
100,3,1415887128236
100,3,1415887131819
100,3,1415887135454
100,3,1415887138972
54,3,1415887151156
100,3,1415887154692
77,3,1415887158188
54,3,1415887170209
100,3,1415887173691
100,3,1415887177194
85,3,1415887180839
77,3,1415887184365
100,3,1415887187930
50,4,1415887217240
80,3,1415887255468
100,3,1415887259508
100,3,1415887263432
100,3,1415887267204
100,3,1415887271063
100,3,1415887274894
100,3,1415887279053
100,3,1415887282917
100,3,1415887286812
100,3,1415887290548
100,3,1415887294361
100,3,1415887298333
100,3,1415887302592
100,3,1415887306448
100,3,1415887310441
100,3,1415887314358
100,3,1415887318363
100,3,1415887322221
100,3,1415887326081
100,3,1415887329992
100,3,1415887333964
100,3,1415887337878
100,3,1415887341463
100,3,1415887345434
100,3,1415887349748
100,3,1415887353774
100,3,1415887357606
100,3,1415887361599
100,3,1415887365533
100,3,1415887369343
100,3,1415887373969
100,3,1415887377552
100,3,1415887381401
100,3,1415887385472
100,3,1415887389323
100,3,1415887393172
100,5,1415887402883
100,5,1415887411477
61,3,1415887428569
100,5,1415887441897
100,5,1415887459436
68,4,1415887459588
69,3,1415887489898
77,3,1415887494107
100,3,1415887497998
92,3,1415887501650
62,4,1415887514257
92,3,1415887535809
100,3,1415887539422
100,3,1415887543094
77,3,1415887547077
100,3,1415887550881
100,3,1415887554704
100,3,1415887558528
100,3,1415887562855
100,3,1415887567039
100,3,1415887570776
100,3,1415887574588
100,3,1415887578409
100,3,1415887582255
100,3,1415887586098
100,3,1415887589945
100,3,1415887593753
100,3,1415887597578
100,3,1415887601437
85,3,1415887605286
100,3,1415887609259
100,3,1415887613494
92,3,1415887617301
85,3,1415887621107
62,3,1415887624934
62,3,1415887628792
87,3,1415887658372
100,3,1415887662220
62,3,1415887666046
85,3,1415887670064
54,3,1415887682900
100,3,1415887686743
100,3,1415887690586
62,3,1415887694433
100,3,1415887698433
100,3,1415887702240
100,3,1415887706087
77,3,1415887709891
100,3,1415887714494
100,3,1415887718092
100,3,1415887722004
100,3,1415887725813
100,3,1415887729666
100,3,1415887733497
100,3,1415887737343
100,3,1415887741727
100,3,1415887745308
100,3,1415887749096
100,3,1415887752998
100,3,1415887756784
100,3,1415887760594
100,3,1415887764480
100,3,1415887768336
100,3,1415887772166
100,3,1415887776008
100,3,1415887779852
100,3,1415887783659
100,3,1415887787486
100,3,1415887791754
100,3,1415887795673
100,3,1415887799525
100,3,1415887803521
100,3,1415887807418
100,3,1415887811068
100,3,1415887814972
100,3,1415887818800
100,3,1415887822707
100,3,1415887826629
100,3,1415887830534
100,3,1415887834748
100,3,1415887838381
100,3,1415887842207
100,3,1415887846242
85,3,1415887850054
100,3,1415887853883
100,3,1415887857704
92,3,1415887861519
100,3,1415887865817
92,3,1415887869786
92,3,1415887873729
100,3,1415887877571
100,3,1415887881374
100,3,1415887885336
100,3,1415887889600
100,3,1415887893570
92,3,1415887897437
100,3,1415887901273
100,3,1415887905106
100,3,1415887909012
100,3,1415887912973
100,3,1415887916836
100,3,1415887920627
100,3,1415887924467
100,3,1415887928390
100,3,1415887932203
100,3,1415887936858
100,3,1415887940428
100,3,1415887944214
100,3,1415887948016
100,3,1415887952061
85,3,1415887955882
100,3,1415887959708
100,3,1415887963879
100,3,1415887967679
50,3,1415887980513
100,3,1415887984286
100,3,1415887988088
100,3,1415887991888
100,3,1415887996238
100,3,1415888000219
100,3,1415888004052
100,3,1415888007713
100,3,1415888011555
100,3,1415888015409
100,5,1415888232096
77,3,1415888250023
100,3,1415888253869
62,3,1415888257921
50,3,1415888270505
85,3,1415888274187
92,3,1415888278122
100,3,1415888281972
100,3,1415888285735
100,3,1415888289613
100,3,1415888293222
100,3,1415888296775
100,3,1415888300596
100,3,1415888304537
100,3,1415888308495
100,3,1415888312375
100,3,1415888316702
100,3,1415888320526
100,3,1415888324520
69,3,1415888328595
100,3,1415888332471
92,3,1415888336324
100,3,1415888340270
100,3,1415888344127
100,3,1415888348037
100,3,1415888351936
100,3,1415888355762
100,3,1415888359580
100,3,1415888364018
92,3,1415888367576
100,3,1415888371521
92,3,1415888375339
85,3,1415888379625
100,3,1415888383377
100,3,1415888387260
100,3,1415888391830
100,3,1415888395608
100,3,1415888399454
100,3,1415888403299
100,3,1415888407163
100,3,1415888410973
92,3,1415888414878
100,3,1415888418734
100,3,1415888422420
47,3,1415888434824
92,3,1415888438669
100,3,1415888442509
92,3,1415888446355
100,3,1415888450215
87,3,1415888480385
100,3,1415888484230
100,3,1415888488066
85,3,1415888492783
58,3,1415888505006
92,3,1415888508937
46,3,1415888512676
100,3,1415888516538
100,3,1415888520372
100,3,1415888524753
100,3,1415888528353
92,3,1415888532178
100,3,1415888536250
100,3,1415888540108
92,3,1415888543906
100,3,1415888547891
100,3,1415888551922
62,3,1415888555765
100,3,1415888559630
77,3,1415888563473
100,3,1415888567469
100,3,1415888571260
100,3,1415888575089
100,3,1415888579452
100,3,1415888583278
100,3,1415888587299
100,3,1415888591211
100,3,1415888594992
100,3,1415888598834
100,3,1415888603099
100,3,1415888606925
100,3,1415888610779
100,3,1415888614598
100,3,1415888618433
54,3,1415888622269
100,3,1415888626650
100,3,1415888630715
92,3,1415888634816
92,3,1415888638647
69,3,1415888643342
100,3,1415888646950
100,3,1415888650754
100,3,1415888654600
100,3,1415888658428
100,3,1415888662438
100,3,1415888666290
100,3,1415888670558
100,3,1415888674533
100,3,1415888678141
100,3,1415888681953
100,3,1415888685978
100,3,1415888689779
100,3,1415888694258
100,3,1415888697831
100,3,1415888701674
100,3,1415888705517
100,3,1415888709578
100,3,1415888713149
100,3,1415888717177
100,3,1415888721387
100,3,1415888725204
100,3,1415888729025
100,3,1415888732945
100,5,1415889346980
67,3,1415889372469
100,5,1415889375990
73,3,1415889402082
100,3,1415889406107
100,3,1415889409949
100,3,1415889413841
100,3,1415889417595
100,3,1415889421434
100,3,1415889425258
100,3,1415889428827
100,3,1415889432835
100,3,1415889436698
100,3,1415889441466
100,3,1415889445159
69,3,1415889448938
100,3,1415889452780
83,3,1415889483966
100,3,1415889488046
100,3,1415889492189
100,3,1415889496050
92,3,1415889499913
92,3,1415889503482
100,3,1415889507308
100,3,1415889511154
92,3,1415889515484
92,3,1415889519142
92,3,1415889523122
100,3,1415889526926
100,3,1415889530751
77,3,1415889534602
100,3,1415889538489
100,3,1415889542298
100,3,1415889546503
92,3,1415889550346
85,3,1415889554194
100,3,1415889557923
100,3,1415889562441
92,3,1415889566174
85,3,1415889570062
100,3,1415889573896
92,3,1415889577530
92,3,1415889581349
100,3,1415889585155
92,3,1415889589139
100,3,1415889593021
100,3,1415889596908
100,3,1415889600742
100,3,1415889604530
100,3,1415889608389
85,3,1415889612903
100,3,1415889616431
100,3,1415889620315
100,3,1415889624162
100,3,1415889627962
69,3,1415889631894
100,3,1415889635873
100,3,1415889639801
100,3,1415889643504
77,3,1415889647351
85,3,1415889651193
100,3,1415889655215
100,3,1415889658942
92,3,1415889663391
100,3,1415889667230
100,3,1415889671077
100,3,1415889674940
77,3,1415889678889
85,3,1415889682750
100,3,1415889686635
100,3,1415889690505
100,3,1415889694587
100,3,1415889698466
85,3,1415889702314
46,3,1415889706116
100,3,1415889710007
100,3,1415889714212
100,3,1415889718202
100,3,1415889722021
92,3,1415889725845
77,3,1415889729673
100,3,1415889733515
100,3,1415889737319
100,3,1415889741127
100,3,1415889744989
100,3,1415889748811
100,3,1415889752629
100,3,1415889756676
100,3,1415889760477
100,3,1415889764306
100,3,1415889768133
100,3,1415889771739
100,3,1415889775686
100,3,1415889779505
92,3,1415889783315
81,3,1415889813229
100,3,1415889816977
100,3,1415889820766
100,3,1415889825033
100,3,1415889828856
77,3,1415889832680
100,3,1415889836724
100,3,1415889840571
100,3,1415889844194
100,3,1415889848017
85,3,1415889851822
100,3,1415889855787
100,3,1415889859741
92,3,1415889863339
77,3,1415889867401
92,3,1415889871897
100,3,1415889875593
100,3,1415889879454
85,3,1415889883316
100,5,1415890393488
100,5,1415890402014
33,0,1415890402043
54,0,1415890405697
62,0,1415890418145
100,5,1415890439445
100,5,1415890448760
67,4,1415890448814
100,5,1415890487904
60,4,1415890488032
64,2,1415890508119
100,2,1415890511902
77,2,1415890515853
100,2,1415890519589
54,2,1415890523362
35,2,1415890536077
100,2,1415890539825
100,5,1415890543368
90,2,1415890550349
92,2,1415890553935
62,2,1415890557489
100,5,1415890561404
100,2,1415890568452
100,2,1415890572198
100,2,1415890576680
100,2,1415890580548
100,2,1415890584311
100,2,1415890588065
100,2,1415890591823
92,2,1415890595607
100,2,1415890599990
100,2,1415890603712
100,2,1415890607520
92,2,1415890611283
92,2,1415890615068
100,2,1415890618940
92,2,1415890622794
92,2,1415890626561
92,2,1415890630379
100,2,1415890634078
92,2,1415890637895
100,2,1415890641727
92,2,1415890645563
100,2,1415890649386
100,2,1415890653208
100,2,1415890656998
100,2,1415890660580
100,2,1415890664402
100,2,1415890669065
100,2,1415890672612
100,2,1415890676398
100,2,1415890680225
100,2,1415890683907
100,2,1415890687695
100,2,1415890691962
100,2,1415890695742
100,2,1415890699502
100,2,1415890703442
100,2,1415890707277
100,2,1415890711061
85,2,1415890714928
92,2,1415890718631
100,2,1415890722412
100,2,1415890726357
100,2,1415890730101
100,2,1415890733892
100,2,1415890737612
100,2,1415890741912
100,2,1415890746179
100,2,1415890750026
92,2,1415890753813
100,2,1415890757577
100,2,1415890761377
100,2,1415890765247
92,2,1415890769030
100,2,1415890772791
100,2,1415890776848
100,2,1415890780622
100,2,1415890784531
100,2,1415890788724
100,2,1415890792453
100,2,1415890796242
100,2,1415890800018
100,2,1415890803864
92,2,1415890807475
46,2,1415890811241
71,3,1415890840855
100,3,1415890844712
92,3,1415890849018
100,3,1415890852797
100,3,1415890856562
100,3,1415890860568
100,3,1415890864280
100,3,1415890868932
100,3,1415890872505
100,3,1415890876292
100,3,1415890880001
58,3,1415890892214
100,3,1415890895993
100,3,1415890899776
100,3,1415890903736
100,3,1415890907485
100,3,1415890911247
75,2,1415890931114
100,2,1415890935382
100,2,1415890939158
100,2,1415890942928
100,2,1415890946706
92,2,1415890950706
100,2,1415890954473
100,2,1415890958863
100,2,1415890962460
100,2,1415890966244
100,2,1415890970075
100,2,1415890973875
100,2,1415890977662
92,2,1415890981476
100,2,1415890985956
100,2,1415890989836
100,2,1415890993602
100,2,1415890997382
100,2,1415891001149
100,2,1415891004911
100,2,1415891008831
100,2,1415891012680
100,2,1415891016469
100,2,1415891020250
100,2,1415891024040
92,2,1415891027884
77,2,1415891047309
100,2,1415891051212
92,2,1415891055163
46,2,1415891058940
50,4,1415891071301
100,5,1415891075273
54,2,1415891094388
46,2,1415891097927
100,5,1415891101552
97,2,1415891108967
54,2,1415891112813
57,2,1415891141579
92,2,1415891145645
100,2,1415891149514
100,2,1415891153516
92,2,1415891157083
100,2,1415891161189
85,2,1415891165274
33,3,1415891194858
46,4,1415891219669
64,2,1415891239028
54,4,1415891251546
48,3,1415891281437
50,3,1415891293745
37,2,1415891318870
92,2,1415891322751
100,2,1415891326774
81,3,1415891356510
100,3,1415891360856
54,3,1415891364856
56,2,1415891384144
65,4,1415891413630
100,5,1415891435075
51,3,1415891452386
77,3,1415891456248
100,5,1415891468601
71,3,1415891485725
100,3,1415891489564
100,3,1415891493045
100,3,1415891496603
100,3,1415891500184
100,3,1415891504014
100,3,1415891507536
100,3,1415891511075
100,3,1415891514604
100,3,1415891518159
100,3,1415891521729
100,3,1415891525260
100,3,1415891528798
100,3,1415891532297
100,3,1415891535858
100,3,1415891539351
100,3,1415891542906
100,3,1415891546691
100,3,1415891550207
100,3,1415891553750
100,3,1415891557341
100,3,1415891560864
100,3,1415891564431
100,3,1415891567927
100,3,1415891571462
100,3,1415891574971
100,3,1415891578494
100,3,1415891582066
100,3,1415891585623
100,3,1415891589180
100,3,1415891592773
100,3,1415891596257
100,3,1415891599801
100,3,1415891603317
100,3,1415891606856
100,3,1415891610376
100,3,1415891614214
100,3,1415891617744
100,3,1415891621263
100,3,1415891624778
100,3,1415891628316
100,3,1415891631819
100,3,1415891635618
100,3,1415891639207
100,3,1415891642722
100,3,1415891646304
100,3,1415891649839
100,3,1415891653343
100,3,1415891657146
100,3,1415891660681
100,3,1415891664211
100,3,1415891667791
100,3,1415891671302
100,3,1415891674839
100,3,1415891678343
100,3,1415891681869
100,3,1415891685387
100,3,1415891688924
100,3,1415891692425
100,3,1415891695980
100,3,1415891699505
100,3,1415891703310
100,3,1415891706847
100,3,1415891710367
100,3,1415891713877
100,3,1415891717392
100,3,1415891720878
100,3,1415891724417
100,3,1415891727911
100,3,1415891731471
100,3,1415891734980
100,3,1415891738502
100,3,1415891742047
100,3,1415891745613
100,3,1415891749115
50,3,1415891761150
100,3,1415891764689
100,3,1415891768232
100,3,1415891771763
100,3,1415891775304
100,3,1415891779056
100,3,1415891782632
100,3,1415891786241
100,3,1415891789778
100,3,1415891793370
100,3,1415891796926
100,3,1415891800762
100,3,1415891804284
100,3,1415891807796
100,3,1415891811305
100,3,1415891814853
100,3,1415891818384
100,3,1415891822187
100,3,1415891825703
100,3,1415891829255
100,3,1415891832749
100,3,1415891836269
100,3,1415891840053
100,3,1415891843607
100,3,1415891847217
100,3,1415891850754
100,3,1415891854323
100,3,1415891857874
100,3,1415891861470
100,3,1415891865018
100,3,1415891868553
100,3,1415891872060
100,3,1415891875873
100,3,1415891879428
100,3,1415891882950
100,3,1415891886501
100,3,1415891890062
100,3,1415891893598
100,3,1415891897439
100,3,1415891900981
100,3,1415891904492
100,3,1415891908055
100,3,1415891911603
100,3,1415891915143
100,3,1415891918726
100,3,1415891922255
100,3,1415891925861
100,3,1415891929416
100,3,1415891932989
100,3,1415891936518
100,3,1415891940181
100,3,1415891943698
100,3,1415891947320
100,3,1415891950953
100,3,1415891954515
100,3,1415891958019
100,3,1415891961575
100,3,1415891965116
100,3,1415891968671
100,5,1415892046081
50,4,1415892071628
41,0,1415892104539
77,2,1415892124098
62,2,1415892127687
100,2,1415892131854
100,5,1415892135366
100,5,1415892138940
100,5,1415892147476
65,2,1415892154418
100,2,1415892158029
38,2,1415892161537
100,2,1415892165050
100,2,1415892168595
77,2,1415892172204
100,2,1415892175667
85,2,1415892179243
92,2,1415892182787
100,5,1415892186336
100,5,1415892190107
90,2,1415892193659
85,2,1415892197643
92,2,1415892201472
77,2,1415892205209
79,2,1415892224590
100,2,1415892229033
85,2,1415892233008
100,2,1415892236798
85,2,1415892240587
92,2,1415892244372
100,2,1415892248153
100,2,1415892252597
100,2,1415892256175
100,2,1415892259781
100,2,1415892263649
100,2,1415892267431
100,2,1415892271220
100,2,1415892275167
100,2,1415892279325
100,2,1415892283130
100,2,1415892286888
100,2,1415892291099
92,2,1415892294960
85,2,1415892298534
100,2,1415892302328
100,2,1415892306078
85,2,1415892309920
100,2,1415892313466
92,2,1415892317932
100,2,1415892321664
100,2,1415892325486
100,2,1415892329289
92,2,1415892333115
100,2,1415892337202
100,2,1415892340807
100,2,1415892344861
100,2,1415892348647
100,2,1415892352612
92,2,1415892356435
85,2,1415892360242
85,2,1415892364253
100,2,1415892367988
100,2,1415892371814
62,2,1415892375600
69,2,1415892379413
62,2,1415892383070
77,2,1415892387272
85,2,1415892391062
100,2,1415892395001
69,2,1415892398793
85,2,1415892402638
100,2,1415892406409
100,2,1415892410040
62,2,1415892413542
92,2,1415892417058
100,2,1415892420569
92,2,1415892424399
100,2,1415892427977
100,2,1415892431477
100,2,1415892435067
100,2,1415892438866
77,2,1415892442702
85,2,1415892446417
100,2,1415892450272
85,2,1415892454134
92,2,1415892457950
100,2,1415892461529
69,2,1415892465135
92,2,1415892469256
100,2,1415892472820
100,2,1415892476604
100,2,1415892480440
100,2,1415892484034
77,2,1415892487988
100,2,1415892492323
85,2,1415892496109
85,2,1415892499933
92,2,1415892503883
100,2,1415892507676
92,2,1415892511468
62,2,1415892515693
100,5,1415892519433
87,2,1415892526429
69,2,1415892529959
100,2,1415892533463
100,5,1415892537016
85,2,1415892544198
77,2,1415892548380
92,2,1415892552212
92,2,1415892556104
69,2,1415892559959
62,2,1415892563917
92,2,1415892568517
77,2,1415892572314
92,2,1415892576034
100,2,1415892579783
85,2,1415892583614
92,2,1415892587392
100,2,1415892591155
92,2,1415892594924
100,2,1415892598723
77,2,1415892602648
92,2,1415892606457
100,2,1415892610848
100,2,1415892614383
100,2,1415892617996
77,2,1415892621713
77,2,1415892625541
100,2,1415892629363
100,2,1415892633141
100,2,1415892636913
100,2,1415892640695
92,2,1415892645467
100,2,1415892649091
100,2,1415892652853
100,2,1415892656633
100,2,1415892660419
92,2,1415892663989
92,2,1415892667793
100,2,1415892671986
85,2,1415892675658
92,2,1415892679383
69,2,1415892683349
92,2,1415892687133
62,2,1415892690921
85,2,1415892694768
92,2,1415892699090
100,2,1415892702812
77,2,1415892706373
100,2,1415892710141
100,2,1415892713938
92,2,1415892718372
100,2,1415892722150
37,4,1415892746476
100,5,1415892759011
100,5,1415892767603
100,5,1415892776228
66,4,1415892776376
100,5,1415892817216
77,4,1415892817226
68,3,1415892856021
100,3,1415892860438
100,3,1415892864086
100,3,1415892867992
100,3,1415892871847
100,3,1415892875672
100,3,1415892879501
100,3,1415892883324
100,3,1415892887812
100,3,1415892891701
100,3,1415892895576
100,3,1415892899270
100,3,1415892902986
100,3,1415892906882
100,3,1415892910849
100,3,1415892914704
100,3,1415892918553
100,3,1415892922419
100,3,1415892926300
100,3,1415892930274
100,3,1415892934205
100,3,1415892938046
100,3,1415892941933
100,3,1415892946366
100,3,1415892950643
100,3,1415892954463
100,3,1415892958052
100,3,1415892961870
100,3,1415892966368
100,3,1415892969938
100,3,1415892973755
100,3,1415892977585
100,3,1415892981452
100,3,1415892985267
100,3,1415892989159
38,3,1415892993636
54,3,1415893005958
100,3,1415893009799
100,3,1415893013684
100,3,1415893017753
69,3,1415893021551
100,3,1415893025177
92,3,1415893029060
92,3,1415893032947
100,3,1415893037045
100,3,1415893040860
100,3,1415893044639
100,3,1415893048448
100,3,1415893052318
100,3,1415893056174
100,3,1415893060051
100,3,1415893063848
100,3,1415893067867
100,3,1415893072371
100,3,1415893076147
100,3,1415893080116
100,3,1415893084140
85,3,1415893087972
77,3,1415893091839
85,3,1415893096202
100,3,1415893100029
100,3,1415893103886
100,3,1415893107714
100,3,1415893111585
100,3,1415893115468
100,3,1415893119309
100,3,1415893123188
100,3,1415893127001
100,3,1415893131099
100,3,1415893134879
100,3,1415893138467
100,3,1415893142920
100,3,1415893146761
100,3,1415893150591
100,3,1415893154520
85,3,1415893158425
100,3,1415893162234
54,3,1415893175003
100,3,1415893178880
100,3,1415893182864
100,3,1415893186851
77,3,1415893190715
69,3,1415893194575
85,3,1415893198684
100,3,1415893202547
85,3,1415893206401
100,3,1415893210234
100,3,1415893214104
100,3,1415893217963
100,3,1415893221883
100,3,1415893225812
100,3,1415893229639
100,3,1415893233468
100,3,1415893237322
100,3,1415893241174
100,3,1415893245919
100,3,1415893249494
100,3,1415893253351
100,3,1415893257194
100,3,1415893261032
100,3,1415893265043
100,3,1415893269263
100,3,1415893273177
100,3,1415893277175
100,3,1415893281019
100,3,1415893284844
77,3,1415893288673
66,3,1415893301798
100,3,1415893305657
100,3,1415893309477
100,3,1415893313502
100,3,1415893317379
100,3,1415893321841
100,3,1415893325451
100,3,1415893329262
100,3,1415893333284
100,3,1415893337145
100,3,1415894575974
100,3,1415894579703
100,3,1415894583952
100,3,1415894587758
100,3,1415894591616
100,3,1415894595388
100,3,1415894599131
100,3,1415894602929
100,3,1415894606842
100,3,1415894610761
100,3,1415894614571
100,3,1415894618388
100,3,1415894622060
100,3,1415894625822
100,3,1415894630233
100,3,1415894633993
100,3,1415894637629
100,3,1415894641221
100,3,1415894644993
100,3,1415894648786
100,3,1415894652287
100,3,1415894669320
100,3,1415894673163
100,3,1415894677142
100,3,1415894681093
100,3,1415894685782
100,3,1415894693635
100,3,1415894706866
100,3,1415894711895
100,3,1415894715511
100,3,1415894719527
100,3,1415894723245
100,3,1415894727080
100,3,1415894730736
100,3,1415894734366
100,3,1415894737963
100,3,1415894741617
100,3,1415894745604
100,3,1415894749650
100,3,1415894753352
100,3,1415894756879
100,3,1415894760535
100,3,1415894764092
100,3,1415894767773
100,3,1415894771417
100,3,1415894774944
100,3,1415894778520
100,3,1415894782210
100,3,1415894785762
100,3,1415894789248
100,3,1415894792830
100,3,1415894796401
100,3,1415894799825
100,3,1415894803830
100,3,1415894807840
100,3,1415894811606
100,3,1415894815267
100,3,1415894818938
100,3,1415894822542
100,3,1415894826393
100,3,1415894830033
100,3,1415894833725
100,3,1415894838030
100,3,1415894841762
100,3,1415894845145
100,3,1415894848781
100,3,1415894852396
100,3,1415894855916
100,3,1415894859600
100,3,1415894863462
100,3,1415894867098
100,3,1415894870761
100,3,1415894874297
100,3,1415894878083
100,3,1415894882328
100,3,1415894886050
62,3,1415894889771
100,3,1415894893406
100,3,1415894897027
100,3,1415894900668
100,3,1415894904548
100,3,1415894908595
100,3,1415894912135
100,3,1415894916168
100,3,1415894919787
100,3,1415894923693
100,3,1415894927336
100,3,1415894930979
100,3,1415894935179
100,3,1415894938941
100,3,1415894942549
100,3,1415894946476
100,3,1415894950145
100,3,1415894953736
100,3,1415894957501
100,3,1415894960972
100,3,1415894969826
100,3,1415894973354
100,3,1415894976957
100,3,1415894980655
100,3,1415894984309
100,3,1415894988081
100,3,1415894991733
100,3,1415894995354
100,3,1415894998966
100,3,1415895003260
100,3,1415895006945
100,3,1415895010812
100,3,1415895014465
100,3,1415895018067
100,3,1415895021696
100,3,1415895025308
100,3,1415895028892
100,3,1415895033570
100,3,1415895037117
100,3,1415895040853
100,3,1415895044472
100,3,1415895048224
100,3,1415895052421
92,3,1415895056103
54,3,1415895059931
85,3,1415895063531
69,3,1415896621577
100,3,1415896625234
92,3,1415896628838
100,3,1415896632650
100,3,1415896636264
85,3,1415896639892
100,5,1415896643354
100,5,1415896652870
75,3,1415896670921
85,3,1415896674399
77,3,1415896677895
92,3,1415896681362
100,3,1415896685142
100,3,1415896688692
85,3,1415896692159
100,3,1415896695770
100,3,1415896699259
100,3,1415896702750
46,3,1415896706345
49,3,1415896737565
100,3,1415896741087
100,3,1415896758636
85,3,1415896763106
100,3,1415896766630
100,3,1415896770148
100,3,1415896773646
100,3,1415896777229
100,3,1415896781099
100,3,1415896784587
100,3,1415896788157
85,3,1415896791604
100,3,1415896795111
92,3,1415896799030
62,3,1415896811179
100,3,1415896836236
92,3,1415896857349
85,3,1415896863217
77,3,1415896866755
100,3,1415896870283
100,3,1415896873878
100,3,1415896877694
92,3,1415896881245
100,3,1415896884754
92,3,1415896888334
50,3,1415896900459
100,3,1415896903993
100,3,1415896907568
100,3,1415896911138
100,3,1415896914710
100,3,1415896918283
100,3,1415896921863
100,3,1415896925244
100,3,1415896928724
100,3,1415896932281
100,3,1415896935909
100,3,1415896939531
100,3,1415896943123
69,3,1415896946638
100,3,1415896950241
100,3,1415896953791
92,3,1415896957405
100,3,1415896961019
92,3,1415896964923
92,3,1415896968487
100,3,1415896972018
100,3,1415896975714
100,3,1415896979393
100,3,1415896983106
100,3,1415896986721
100,3,1415896991098
100,3,1415896995023
100,3,1415896998592
85,3,1415897002107
31,3,1415897005883
69,3,1415897009453
77,3,1415897012988
35,0,1415897025013
73,3,1415897054238
100,3,1415897057802
100,3,1415897061285
100,3,1415897065082
100,3,1415897068614
100,3,1415897072164
100,3,1415897075760
92,3,1415897079356
100,5,1415897092235
56,4,1415897109369
97,3,1415897130177
100,3,1415897133712
77,3,1415897137239
62,3,1415897149229
69,3,1415897152769
85,3,1415897156274
100,3,1415897159763
92,3,1415897163302
100,3,1415897166871
100,3,1415897170367
100,3,1415897174255
100,3,1415897177784
100,5,1415897186206
100,5,1415897195060
64,4,1415897203869
58,2,1415897231835
100,2,1415897236098
54,2,1415897239782
31,2,1415897243419
100,5,1415897255588
42,2,1415897271054
41,2,1415897291728
100,5,1415897295210
100,5,1415897299382
85,2,1415897302952
100,2,1415897306764
92,2,1415897311114
92,2,1415897319708
100,2,1415897323507
100,2,1415897327409
100,2,1415897331268
100,2,1415897335261
100,2,1415897339036
100,2,1415897342833
100,2,1415897346610
100,2,1415897350462
100,2,1415897354243
100,2,1415897358052
100,2,1415897361870
100,2,1415897365731
100,2,1415897369529
100,2,1415897373283
100,2,1415897376991
100,2,1415897380979
100,2,1415897384563
100,2,1415897388191
100,2,1415897391828
100,2,1415897395603
100,2,1415897399761
100,2,1415897403446
100,2,1415897407477
100,2,1415897411107
100,2,1415897414539
100,2,1415897418206
100,2,1415897421916
100,2,1415897425301
100,2,1415897442165
100,2,1415897447799
100,2,1415897467861
100,2,1415897471576
92,2,1415897475631
92,2,1415897479612
92,2,1415897483258
92,2,1415897486981
100,2,1415897490417
100,2,1415897494411
100,2,1415897497909
100,2,1415897502081
100,2,1415897505904
100,2,1415897509354
100,2,1415897515830
100,2,1415897519536
100,2,1415897523700
100,2,1415897527453
100,2,1415897531229
100,2,1415897534898
100,2,1415897538531
50,2,1415897551161
100,2,1415897555007
92,2,1415897559019
46,2,1415897562719
77,2,1415897566212
69,2,1415897569866
46,2,1415897573504
46,2,1415897577429
62,2,1415897581060
100,2,1415897584745
85,2,1415897588418
100,2,1415897592239
73,2,1415897612182
48,3,1415897658259
69,3,1415897661739
55,3,1415897697983
54,3,1415897701637
46,3,1415897740712
64,4,1415897766649
92,2,1415897777055
75,2,1415897796091
100,2,1415897799611
100,2,1415897803165
100,2,1415897806699
100,2,1415897810270
92,2,1415897813819
92,2,1415897817291
44,2,1415897838201
45,4,1415897867477
100,5,1415897879744
55,3,1415897917989
100,3,1415897921663
100,3,1415897925257
100,3,1415897928797
100,3,1415897932401
100,3,1415897936207
100,3,1415897939769
100,3,1415897943343
100,3,1415897946919
100,3,1415897950523
100,3,1415897954225
100,3,1415897957740
100,3,1415897961251
100,3,1415897964805
100,3,1415897968653
100,3,1415897972204
85,3,1415897975832
100,3,1415897979361
100,3,1415897982868
100,3,1415897986399
100,3,1415897989957
100,3,1415897993574
100,3,1415897997175
100,3,1415898000664
100,3,1415898004190
100,3,1415898007704
100,3,1415898011472
100,3,1415898015107
100,3,1415898018609
100,3,1415898022103
100,3,1415898025747
100,3,1415898029195
100,3,1415898033045
100,3,1415898036590
100,3,1415898040124
100,3,1415898043695
100,3,1415898047321
100,3,1415898051327
100,3,1415898054850
100,3,1415898058406
100,3,1415898061978
100,3,1415898065579
100,3,1415898069187
100,3,1415898072879
100,3,1415898076395
100,3,1415898079921
100,3,1415898083474
100,3,1415898087074
100,3,1415898090995
100,3,1415898094579
100,3,1415898098181
100,3,1415898101745
100,3,1415898105354
100,3,1415898108916
100,3,1415898112549
100,3,1415898116269
100,3,1415898119847
100,3,1415898123423
100,3,1415898127335
100,3,1415898130901
100,3,1415898134853
50,3,1415898147304
100,3,1415898151258
85,3,1415898154841
100,3,1415898158383
100,3,1415898161965
100,3,1415898165475
100,3,1415898168968
100,3,1415898172540
100,3,1415898176116
100,3,1415898179663
100,3,1415898183208
100,3,1415898187011
100,3,1415898190574
100,3,1415898194260
100,3,1415898197803
100,3,1415898201356
100,3,1415898205131
100,3,1415898208678
100,3,1415898212227
100,3,1415898215798
100,3,1415898219340
100,3,1415898222930
100,3,1415898226565
100,3,1415898230386
100,3,1415898234010
100,3,1415898237604
100,3,1415898241167
100,3,1415898244741
100,3,1415898248470
100,3,1415898252007
100,3,1415898255585
100,3,1415898259156
100,3,1415898262708
100,3,1415898266370
100,3,1415898269875
100,3,1415898273501
100,3,1415898277130
100,3,1415898280694
92,3,1415898284175
100,3,1415898301100
100,3,1415898305673
100,3,1415898309162
100,3,1415898312673
100,3,1415898316236
100,3,1415898319813
100,3,1415898323375
100,3,1415898326984
100,3,1415898330556
100,3,1415898334191
100,3,1415898338033
100,3,1415898341632
100,3,1415898345219
100,3,1415898348785
100,3,1415898352395
100,3,1415898356028
100,3,1415898359850
100,3,1415898363338
100,3,1415898366800
100,3,1415898378874
100,3,1415898382415
100,3,1415898385957
100,3,1415898389529
100,3,1415898393082
100,3,1415898396659
100,3,1415898400440
100,3,1415898403983
