ID,NAME,PHONE,DURATION,DATE,TYPE,TIMESTAMP
1,Allie Sweatt,6189759995,0,1414645930022,3,2014-10-30 23:24:57
2,Allie Sweatt,6189759995,0,1414640896817,3,2014-10-30 23:24:57
3,Allie Sweatt,6189759995,0,1414640051739,3,2014-10-30 23:24:57
4,Allie Sweatt,6189759995,0,1414640005788,3,2014-10-30 23:24:57
5,null,8157562539,0,1414609471027,3,2014-10-30 23:24:57
6,Allie Sweatt,6189759995,0,1414555975481,3,2014-10-30 23:24:57
7,Allie Sweatt,6189759995,0,1414554239333,3,2014-10-30 23:24:57
8,Allie Sweatt,6189759995,0,1414552586486,3,2014-10-30 23:24:57
9,Allie Sweatt,6189759995,796,1414465125633,1,2014-10-30 23:24:57
10,null,*86,31,1414421629511,2,2014-10-30 23:24:57
11,Allie Sweatt,6189759995,0,1414383990242,5,2014-10-30 23:24:57
12,Allie Sweatt,6189759995,0,1414383702994,5,2014-10-30 23:24:57
13,Allie Sweatt,6189759995,0,1414383683150,5,2014-10-30 23:24:57
14,Allie Sweatt,6189759995,0,1414383662334,5,2014-10-30 23:24:57
15,Allie Sweatt,6189759995,0,1414383037702,3,2014-10-30 23:24:57
16,Allie Sweatt,6189759995,250,1414373335251,1,2014-10-30 23:24:57
17,Allie Sweatt,6189759995,0,1414372080970,3,2014-10-30 23:24:57
18,Allie Sweatt,6189759995,0,1414372040232,3,2014-10-30 23:24:57
19,Allie Sweatt,6189759995,20,1414288328343,1,2014-10-30 23:24:57
20,Allie Sweatt,6189759995,61,1414284148715,2,2014-10-30 23:24:57
21,Allie Sweatt,6189759995,0,1414268115675,3,2014-10-30 23:24:57
22,Matt Ho,7327319871,81,1414198974247,2,2014-10-30 23:24:57
23,Allie Sweatt,6189759995,55,1414193798176,1,2014-10-30 23:24:57
24,Allie Sweatt,6189759995,0,1414193796949,2,2014-10-30 23:24:57
25,Allie Sweatt,6189759995,0,1414193757088,3,2014-10-30 23:24:57
26,Allie Sweatt,6189759995,289,1414118113416,1,2014-10-30 23:24:58
27,Matt Ho,7327319871,33,1414092068437,1,2014-10-30 23:24:58
28,Matt Ho,7327319871,1,1414092022632,1,2014-10-30 23:24:58
29,Matt Ho,7327319871,0,1414091997092,3,2014-10-30 23:24:58
30,Matt Ho,7327319871,0,1414091914696,3,2014-10-30 23:24:58
31,Matt Ho,7327319871,50,1414091812355,1,2014-10-30 23:24:58
32,Matt Ho,7327319871,19,1414091780091,2,2014-10-30 23:24:58
33,null,2173518900,0,1414090399335,3,2014-10-30 23:24:58
34,Allie Sweatt,6189759995,535,1414038077809,1,2014-10-30 23:24:58
35,Allie Sweatt,6189759995,0,1414032440475,3,2014-10-30 23:24:58
36,Allie Sweatt,6189759995,0,1413949608969,3,2014-10-30 23:24:58
37,Allie Sweatt,6189759995,0,1413948795243,3,2014-10-30 23:24:58
38,Matt Ho,7327319871,0,1413947945113,3,2014-10-30 23:24:58
39,Allie Sweatt,6189759995,0,1413940096188,3,2014-10-30 23:24:58
40,Allie Sweatt,6189759995,0,1413867202740,5,2014-10-30 23:24:58
41,Allie Sweatt,6189759995,0,1413866660049,3,2014-10-30 23:24:58
42,Allie Sweatt,6189759995,0,1413866264985,5,2014-10-30 23:24:58
43,Allie Sweatt,6189759995,0,1413865892063,3,2014-10-30 23:24:58
44,Allie Sweatt,6189759995,0,1413863075840,5,2014-10-30 23:24:58
45,Allie Sweatt,6189759995,0,1413863049602,5,2014-10-30 23:24:58
46,Allie Sweatt,6189759995,157,1413853919208,2,2014-10-30 23:24:58
47,Allie Sweatt,6189759995,57,1413777520007,1,2014-10-30 23:24:58
48,Allie Sweatt,6189759995,28,1413777473768,1,2014-10-30 23:24:58
49,Allie Sweatt,6189759995,213,1413777229161,1,2014-10-30 23:24:58
50,Allie Sweatt,6189759995,0,1413777202943,5,2014-10-30 23:24:58
51,Allie Sweatt,6189759995,426,1413776735175,2,2014-10-30 23:24:58
52,Allie Sweatt,6189759995,33,1413775442029,1,2014-10-30 23:24:58
53,Mom,6189774353,3003,1413763474876,2,2014-10-30 23:24:58
54,Allie Sweatt,6189759995,118,1413761658311,1,2014-10-30 23:24:58
55,Allie Sweatt,6189759995,585,1413754428943,1,2014-10-30 23:24:58
56,Allie Sweatt,6189759995,0,1413747204761,3,2014-10-30 23:24:58
57,Allie Sweatt,6189759995,0,1413745551819,3,2014-10-30 23:24:58
58,Allie Sweatt,6189759995,0,1413745500329,3,2014-10-30 23:24:58
59,Jon Alton (Walle),3093332114,11,1413721246266,1,2014-10-30 23:24:58
60,Jon Alton (Walle),3093332114,21,1413634549928,1,2014-10-30 23:24:58
61,Jon Alton (Walle),3093332114,0,1413634205833,3,2014-10-30 23:24:58
62,Allie Sweatt,6189759995,820,1413593825754,1,2014-10-30 23:24:58
63,Matt Ho,7327319871,52,1413586211873,1,2014-10-30 23:24:58
64,Mrunal,3128434678,8,1413578168054,1,2014-10-30 23:24:58
65,Allie Sweatt,6189759995,1026,1413520997994,1,2014-10-30 23:24:58
66,null,8302507412,0,1413492090440,3,2014-10-30 23:24:58
67,Allie Sweatt,6189759995,0,1413429979555,3,2014-10-30 23:24:58
68,Allie Sweatt,6189759995,672,1413423123585,1,2014-10-30 23:24:58
69,Allie Sweatt,6189759995,0,1413412953565,3,2014-10-30 23:24:58
70,null,*86,36,1413386500789,2,2014-10-30 23:24:58
71,Allie Sweatt,6189759995,0,1413349503598,3,2014-10-30 23:24:58
72,Allie Sweatt,6189759995,0,1413349195755,3,2014-10-30 23:24:58
73,Allie Sweatt,6189759995,0,1413346856641,3,2014-10-30 23:24:58
74,Allie Sweatt,6189759995,0,1413346805506,3,2014-10-30 23:24:58
75,null,7725382478,181,1413295511123,2,2014-10-30 23:24:58
76,null,7725382478,0,1413295414557,2,2014-10-30 23:24:58
77,Allie Sweatt,6189759995,0,1413259754502,3,2014-10-30 23:24:59
78,Allie Sweatt,6189759995,0,1413244814751,5,2014-10-30 23:24:59
79,Allie Sweatt,6189759995,0,1413242285580,5,2014-10-30 23:24:59
80,Allie Sweatt,6189759995,0,1413239279547,5,2014-10-30 23:24:59
81,null,*86,29,1413230191257,2,2014-10-30 23:24:59
82,null,3212505314,11,1413228988950,1,2014-10-30 23:24:59
83,null,8005669780,0,1413225967707,3,2014-10-30 23:24:59
84,Mom,6189774353,3772,1413151918178,2,2014-10-30 23:24:59
85,Phil College Works,8472081954,91,1413148092812,2,2014-10-30 23:24:59
86,null,2173900949,93,1413147914042,2,2014-10-30 23:24:59
87,null,2173900949,66,1413147826156,2,2014-10-30 23:24:59
88,null,2176492432,75,1413141128392,2,2014-10-30 23:24:59
89,Allie Sweatt,6189759995,0,1413048913672,3,2014-10-30 23:24:59
90,Allie Sweatt,6189759995,71,1413047807761,1,2014-10-30 23:24:59
91,Allie Sweatt,6189759995,84,1412985282810,1,2014-10-30 23:24:59
92,Allie Sweatt,6189759995,37,1412984989526,1,2014-10-30 23:24:59
93,null,*86,103,1412982944414,2,2014-10-30 23:24:59
94,Allie Sweatt,6189759995,36,1412981402801,2,2014-10-30 23:24:59
95,Allie Sweatt,6189759995,0,1412981339681,3,2014-10-30 23:24:59
96,Grandma Walker,2176203187,91,1412980795134,2,2014-10-30 23:24:59
97,Ethan Ding,3193336375,8,1412976701017,1,2014-10-30 23:24:59
98,Dad,6183044353,408,1412962896290,2,2014-10-30 23:24:59
99,Mom,6189774353,202,1412962678683,2,2014-10-30 23:24:59
100,null,7725382478,282,1412962310742,2,2014-10-30 23:24:59
101,null,*86,64,1412962211675,2,2014-10-30 23:24:59
102,null,*86,68,1412962120208,2,2014-10-30 23:24:59
103,null,7725382478,0,1412961776203,3,2014-10-30 23:24:59
104,Grandma Walker,2176203187,48,1412954433175,2,2014-10-30 23:24:59
105,Allie Sweatt,6189759995,336,1412943548755,1,2014-10-30 23:24:59
106,Allie Sweatt,6189759995,0,1412942908602,3,2014-10-30 23:24:59
107,Dad,6183044353,0,1412918839636,3,2014-10-30 23:24:59
108,Mom,6189774353,288,1412918309125,2,2014-10-30 23:24:59
109,Mom,6189774353,62,1412917293702,1,2014-10-30 23:24:59
110,Mom,6189774353,259,1412916754382,2,2014-10-30 23:24:59
111,Dad,6183044353,0,1412916648538,3,2014-10-30 23:24:59
112,Dad,6183044353,0,1412916597795,3,2014-10-30 23:24:59
113,Dad,6183044353,0,1412916550504,3,2014-10-30 23:24:59
114,Dad,6183044353,0,1412916530730,3,2014-10-30 23:24:59
115,Dad,6183044353,0,1412916489794,3,2014-10-30 23:24:59
116,Dad,6183044353,0,1412916253536,3,2014-10-30 23:24:59
117,Dad,6183044353,0,1412916203622,3,2014-10-30 23:24:59
118,Mom,6189774353,594,1412915208755,2,2014-10-30 23:24:59
119,Mom,6189774353,364,1412914354270,2,2014-10-30 23:24:59
120,null,9189774353,0,1412914345052,2,2014-10-30 23:24:59
121,null,9189774353,0,1412914340776,2,2014-10-30 23:24:59
122,Mom,6189774353,383,1412912560681,2,2014-10-30 23:24:59
123,Mom,6189774353,26,1412912529965,2,2014-10-30 23:24:59
124,Allie Sweatt,6189759995,0,1412896941405,5,2014-10-30 23:24:59
125,Allie Sweatt,6189759995,0,1412827611792,3,2014-10-30 23:24:59
126,null,*86,48,1412823002621,2,2014-10-30 23:24:59
127,Allie Sweatt,6189759995,0,1412821959479,3,2014-10-30 23:24:59
128,null,*86,52,1412766320079,2,2014-10-30 23:24:59
129,null,*86,39,1412766212277,2,2014-10-30 23:24:59
130,Mom,6189774353,25,1412762060938,1,2014-10-30 23:24:59
131,Grandma Walker,2176203187,0,1412761784389,3,2014-10-30 23:24:59
132,Grandma Walker,2176203187,0,1412761599952,3,2014-10-30 23:24:59
133,Grandma Walker,2176203187,0,1412761553533,3,2014-10-30 23:24:59
134,Grandma Walker,2176203187,0,1412761507484,3,2014-10-30 23:24:59
135,Grandma Walker,2176203187,0,1412761461528,3,2014-10-30 23:24:59
136,Grandma Walker,2176203187,0,1412761154177,3,2014-10-30 23:24:59
137,Grandma Walker,2176203187,0,1412760575974,3,2014-10-30 23:24:59
138,Grandma Walker,2176203187,0,1412760422647,3,2014-10-30 23:24:59
139,Allie Sweatt,6189759995,1000,1412733542445,1,2014-10-30 23:24:59
140,Mom,6189774353,210,1412648826807,1,2014-10-30 23:24:59
141,null,2176932468,0,1412643712796,5,2014-10-30 23:24:59
142,Dad,6183044353,29,1412631062341,2,2014-10-30 23:24:59
143,Mom,6189774353,76,1412630876835,2,2014-10-30 23:24:59
144,null,2176932468,98,1412628980776,2,2014-10-30 23:24:59
145,Allie Sweatt,6189759995,317,1412568582693,2,2014-10-30 23:24:59
146,Allie Sweatt,6189759995,999,1412564302013,1,2014-10-30 23:24:59
147,Allie Sweatt,6189759995,715,1412557119255,1,2014-10-30 23:24:59
148,Trevor Brady,6185810863,48,1412483711461,2,2014-10-30 23:24:59
149,Allie Sweatt,6189759995,126,1412478421132,2,2014-10-30 23:24:59
150,Allie Sweatt,6189759995,0,1412477481998,5,2014-10-30 23:24:59
151,Allie Sweatt,6189759995,0,1412476241863,5,2014-10-30 23:24:59
152,Allie Sweatt,6189759995,0,1412474804369,5,2014-10-30 23:24:59
153,Allie Sweatt,6189759995,0,1412474774275,5,2014-10-30 23:24:59
154,Mom,6189774353,27,1412443085938,1,2014-10-30 23:24:59
155,null,*86,25,1412342076205,2,2014-10-30 23:25:00
156,null,*86,33,1412342024634,2,2014-10-30 23:25:00
157,Mom,6189774353,1373,1412302401743,1,2014-10-30 23:25:00
158,Mom,6189774353,0,1412294993463,3,2014-10-30 23:25:00
159,null,8159777549,0,1412269174278,3,2014-10-30 23:25:00
160,Allie Sweatt,6189759995,321,1412215555941,1,2014-10-30 23:25:00
161,Allie Sweatt,6189759995,0,1412215515141,3,2014-10-30 23:25:00
162,Allie Sweatt,6189759995,668,1412213176284,1,2014-10-30 23:25:00
163,Allie Sweatt,6189759995,0,1412135873993,3,2014-10-30 23:25:00
164,Allie Sweatt,6189759995,98,1412126970838,1,2014-10-30 23:25:00
165,Mom,6189774353,1119,1412116735358,1,2014-10-30 23:25:00
166,Dad,6183044353,1672,1412102740665,2,2014-10-30 23:25:00
167,null,*86,19,1412048296179,2,2014-10-30 23:25:00
168,null,*86,37,1412048229188,2,2014-10-30 23:25:00
169,Phil College Works,8472081954,291,1412047916617,2,2014-10-30 23:25:00
170,Phil College Works,8472081954,0,1412047610440,3,2014-10-30 23:25:00
171,Phil College Works,8472081954,51,1412046924428,2,2014-10-30 23:25:00
172,Allie Sweatt,6189759995,0,1412036669480,3,2014-10-30 23:25:00
173,Allie Sweatt,6189759995,0,1412036627531,3,2014-10-30 23:25:00
174,Phil College Works,8472081954,0,1412014319843,3,2014-10-30 23:25:00
175,Phil College Works,8472081954,87,1412007915012,2,2014-10-30 23:25:00
176,null,2173900949,1338,1412006359043,1,2014-10-30 23:25:00
177,Allie Sweatt,6189759995,498,1411954575489,1,2014-10-30 23:25:00
178,Phil College Works,8472081954,224,1411947038398,2,2014-10-30 23:25:00
179,null,8473870518,594,1411946198542,1,2014-10-30 23:25:00
180,null,*86,57,1411941635223,2,2014-10-30 23:25:00
181,Phil College Works,8472081954,188,1411941403590,2,2014-10-30 23:25:00
182,Allie Sweatt,6189759995,142,1411939199337,1,2014-10-30 23:25:00
183,Phil College Works,8472081954,0,1411925370350,3,2014-10-30 23:25:00
184,Phil College Works,8472081954,0,1411848842388,3,2014-10-30 23:25:00
185,Allie Sweatt,6189759995,0,1411789966938,3,2014-10-30 23:25:00
186,Allie Sweatt,6189759995,0,1411789941757,5,2014-10-30 23:25:00
187,Allie Sweatt,6189759995,0,1411789255808,3,2014-10-30 23:25:00
188,Allie Sweatt,6189759995,0,1411789224617,5,2014-10-30 23:25:00
189,Allie Sweatt,6189759995,0,1411784837477,3,2014-10-30 23:25:00
190,Allie Sweatt,6189759995,0,1411782241209,3,2014-10-30 23:25:00
191,Jeff Zhu,8478091809,0,1411771996051,3,2014-10-30 23:25:00
192,Jeff Zhu,8478091809,0,1411771929861,3,2014-10-30 23:25:00
193,null,6302728735,614,1411702549420,2,2014-10-30 23:25:00
194,null,8473386235,773,1411701376977,2,2014-10-30 23:25:00
195,null,8475710014,61,1411701271620,2,2014-10-30 23:25:00
196,null,6306601201,26,1411701216809,2,2014-10-30 23:25:00
197,null,8157330006,382,1411700621097,2,2014-10-30 23:25:00
198,Phil College Works,8472081954,69,1411700526234,2,2014-10-30 23:25:00
199,Phil College Works,8472081954,71,1411700437168,2,2014-10-30 23:25:00
200,Allie Sweatt,6189759995,417,1411699000837,1,2014-10-30 23:25:00
201,Allie Sweatt,6189759995,0,1411695964355,3,2014-10-30 23:25:00
202,Allie Sweatt,6189759995,0,1411695651624,3,2014-10-30 23:25:00
203,Allie Sweatt,6189759995,0,1411695610310,3,2014-10-30 23:25:00
204,Allie Sweatt,6189759995,0,1411695032545,3,2014-10-30 23:25:00
205,Allie Sweatt,6189759995,0,1411692723290,3,2014-10-30 23:25:00
206,Phil College Works,8472081954,222,1411665267022,2,2014-10-30 23:25:00
207,null,8473870518,28,1411660897441,1,2014-10-30 23:25:00
208,Phil College Works,8472081954,0,1411660894870,2,2014-10-30 23:25:00
209,Phil College Works,8472081954,43,1411660689152,2,2014-10-30 23:25:00
210,Phil College Works,8472081954,285,1411610420427,2,2014-10-30 23:25:00
211,Allie Sweatt,6189759995,0,1411602504101,3,2014-10-30 23:25:00
212,null,*86,40,1411577383282,2,2014-10-30 23:25:00
213,Allie Sweatt,6189759995,0,1411524751526,3,2014-10-30 23:25:00
214,Allie Sweatt,6189759995,0,1411524075360,3,2014-10-30 23:25:00
215,Allie Sweatt,6189759995,0,1411521070497,3,2014-10-30 23:25:00
216,Trevor Brady,6185810863,110,1411510369196,1,2014-10-30 23:25:00
217,Trevor Brady,6185810863,35,1411510283283,2,2014-10-30 23:25:00
218,Trevor Brady,6185810863,60,1411509167359,2,2014-10-30 23:25:00
219,Trevor Brady,6185810863,63,1411504128742,1,2014-10-30 23:25:00
220,null,8043532473,41,1411503109459,1,2014-10-30 23:25:00
221,null,9543317000,3596,1411495557332,1,2014-10-30 23:25:00
222,Allie Sweatt,6189759995,566,1411437394573,1,2014-10-30 23:25:00
223,null,*86,57,1411395049800,2,2014-10-30 23:25:00
224,Phil College Works,8472081954,386,1411351050292,1,2014-10-30 23:25:00
225,Allie Sweatt,6189759995,780,1411345484480,1,2014-10-30 23:25:00
226,Allie Sweatt,6189759995,0,1411345110330,3,2014-10-30 23:25:00
227,Allie Sweatt,6189759995,0,1411338024237,3,2014-10-30 23:25:00
228,Allie Sweatt,6189759995,0,1411337902435,3,2014-10-30 23:25:00
229,Allie Sweatt,6189759995,0,1411336996352,3,2014-10-30 23:25:00
230,Allie Sweatt,6189759995,0,1411332808506,3,2014-10-30 23:25:00
231,Allie Sweatt,6189759995,0,1411322649207,5,2014-10-30 23:25:00
232,Allie Sweatt,6189759995,0,1411321671331,3,2014-10-30 23:25:00
233,null,*86,52,1411320378985,2,2014-10-30 23:25:00
234,Allie Sweatt,6189759995,0,1411311087760,3,2014-10-30 23:25:00
235,Allie Sweatt,6189759995,0,1411311048368,3,2014-10-30 23:25:00
236,null,*86,27,1411242696169,2,2014-10-30 23:25:00
237,Grandma Walker,2176203187,0,1411236210469,3,2014-10-30 23:25:00
238,Mom,6189774353,133,1411234048216,2,2014-10-30 23:25:00
239,Allie Sweatt,6189759995,297,1411182667280,2,2014-10-30 23:25:00
240,Allie Sweatt,6189759995,568,1411182023909,1,2014-10-30 23:25:00
241,null,9543317000,0,1411064074592,3,2014-10-30 23:25:00
242,Allie Sweatt,6189759995,0,1411009623693,3,2014-10-30 23:25:00
243,Allie Sweatt,6189759995,158,1411002686239,1,2014-10-30 23:25:00
244,Allie Sweatt,6189759995,0,1410995881639,3,2014-10-30 23:25:00
245,Allie Sweatt,6189759995,0,1410994007619,3,2014-10-30 23:25:00
246,Allie Sweatt,6189759995,125,1410838957634,1,2014-10-30 23:25:00
247,Trevor Brady,6185810863,19,1410745677611,1,2014-10-30 23:25:00
248,Allie Sweatt,6189759995,371,1410742548830,1,2014-10-30 23:25:00
249,Allie Sweatt,6189759995,0,1410738129546,3,2014-10-30 23:25:01
250,Allie Sweatt,6189759995,851,1410668068811,2,2014-10-30 23:25:01
251,Allie Sweatt,6189759995,118,1410663649627,1,2014-10-30 23:25:01
252,Allie Sweatt,6189759995,0,1410648647841,3,2014-10-30 23:25:01
253,Mom,6189774353,73,1410647377853,2,2014-10-30 23:25:01
254,Dad,6183044353,40,1410646979602,1,2014-10-30 23:25:01
255,Mom,6189774353,80,1410642642217,1,2014-10-30 23:25:01
256,Mom,6189774353,74,1410642464553,2,2014-10-30 23:25:01
257,Allie Sweatt,6189759995,0,1410636897299,3,2014-10-30 23:25:01
