ID,NAME,PHONE,DURATION,DATE,TYPE,TIMESTAMP
1,Mrunal,3128434678,22,1416418441888,2,2014-11-20 19:36:24
2,Allie Sweatt,6189759995,0,1416372705725,3,2014-11-20 19:36:24
3,Allie Sweatt,6189759995,0,1416372433671,3,2014-11-20 19:36:24
4,Allie Sweatt,6189759995,0,1416365532133,3,2014-11-20 19:36:24
5,Allie Sweatt,6189759995,0,1416353035133,3,2014-11-20 19:36:24
6,Mrunal,3128434678,26,1416339339707,1,2014-11-20 19:36:24
7,Mrunal,3128434678,38,1416281774356,1,2014-11-20 19:36:24
8,Allie Sweatt,6189759995,302,1416274842489,1,2014-11-20 19:36:24
9,Allie Sweatt,6189759995,585,1416195968584,1,2014-11-20 19:36:24
10,Allie Sweatt,6189759995,328,1416165964960,1,2014-11-20 19:36:24
11,Allie Sweatt,6189759995,767,1416101974269,2,2014-11-20 19:36:24
12,null,*86,39,1416101833480,2,2014-11-20 19:36:24
13,Allie Sweatt,6189759995,0,1416099533917,3,2014-11-20 19:36:24
14,Allie Sweatt,6189759995,0,1416097342521,3,2014-11-20 19:36:24
15,Allie Sweatt,6189759995,0,1416089928650,5,2014-11-20 19:36:24
16,Mom,6189774353,94,1416076238003,1,2014-11-20 19:36:24
17,Mom,6189774353,108,1416072545641,1,2014-11-20 19:36:24
18,Allie Sweatt,6189759995,0,1416070651708,3,2014-11-20 19:36:24
19,Allie Sweatt,6189759995,0,1416069586716,5,2014-11-20 19:36:24
20,Allie Sweatt,6189759995,0,1416069150894,5,2014-11-20 19:36:24
21,Allie Sweatt,6189759995,0,1416069124892,5,2014-11-20 19:36:24
22,null,2024112568,0,1416002499690,3,2014-11-20 19:36:24
23,Grandma Walker,2176203187,0,1415918562633,3,2014-11-20 19:36:24
24,Allie Sweatt,6189759995,1860,1415835151819,1,2014-11-20 19:36:24
25,Allie Sweatt,6189759995,0,1415769466477,3,2014-11-20 19:36:24
26,Allie Sweatt,6189759995,0,1415769139710,3,2014-11-20 19:36:24
27,Allie Sweatt,6189759995,0,1415759795406,3,2014-11-20 19:36:24
28,Mom,6189774353,1914,1415754882937,2,2014-11-20 19:36:24
29,Allie Sweatt,6189759995,0,1415746104466,3,2014-11-20 19:36:24
30,Allie Sweatt,6189759995,0,1415742433759,3,2014-11-20 19:36:24
31,Allie Sweatt,6189759995,252,1415657072569,1,2014-11-20 19:36:24
32,Allie Sweatt,6189759995,0,1415594628751,3,2014-11-20 19:36:24
33,Allie Sweatt,6189759995,0,1415593020729,5,2014-11-20 19:36:24
34,Allie Sweatt,6189759995,0,1415592902690,5,2014-11-20 19:36:24
35,Allie Sweatt,6189759995,0,1415588679390,3,2014-11-20 19:36:24
36,Allie Sweatt,6189759995,0,1415585151384,3,2014-11-20 19:36:24
37,Allie Sweatt,6189759995,0,1415584628786,3,2014-11-20 19:36:24
38,Allie Sweatt,6189759995,0,1415584557854,3,2014-11-20 19:36:24
39,Allie Sweatt,6189759995,109,1415499393907,2,2014-11-20 19:36:24
40,Allie Sweatt,6189759995,780,1415419546709,1,2014-11-20 19:36:24
41,Allie Sweatt,6189759995,0,1415404939413,3,2014-11-20 19:36:24
42,Allie Sweatt,6189759995,0,1415398013103,5,2014-11-20 19:36:24
43,Allie Sweatt,6189759995,0,1415391497609,3,2014-11-20 19:36:24
44,Allie Sweatt,6189759995,332,1415333964958,1,2014-11-20 19:36:24
45,Mom,6189774353,3052,1415322303764,2,2014-11-20 19:36:24
46,Allie Sweatt,6189759995,151,1415304340500,1,2014-11-20 19:36:24
47,Allie Sweatt,6189759995,721,1415249485183,1,2014-11-20 19:36:24
48,Allie Sweatt,6189759995,447,1415052488844,1,2014-11-20 19:36:24
49,Allie Sweatt,6189759995,136,1414988918542,1,2014-11-20 19:36:24
50,null,8018233446,0,1414969462338,3,2014-11-20 19:36:24
51,Allie Sweatt,6189759995,0,1414969263628,3,2014-11-20 19:36:24
52,Mom,6189774353,2533,1414892506524,2,2014-11-20 19:36:24
53,Allie Sweatt,6189759995,0,1414811151320,5,2014-11-20 19:36:24
54,null,8018233446,35,1414770085131,1,2014-11-20 19:36:24
55,null,8157562539,0,1414768098729,3,2014-11-20 19:36:24
56,Allie Sweatt,6189759995,0,1414726938742,3,2014-11-20 19:36:24
57,Allie Sweatt,6189759995,0,1414722765622,3,2014-11-20 19:36:24
58,Allie Sweatt,6189759995,0,1414722166788,3,2014-11-20 19:36:24
59,Allie Sweatt,6189759995,0,1414722125956,3,2014-11-20 19:36:24
60,Allie Sweatt,6189759995,0,1414718694728,3,2014-11-20 19:36:24
61,Allie Sweatt,6189759995,0,1414718649092,3,2014-11-20 19:36:24
62,Allie Sweatt,6189759995,0,1414645930022,3,2014-11-20 19:36:24
63,Allie Sweatt,6189759995,0,1414640896817,3,2014-11-20 19:36:24
64,Allie Sweatt,6189759995,0,1414640051739,3,2014-11-20 19:36:24
65,Allie Sweatt,6189759995,0,1414640005788,3,2014-11-20 19:36:24
66,null,8157562539,0,1414609471027,3,2014-11-20 19:36:24
67,Allie Sweatt,6189759995,0,1414555975481,3,2014-11-20 19:36:24
68,Allie Sweatt,6189759995,0,1414554239333,3,2014-11-20 19:36:24
69,Allie Sweatt,6189759995,0,1414552586486,3,2014-11-20 19:36:24
70,Allie Sweatt,6189759995,796,1414465125633,1,2014-11-20 19:36:24
71,null,*86,31,1414421629511,2,2014-11-20 19:36:24
72,Allie Sweatt,6189759995,0,1414383990242,5,2014-11-20 19:36:24
73,Allie Sweatt,6189759995,0,1414383702994,5,2014-11-20 19:36:24
74,Allie Sweatt,6189759995,0,1414383683150,5,2014-11-20 19:36:24
75,Allie Sweatt,6189759995,0,1414383662334,5,2014-11-20 19:36:24
76,Allie Sweatt,6189759995,0,1414383037702,3,2014-11-20 19:36:24
77,Allie Sweatt,6189759995,250,1414373335251,1,2014-11-20 19:36:24
78,Allie Sweatt,6189759995,0,1414372080970,3,2014-11-20 19:36:24
79,Allie Sweatt,6189759995,0,1414372040232,3,2014-11-20 19:36:24
80,Allie Sweatt,6189759995,20,1414288328343,1,2014-11-20 19:36:24
81,Allie Sweatt,6189759995,61,1414284148715,2,2014-11-20 19:36:24
82,Allie Sweatt,6189759995,0,1414268115675,3,2014-11-20 19:36:24
83,Matt Ho,7327319871,81,1414198974247,2,2014-11-20 19:36:24
84,Allie Sweatt,6189759995,55,1414193798176,1,2014-11-20 19:36:24
85,Allie Sweatt,6189759995,0,1414193796949,2,2014-11-20 19:36:24
86,Allie Sweatt,6189759995,0,1414193757088,3,2014-11-20 19:36:24
87,Allie Sweatt,6189759995,289,1414118113416,1,2014-11-20 19:36:24
88,Matt Ho,7327319871,33,1414092068437,1,2014-11-20 19:36:24
89,Matt Ho,7327319871,1,1414092022632,1,2014-11-20 19:36:25
90,Matt Ho,7327319871,0,1414091997092,3,2014-11-20 19:36:25
91,Matt Ho,7327319871,0,1414091914696,3,2014-11-20 19:36:25
92,Matt Ho,7327319871,50,1414091812355,1,2014-11-20 19:36:25
93,Matt Ho,7327319871,19,1414091780091,2,2014-11-20 19:36:25
94,null,2173518900,0,1414090399335,3,2014-11-20 19:36:25
95,Allie Sweatt,6189759995,535,1414038077809,1,2014-11-20 19:36:25
96,Allie Sweatt,6189759995,0,1414032440475,3,2014-11-20 19:36:25
97,Allie Sweatt,6189759995,0,1413949608969,3,2014-11-20 19:36:25
98,Allie Sweatt,6189759995,0,1413948795243,3,2014-11-20 19:36:25
99,Matt Ho,7327319871,0,1413947945113,3,2014-11-20 19:36:25
100,Allie Sweatt,6189759995,0,1413940096188,3,2014-11-20 19:36:25
101,Allie Sweatt,6189759995,0,1413867202740,5,2014-11-20 19:36:25
102,Allie Sweatt,6189759995,0,1413866660049,3,2014-11-20 19:36:25
103,Allie Sweatt,6189759995,0,1413866264985,5,2014-11-20 19:36:25
104,Allie Sweatt,6189759995,0,1413865892063,3,2014-11-20 19:36:25
105,Allie Sweatt,6189759995,0,1413863075840,5,2014-11-20 19:36:25
106,Allie Sweatt,6189759995,0,1413863049602,5,2014-11-20 19:36:25
107,Allie Sweatt,6189759995,157,1413853919208,2,2014-11-20 19:36:25
108,Allie Sweatt,6189759995,57,1413777520007,1,2014-11-20 19:36:25
109,Allie Sweatt,6189759995,28,1413777473768,1,2014-11-20 19:36:25
110,Allie Sweatt,6189759995,213,1413777229161,1,2014-11-20 19:36:25
111,Allie Sweatt,6189759995,0,1413777202943,5,2014-11-20 19:36:25
112,Allie Sweatt,6189759995,426,1413776735175,2,2014-11-20 19:36:25
113,Allie Sweatt,6189759995,33,1413775442029,1,2014-11-20 19:36:25
114,Mom,6189774353,3003,1413763474876,2,2014-11-20 19:36:25
115,Allie Sweatt,6189759995,118,1413761658311,1,2014-11-20 19:36:25
116,Allie Sweatt,6189759995,585,1413754428943,1,2014-11-20 19:36:25
117,Allie Sweatt,6189759995,0,1413747204761,3,2014-11-20 19:36:25
118,Allie Sweatt,6189759995,0,1413745551819,3,2014-11-20 19:36:25
119,Allie Sweatt,6189759995,0,1413745500329,3,2014-11-20 19:36:25
120,Jon Alton (Walle),3093332114,11,1413721246266,1,2014-11-20 19:36:25
121,Jon Alton (Walle),3093332114,21,1413634549928,1,2014-11-20 19:36:25
122,Jon Alton (Walle),3093332114,0,1413634205833,3,2014-11-20 19:36:25
123,Allie Sweatt,6189759995,820,1413593825754,1,2014-11-20 19:36:25
124,Matt Ho,7327319871,52,1413586211873,1,2014-11-20 19:36:25
125,Mrunal,3128434678,8,1413578168054,1,2014-11-20 19:36:25
126,Allie Sweatt,6189759995,1026,1413520997994,1,2014-11-20 19:36:25
127,null,8302507412,0,1413492090440,3,2014-11-20 19:36:25
128,Allie Sweatt,6189759995,0,1413429979555,3,2014-11-20 19:36:25
129,Allie Sweatt,6189759995,672,1413423123585,1,2014-11-20 19:36:25
130,Allie Sweatt,6189759995,0,1413412953565,3,2014-11-20 19:36:25
131,null,*86,36,1413386500789,2,2014-11-20 19:36:25
132,Allie Sweatt,6189759995,0,1413349503598,3,2014-11-20 19:36:25
133,Allie Sweatt,6189759995,0,1413349195755,3,2014-11-20 19:36:25
134,Allie Sweatt,6189759995,0,1413346856641,3,2014-11-20 19:36:25
135,Allie Sweatt,6189759995,0,1413346805506,3,2014-11-20 19:36:25
136,null,7725382478,181,1413295511123,2,2014-11-20 19:36:25
137,null,7725382478,0,1413295414557,2,2014-11-20 19:36:25
138,Allie Sweatt,6189759995,0,1413259754502,3,2014-11-20 19:36:25
139,Allie Sweatt,6189759995,0,1413244814751,5,2014-11-20 19:36:25
140,Allie Sweatt,6189759995,0,1413242285580,5,2014-11-20 19:36:25
141,Allie Sweatt,6189759995,0,1413239279547,5,2014-11-20 19:36:25
142,null,*86,29,1413230191257,2,2014-11-20 19:36:25
143,null,3212505314,11,1413228988950,1,2014-11-20 19:36:25
144,null,8005669780,0,1413225967707,3,2014-11-20 19:36:25
145,Mom,6189774353,3772,1413151918178,2,2014-11-20 19:36:25
146,Phil College Works,8472081954,91,1413148092812,2,2014-11-20 19:36:25
147,null,2173900949,93,1413147914042,2,2014-11-20 19:36:25
148,null,2173900949,66,1413147826156,2,2014-11-20 19:36:25
149,null,2176492432,75,1413141128392,2,2014-11-20 19:36:25
150,Allie Sweatt,6189759995,0,1413048913672,3,2014-11-20 19:36:25
151,Allie Sweatt,6189759995,71,1413047807761,1,2014-11-20 19:36:25
152,Allie Sweatt,6189759995,84,1412985282810,1,2014-11-20 19:36:25
153,Allie Sweatt,6189759995,37,1412984989526,1,2014-11-20 19:36:25
154,null,*86,103,1412982944414,2,2014-11-20 19:36:25
155,Allie Sweatt,6189759995,36,1412981402801,2,2014-11-20 19:36:25
156,Allie Sweatt,6189759995,0,1412981339681,3,2014-11-20 19:36:25
157,Grandma Walker,2176203187,91,1412980795134,2,2014-11-20 19:36:25
158,Ethan Ding,3193336375,8,1412976701017,1,2014-11-20 19:36:25
159,Dad,6183044353,408,1412962896290,2,2014-11-20 19:36:26
160,Mom,6189774353,202,1412962678683,2,2014-11-20 19:36:26
161,null,7725382478,282,1412962310742,2,2014-11-20 19:36:26
162,null,*86,64,1412962211675,2,2014-11-20 19:36:26
163,null,*86,68,1412962120208,2,2014-11-20 19:36:26
164,null,7725382478,0,1412961776203,3,2014-11-20 19:36:26
165,Grandma Walker,2176203187,48,1412954433175,2,2014-11-20 19:36:26
166,Allie Sweatt,6189759995,336,1412943548755,1,2014-11-20 19:36:26
167,Allie Sweatt,6189759995,0,1412942908602,3,2014-11-20 19:36:26
168,Dad,6183044353,0,1412918839636,3,2014-11-20 19:36:26
169,Mom,6189774353,288,1412918309125,2,2014-11-20 19:36:26
170,Mom,6189774353,62,1412917293702,1,2014-11-20 19:36:26
171,Mom,6189774353,259,1412916754382,2,2014-11-20 19:36:26
172,Dad,6183044353,0,1412916648538,3,2014-11-20 19:36:26
173,Dad,6183044353,0,1412916597795,3,2014-11-20 19:36:26
174,Dad,6183044353,0,1412916550504,3,2014-11-20 19:36:26
175,Dad,6183044353,0,1412916530730,3,2014-11-20 19:36:26
176,Dad,6183044353,0,1412916489794,3,2014-11-20 19:36:26
177,Dad,6183044353,0,1412916253536,3,2014-11-20 19:36:26
178,Dad,6183044353,0,1412916203622,3,2014-11-20 19:36:26
179,Mom,6189774353,594,1412915208755,2,2014-11-20 19:36:26
180,Mom,6189774353,364,1412914354270,2,2014-11-20 19:36:26
181,null,9189774353,0,1412914345052,2,2014-11-20 19:36:26
182,null,9189774353,0,1412914340776,2,2014-11-20 19:36:26
183,Mom,6189774353,383,1412912560681,2,2014-11-20 19:36:26
184,Mom,6189774353,26,1412912529965,2,2014-11-20 19:36:26
185,Allie Sweatt,6189759995,0,1412896941405,5,2014-11-20 19:36:26
186,Allie Sweatt,6189759995,0,1412827611792,3,2014-11-20 19:36:26
187,null,*86,48,1412823002621,2,2014-11-20 19:36:26
188,Allie Sweatt,6189759995,0,1412821959479,3,2014-11-20 19:36:26
189,null,*86,52,1412766320079,2,2014-11-20 19:36:26
190,null,*86,39,1412766212277,2,2014-11-20 19:36:26
191,Mom,6189774353,25,1412762060938,1,2014-11-20 19:36:26
192,Grandma Walker,2176203187,0,1412761784389,3,2014-11-20 19:36:26
193,Grandma Walker,2176203187,0,1412761599952,3,2014-11-20 19:36:26
194,Grandma Walker,2176203187,0,1412761553533,3,2014-11-20 19:36:26
195,Grandma Walker,2176203187,0,1412761507484,3,2014-11-20 19:36:26
196,Grandma Walker,2176203187,0,1412761461528,3,2014-11-20 19:36:26
197,Grandma Walker,2176203187,0,1412761154177,3,2014-11-20 19:36:26
198,Grandma Walker,2176203187,0,1412760575974,3,2014-11-20 19:36:26
199,Grandma Walker,2176203187,0,1412760422647,3,2014-11-20 19:36:26
200,Allie Sweatt,6189759995,1000,1412733542445,1,2014-11-20 19:36:26
201,Mom,6189774353,210,1412648826807,1,2014-11-20 19:36:26
202,null,2176932468,0,1412643712796,5,2014-11-20 19:36:26
203,Dad,6183044353,29,1412631062341,2,2014-11-20 19:36:26
204,Mom,6189774353,76,1412630876835,2,2014-11-20 19:36:26
205,null,2176932468,98,1412628980776,2,2014-11-20 19:36:26
206,Allie Sweatt,6189759995,317,1412568582693,2,2014-11-20 19:36:26
207,Allie Sweatt,6189759995,999,1412564302013,1,2014-11-20 19:36:26
208,Allie Sweatt,6189759995,715,1412557119255,1,2014-11-20 19:36:26
209,Trevor Brady,6185810863,48,1412483711461,2,2014-11-20 19:36:26
210,Allie Sweatt,6189759995,126,1412478421132,2,2014-11-20 19:36:26
211,Allie Sweatt,6189759995,0,1412477481998,5,2014-11-20 19:36:26
212,Allie Sweatt,6189759995,0,1412476241863,5,2014-11-20 19:36:26
213,Allie Sweatt,6189759995,0,1412474804369,5,2014-11-20 19:36:26
214,Allie Sweatt,6189759995,0,1412474774275,5,2014-11-20 19:36:26
215,Mom,6189774353,27,1412443085938,1,2014-11-20 19:36:26
216,null,*86,25,1412342076205,2,2014-11-20 19:36:26
217,null,*86,33,1412342024634,2,2014-11-20 19:36:26
218,Mom,6189774353,1373,1412302401743,1,2014-11-20 19:36:26
219,Mom,6189774353,0,1412294993463,3,2014-11-20 19:36:26
220,null,8159777549,0,1412269174278,3,2014-11-20 19:36:26
221,Allie Sweatt,6189759995,321,1412215555941,1,2014-11-20 19:36:26
222,Allie Sweatt,6189759995,0,1412215515141,3,2014-11-20 19:36:26
223,Allie Sweatt,6189759995,668,1412213176284,1,2014-11-20 19:36:26
224,Allie Sweatt,6189759995,0,1412135873993,3,2014-11-20 19:36:26
225,Allie Sweatt,6189759995,98,1412126970838,1,2014-11-20 19:36:26
226,Mom,6189774353,1119,1412116735358,1,2014-11-20 19:36:26
227,Dad,6183044353,1672,1412102740665,2,2014-11-20 19:36:26
228,null,*86,19,1412048296179,2,2014-11-20 19:36:26
229,null,*86,37,1412048229188,2,2014-11-20 19:36:26
230,Phil College Works,8472081954,291,1412047916617,2,2014-11-20 19:36:26
231,Phil College Works,8472081954,0,1412047610440,3,2014-11-20 19:36:26
232,Phil College Works,8472081954,51,1412046924428,2,2014-11-20 19:36:26
233,Allie Sweatt,6189759995,0,1412036669480,3,2014-11-20 19:36:26
234,Allie Sweatt,6189759995,0,1412036627531,3,2014-11-20 19:36:26
235,Phil College Works,8472081954,0,1412014319843,3,2014-11-20 19:36:26
236,Phil College Works,8472081954,87,1412007915012,2,2014-11-20 19:36:26
237,null,2173900949,1338,1412006359043,1,2014-11-20 19:36:26
238,Allie Sweatt,6189759995,498,1411954575489,1,2014-11-20 19:36:26
239,Phil College Works,8472081954,224,1411947038398,2,2014-11-20 19:36:27
240,null,8473870518,594,1411946198542,1,2014-11-20 19:36:27
241,null,*86,57,1411941635223,2,2014-11-20 19:36:27
242,Phil College Works,8472081954,188,1411941403590,2,2014-11-20 19:36:27
243,Allie Sweatt,6189759995,142,1411939199337,1,2014-11-20 19:36:27
244,Phil College Works,8472081954,0,1411925370350,3,2014-11-20 19:36:27
245,Phil College Works,8472081954,0,1411848842388,3,2014-11-20 19:36:27
246,Allie Sweatt,6189759995,0,1411789966938,3,2014-11-20 19:36:27
247,Allie Sweatt,6189759995,0,1411789941757,5,2014-11-20 19:36:27
248,Allie Sweatt,6189759995,0,1411789255808,3,2014-11-20 19:36:27
249,Allie Sweatt,6189759995,0,1411789224617,5,2014-11-20 19:36:27
250,Allie Sweatt,6189759995,0,1411784837477,3,2014-11-20 19:36:27
251,Allie Sweatt,6189759995,0,1411782241209,3,2014-11-20 19:36:27
252,Jeff Zhu,8478091809,0,1411771996051,3,2014-11-20 19:36:27
253,Jeff Zhu,8478091809,0,1411771929861,3,2014-11-20 19:36:27
254,null,6302728735,614,1411702549420,2,2014-11-20 19:36:27
255,null,8473386235,773,1411701376977,2,2014-11-20 19:36:27
256,null,8475710014,61,1411701271620,2,2014-11-20 19:36:27
257,null,6306601201,26,1411701216809,2,2014-11-20 19:36:27
258,null,815733