ID,NUMBER,DATE,TYPE
1,+16189102186,Wed Nov 05 17:11:10 CST 2014,SENT
2,+16189102186,Wed Nov 05 16:31:55 CST 2014,INBOX
3,+13193336375,Tue Nov 04 23:56:20 CST 2014,INBOX
4,3193336375,Tue Nov 04 23:56:03 CST 2014,SENT
5,+16189102186,Tue Nov 04 22:22:58 CST 2014,INBOX
6,+16189102186,Tue Nov 04 22:09:34 CST 2014,SENT
7,40401,Tue Nov 04 09:14:44 CST 2014,INBOX
8,+16189102186,Mon Nov 03 19:56:54 CST 2014,INBOX
9,+13193335280,Mon Nov 03 17:36:15 CST 2014,INBOX
10,+13193335280,Mon Nov 03 15:50:46 CST 2014,SENT
11,62262,Thu Oct 30 00:00:50 CDT 2014,INBOX
12,+16189102186,Tue Oct 28 23:36:30 CDT 2014,INBOX
13,+16189102186,Tue Oct 28 23:24:13 CDT 2014,SENT
14,+16189102186,Tue Oct 28 22:48:24 CDT 2014,INBOX
15,+16189102186,Tue Oct 28 17:38:16 CDT 2014,SENT
16,+13193335280,Mon Oct 27 18:55:42 CDT 2014,INBOX
17,+13193335280,Mon Oct 27 18:55:33 CDT 2014,INBOX
18,+16189102186,Sun Oct 26 20:52:32 CDT 2014,SENT
19,+16189102186,Sat Oct 25 16:58:50 CDT 2014,INBOX
20,+16189102186,Sat Oct 25 10:18:26 CDT 2014,SENT
21,+16189102186,Sat Oct 25 09:37:19 CDT 2014,INBOX
22,+13193335280,Thu Oct 23 20:22:21 CDT 2014,INBOX
23,57685,Thu Oct 23 17:03:12 CDT 2014,INBOX
24,+16189102186,Wed Oct 22 22:32:02 CDT 2014,SENT
25,+16189102186,Wed Oct 22 21:53:15 CDT 2014,INBOX
26,+16189102186,Wed Oct 22 21:11:06 CDT 2014,SENT
27,+16189102186,Wed Oct 22 13:06:10 CDT 2014,INBOX
28,+13193335280,Tue Oct 14 12:15:47 CDT 2014,INBOX
29,+13193335280,Tue Oct 14 12:15:19 CDT 2014,SENT
30,+13193335280,Mon Oct 13 18:35:46 CDT 2014,SENT
31,+13193335280,Mon Oct 13 18:31:01 CDT 2014,INBOX
32,+16189102186,Mon Oct 13 08:38:11 CDT 2014,INBOX
33,+16189102186,Tue Oct 07 23:31:11 CDT 2014,SENT
34,+16189102186,Tue Oct 07 22:43:42 CDT 2014,INBOX
35,40401,Tue Oct 07 09:04:07 CDT 2014,INBOX
36,732873,Sat Oct 04 14:23:38 CDT 2014,INBOX
37,+16189102186,Thu Oct 02 11:54:31 CDT 2014,SENT
38,+16189102186,Thu Oct 02 09:00:51 CDT 2014,INBOX
39,+16189102186,Wed Oct 01 22:29:52 CDT 2014,INBOX
40,+16189102186,Wed Oct 01 22:21:04 CDT 2014,SENT
41,+16189102186,Wed Oct 01 22:17:53 CDT 2014,INBOX
42,+16189102186,Wed Oct 01 22:16:58 CDT 2014,SENT
43,+16189102186,Wed Oct 01 21:16:53 CDT 2014,INBOX
44,+16189102186,Wed Oct 01 17:40:27 CDT 2014,SENT
45,+16189102186,Tue Sep 30 23:24:04 CDT 2014,SENT
46,+16189102186,Tue Sep 30 23:04:12 CDT 2014,INBOX
47,+16189102186,Tue Sep 30 22:50:54 CDT 2014,SENT
48,+16189102186,Tue Sep 30 22:36:59 CDT 2014,INBOX
49,+13193335280,Mon Sep 29 14:57:38 CDT 2014,INBOX
50,+16189102186,Thu Sep 25 19:02:44 CDT 2014,SENT
51,+16189102186,Thu Sep 25 18:56:01 CDT 2014,INBOX
52,+16189102186,Thu Sep 25 18:03:53 CDT 2014,SENT
53,+16189102186,Thu Sep 25 18:01:11 CDT 2014,INBOX
54,+16189102186,Thu Sep 25 17:52:20 CDT 2014,INBOX
55,+16189102186,Thu Sep 25 17:48:06 CDT 2014,SENT
56,+16189102186,Thu Sep 25 17:40:16 CDT 2014,INBOX
57,+16189102186,Thu Sep 25 17:33:34 CDT 2014,SENT
58,+16189102186,Thu Sep 25 17:29:43 CDT 2014,INBOX
59,+16189102186,Thu Sep 25 17:24:49 CDT 2014,SENT
60,+16189102186,Thu Sep 25 17:22:35 CDT 2014,INBOX
61,+16189102186,Thu Sep 25 16:01:44 CDT 2014,SENT
62,+16189102186,Thu Sep 25 13:07:08 CDT 2014,SENT
63,+16189102186,Thu Sep 25 13:02:36 CDT 2014,SENT
64,+16189102186,Thu Sep 25 13:00:41 CDT 2014,INBOX
65,+13193335280,Thu Sep 25 11:41:51 CDT 2014,SENT
66,+13193335280,Thu Sep 25 11:41:10 CDT 2014,INBOX
67,57685,Wed Sep 24 16:06:50 CDT 2014,INBOX
68,+16189102186,Wed Sep 24 14:55:56 CDT 2014,INBOX
69,+16189102186,Wed Sep 24 12:57:35 CDT 2014,SENT
70,+16189102186,Wed Sep 24 10:39:19 CDT 2014,INBOX
71,+13193335280,Tue Sep 23 20:42:55 CDT 2014,INBOX
72,+13193335280,Mon Sep 22 17:58:36 CDT 2014,SENT
73,+16189102186,Fri Sep 19 13:37:55 CDT 2014,SENT
74,+16189102186,Fri Sep 19 13:37:26 CDT 2014,SENT
75,+16189102186,Fri Sep 19 13:01:47 CDT 2014,INBOX
76,+16189102186,Thu Sep 18 18:23:45 CDT 2014,SENT
77,+16189102186,Thu Sep 18 18:21:02 CDT 2014,SENT
78,+16189102186,Thu Sep 18 18:13:49 CDT 2014,INBOX
79,+16189102186,Thu Sep 18 18:12:56 CDT 2014,INBOX
80,+16189102186,Thu Sep 18 18:11:29 CDT 2014,SENT
81,+16189102186,Thu Sep 18 15:26:39 CDT 2014,SENT
82,+16189102186,Thu Sep 18 15:07:58 CDT 2014,INBOX
83,+16189102186,Thu Sep 18 14:58:52 CDT 2014,INBOX
84,+16189102186,Thu Sep 18 14:55:48 CDT 2014,SENT
85,+16189102186,Thu Sep 18 14:53:16 CDT 2014,INBOX
86,+16189102186,Thu Sep 18 14:51:03 CDT 2014,INBOX
87,+16189102186,Thu Sep 18 14:50:46 CDT 2014,INBOX
88,+16189102186,Thu Sep 18 14:49:38 CDT 2014,SENT
89,+16189102186,Thu Sep 18 14:48:28 CDT 2014,SENT
90,+16189102186,Thu Sep 18 14:42:08 CDT 2014,INBOX
91,+16189102186,Thu Sep 18 14:41:49 CDT 2014,INBOX
92,+16189102186,Thu Sep 18 14:41:11 CDT 2014,INBOX
93,+16189102186,Thu Sep 18 14:40:19 CDT 2014,INBOX
94,+16189102186,Thu Sep 18 14:40:13 CDT 2014,INBOX
95,+16189102186,Thu Sep 18 14:39:59 CDT 2014,INBOX
96,+16189102186,Thu Sep 18 14:39:48 CDT 2014,INBOX
97,+13193335280,Wed Sep 17 18:58:01 CDT 2014,SENT
98,+13193335280,Wed Sep 17 18:47:17 CDT 2014,INBOX
99,+13193335280,Wed Sep 17 17:58:38 CDT 2014,SENT
100,+16189102186,Wed Sep 17 14:28:30 CDT 2014,SENT
101,+16189102186,Wed Sep 17 14:12:45 CDT 2014,INBOX
102,+16189102186,Wed Sep 17 14:01:28 CDT 2014,SENT
103,+16189102186,Wed Sep 17 13:35:50 CDT 2014,INBOX
104,6039951159,Wed Sep 10 18:01:12 CDT 2014,SENT
105,+13193335280,Wed Sep 10 12:58:37 CDT 2014,SENT
106,+13193335280,Wed Sep 10 12:55:11 CDT 2014,INBOX
107,732873,Mon Sep 08 01:59:23 CDT 2014,INBOX
108,40401,Fri Sep 05 08:48:06 CDT 2014,INBOX
109,+13193335280,Wed Sep 03 17:42:23 CDT 2014,SENT
110,+13193335280,Wed Sep 03 17:41:46 CDT 2014,INBOX
111,+13193335280,Wed Sep 03 17:29:27 CDT 2014,SENT
112,+13193335280,Wed Sep 03 16:59:08 CDT 2014,INBOX
113,732873,Tue Sep 02 18:37:30 CDT 2014,INBOX
114,732873,Tue Sep 02 18:36:35 CDT 2014,INBOX
115,732873,Tue Sep 02 18:36:00 CDT 2014,INBOX
116,332211,Sun Aug 31 09:30:36 CDT 2014,INBOX
117,332211,Sun Aug 31 00:37:22 CDT 2014,INBOX
118,+14138499183,Sat Aug 30 21:29:32 CDT 2014,INBOX
119,+14138499183,Sat Aug 30 20:07:57 CDT 2014,INBOX
120,+13194007285,Fri Aug 22 20:29:12 CDT 2014,INBOX
121,+13194007285,Fri Aug 22 20:26:58 CDT 2014,SENT
122,+13194007285,Fri Aug 22 20:19:40 CDT 2014,INBOX
123,+13194007285,Fri Aug 22 20:19:28 CDT 2014,INBOX
124,+13194007285,Fri Aug 22 19:03:43 CDT 2014,SENT
125,+13194007285,Fri Aug 22 18:28:36 CDT 2014,INBOX
126,+13194007285,Fri Aug 22 18:25:40 CDT 2014,SENT
127,+13194007285,Fri Aug 22 18:25:10 CDT 2014,INBOX
128,+13194007285,Fri Aug 22 18:24:42 CDT 2014,SENT
129,+13194007285,Fri Aug 22 18:09:07 CDT 2014,SENT
130,+13194007285,Fri Aug 22 17:50:32 CDT 2014,INBOX
131,+13194007285,Fri Aug 22 17:47:45 CDT 2014,SENT
132,+13194007285,Fri Aug 22 17:47:05 CDT 2014,INBOX
133,+13194007285,Fri Aug 22 17:46:30 CDT 2014,SENT
134,+13194007285,Fri Aug 22 17:46:02 CDT 2014,INBOX
135,+13124010186,Fri Aug 22 17:43:00 CDT 2014,INBOX
136,+13124010186,Fri Aug 22 17:42:08 CDT 2014,SENT
137,+13124010186,Fri Aug 22 17:41:57 CDT 2014,SENT
138,+13124010186,Fri Aug 22 17:33:35 CDT 2014,INBOX
139,+13124010186,Fri Aug 22 17:33:19 CDT 2014,INBOX
140,+13124010186,Fri Aug 22 17:22:55 CDT 2014,INBOX
141,+13124010186,Fri Aug 22 17:17:56 CDT 2014,SENT
142,+13124010186,Fri Aug 22 17:17:33 CDT 2014,INBOX
143,+13124010186,Fri Aug 22 17:16:18 CDT 2014,SENT
144,+13124010186,Fri Aug 22 17:16:01 CDT 2014,INBOX
145,+13124010186,Fri Aug 22 17:13:45 CDT 2014,INBOX
146,+13124010186,Fri Aug 22 17:12:00 CDT 2014,SENT
147,+13124010186,Fri Aug 22 17:11:58 CDT 2014,INBOX
148,+13124010186,Fri Aug 22 17:11:19 CDT 2014,INBOX
149,+13124010186,Fri Aug 22 17:08:21 CDT 2014,SENT
150,+13124010186,Fri Aug 22 17:07:18 CDT 2014,SENT
151,+13124010186,Fri Aug 22 17:05:13 CDT 2014,INBOX
152,+13124010186,Fri Aug 22 17:02:25 CDT 2014,SENT
153,+13124010186,Fri Aug 22 17:00:58 CDT 2014,INBOX
154,+13124010186,Fri Aug 22 16:46:50 CDT 2014,INBOX
155,+13124010186,Fri Aug 22 16:46:37 CDT 2014,SENT
156,+13124010186,Fri Aug 22 16:45:54 CDT 2014,INBOX
157,+13124010186,Fri Aug 22 16:45:02 CDT 2014,SENT
158,+13124010186,Fri Aug 22 16:44:32 CDT 2014,INBOX
159,+13124010186,Fri Aug 22 16:44:01 CDT 2014,INBOX
160,+13124010186,Fri Aug 22 16:43:38 CDT 2014,SENT
161,+13124010186,Fri Aug 22 13:51:43 CDT 2014,INBOX
162,+13124010186,Fri Aug 22 13:33:26 CDT 2014,SENT
163,+13124010186,Fri Aug 22 12:13:57 CDT 2014,INBOX
164,+13124010186,Thu Aug 21 16:07:32 CDT 2014,INBOX
165,+13124010186,Thu Aug 21 14:24:07 CDT 2014,SENT
166,+13124010186,Fri Aug 15 22:52:39 CDT 2014,INBOX
167,+13124010186,Fri Aug 15 22:52:17 CDT 2014,INBOX
168,+13124010186,Fri Aug 15 22:51:49 CDT 2014,SENT
169,+13124010186,Fri Aug 15 22:48:56 CDT 2014,INBOX
170,+13124010186,Fri Aug 15 22:48:24 CDT 2014,INBOX
171,+13124010186,Fri Aug 15 22:43:43 CDT 2014,SENT
172,+13124010186,Fri Aug 15 22:43:23 CDT 2014,SENT
173,+13124010186,Fri Aug 15 22:20:36 CDT 2014,INBOX
174,+13124010186,Fri Aug 15 20:35:37 CDT 2014,INBOX
175,+13124010186,Fri Aug 15 20:18:03 CDT 2014,SENT
176,+13124010186,Fri Aug 15 20:07:27 CDT 2014,INBOX
177,+13193335280,Fri Aug 15 11:10:58 CDT 2014,SENT
178,+13193335280,Fri Aug 15 10:51:06 CDT 2014,INBOX
179,+13193335280,Fri Aug 15 08:38:20 CDT 2014,INBOX
180,+13193335280,Fri Aug 15 08:33:10 CDT 2014,SENT
181,+13193335280,Fri Aug 15 08:21:34 CDT 2014,INBOX
182,+13193335280,Fri Aug 15 08:20:13 CDT 2014,INBOX
183,+13193335280,Fri Aug 15 08:20:03 CDT 2014,SENT
184,+13193335280,Fri Aug 15 08:14:23 CDT 2014,INBOX
185,+13193335280,Fri Aug 15 08:14:07 CDT 2014,INBOX
186,+13193335280,Fri Aug 15 08:13:16 CDT 2014,INBOX
187,+13193335280,Fri Aug 15 08:04:45 CDT 2014,INBOX
188,40401,Tue Aug 12 13:34:49 CDT 2014,INBOX
189,27126,Mon Aug 11 23:14:11 CDT 2014,INBOX
190,27126,Mon Aug 11 23:13:29 CDT 2014,INBOX
191,827438,Mon Aug 11 22:05:10 CDT 2014,INBOX
192,827438,Mon Aug 11 22:05:03 CDT 2014,SENT
193,40401,Fri Aug 08 07:13:41 CDT 2014,INBOX
194,+17169361338,Wed Jul 30 13:28:52 CDT 2014,SENT
195,+17169361338,Wed Jul 30 13:26:45 CDT 2014,INBOX
196,+16463623860,Tue Jul 29 17:53:13 CDT 2014,INBOX
197,+16463623860,Tue Jul 29 17:16:35 CDT 2014,INBOX
198,1210100004,Sat Jul 26 18:17:13 CDT 2014,INBOX
199,+13193335280,Wed Jul 23 14:43:05 CDT 2014,INBOX
200,827438,Tue Jul 22 19:03:16 CDT 2014,INBOX
201,827438,Tue Jul 22 19:03:09 CDT 2014,SENT
202,1210100003,Tue Jul 22 11:52:52 CDT 2014,INBOX
203,+13193335280,Mon Jul 21 18:40:54 CDT 2014,INBOX
204,+13193335280,Mon Jul 21 18:40:51 CDT 2014,INBOX
205,+13193335280,Mon Jul 21 18:39:51 CDT 2014,SENT
206,+13193335280,Mon Jul 21 17:20:24 CDT 2014,INBOX
207,1210100002,Mon Jul 21 14:34:03 CDT 2014,INBOX
208,+13194007285,Mon Jul 21 14:27:43 CDT 2014,SENT
209,+13194007285,Mon Jul 21 14:19:01 CDT 2014,SENT
210,+13194007285,Mon Jul 21 14:16:35 CDT 2014,INBOX
211,+13193335280,Mon Jul 21 13:31:09 CDT 2014,SENT
212,+13194007285,Sun Jul 20 17:56:13 CDT 2014,SENT
213,+13194007285,Sun Jul 20 17:54:19 CDT 2014,INBOX
214,+13194007285,Sun Jul 20 16:37:15 CDT 2014,SENT
215,+13194007285,Sun Jul 20 16:35:52 CDT 2014,SENT
216,+13194007285,Sun Jul 20 16:35:25 CDT 2014,INBOX
217,+13194007285,Sun Jul 20 16:35:14 CDT 2014,INBOX
218,+13194007285,Sun Jul 20 14:59:19 CDT 2014,SENT
219,+13194007285,Sun Jul 20 14:58:51 CDT 2014,SENT
220,+13194007285,Sun Jul 20 13:19:31 CDT 2014,INBOX
221,1210100001,Sun Jul 20 11:01:33 CDT 2014,INBOX
222,40401,Thu Jul 17 15:02:44 CDT 2014,INBOX
223,40401,Thu Jul 17 15:02:30 CDT 2014,SENT
224,40401,Thu Jul 17 15:00:46 CDT 2014,INBOX
225,+13193335280,Sat Jul 12 16:57:55 CDT 2014,SENT
226,+13193335280,Sat Jul 12 16:54:01 CDT 2014,INBOX
227,+13193335280,Sat Jul 12 16:11:26 CDT 2014,INBOX
228,+13193335280,Sat Jul 12 16:11:14 CDT 2014,INBOX
229,+13193335280,Sat Jul 12 15:49:42 CDT 2014,SENT
230,+13193335280,Sat Jul 12 15:44:15 CDT 2014,INBOX
231,+13193335280,Sat Jul 12 15:44:15 CDT 2014,INBOX
232,+13193335280,Sat Jul 12 15:42:58 CDT 2014,INBOX
233,+13193335280,Sat Jul 12 15:42:33 CDT 2014,INBOX
234,+13193335280,Sat Jul 12 15:16:52 CDT 2014,SENT
235,+13193335280,Wed Jul 09 18:31:54 CDT 2014,SENT
236,+13193335280,Wed Jul 09 18:30:41 CDT 2014,INBOX
237,+13193335280,Wed Jul 09 18:08:23 CDT 2014,INBOX
238,+13193335280,Wed Jul 09 17:50:56 CDT 2014,SENT
239,+13193335280,Wed Jul 09 17:50:31 CDT 2014,SENT
240,+13193335280,Wed Jul 09 17:49:06 CDT 2014,INBOX
241,+13092702908,Wed Jul 09 10:25:35 CDT 2014,INBOX
242,+13193335280,Tue Jul 08 14:46:11 CDT 2014,SENT
243,+13193335280,Tue Jul 08 14:45:34 CDT 2014,INBOX
244,+13193335280,Mon Jul 07 17:23:45 CDT 2014,SENT
245,+13193335280,Mon Jul 07 17:22:29 CDT 2014,INBOX
246,+13193335280,Mon Jul 07 17:22:00 CDT 2014,SENT
247,+13193335280,Mon Jul 07 17:21:44 CDT 2014,INBOX
248,+13193335280,Mon Jul 07 17:21:37 CDT 2014,INBOX
249,+13193335280,Mon Jul 07 13:06:09 CDT 2014,SENT
250,+13193335280,Mon Jul 07 13:02:00 CDT 2014,INBOX
251,+13193335280,Mon Jul 07 13:01:24 CDT 2014,SENT
252,+13193335280,Mon Jul 07 12:57:43 CDT 2014,INBOX
253,+13193335280,Mon Jul 07 12:55:44 CDT 2014,SENT
254,+13193335280,Mon Jul 07 12:50:46 CDT 2014,INBOX
255,+13193335280,Mon Jul 07 12:47:52 CDT 2014,SENT
256,+13193335280,Mon Jul 07 12:42:41 CDT 2014,INBOX
257,776836,Fri Jul 04 22:09:53 CDT 2014,INBOX
258,+1121611611,Fri Jul 04 22:08:07 CDT 2014,INBOX
259,10690882,Fri Jul 04 22:08:05 CDT 2014,SENT
260,+19082654201,Fri Jul 04 15:31:18 CDT 2014,INBOX
261,+19082654201,Fri Jul 04 13:29:08 CDT 2014,SENT
262,+19082654201,Fri Jul 04 07:53:35 CDT 2014,INBOX
263,+13194000195,Fri Jun 27 09:55:52 CDT 2014,INBOX
264,+13194000195,Fri Jun 27 09:55:39 CDT 2014,INBOX
265,+13194000195,Fri Jun 27 09:55:08 CDT 2014,SENT
266,+13194000195,Fri Jun 27 09:49:31 CDT 2014,INBOX
267,+13194000195,Fri Jun 27 08:58:30 CDT 2014,SENT
268,+13194000195,Fri Jun 27 07:31:15 CDT 2014,INBOX
269,+13193335280,Mon Jun 23 19:33:17 CDT 2014,SENT
270,+13193335280,Mon Jun 23 18:02:02 CDT 2014,INBOX
271,+13193335280,Mon Jun 23 10:37:31 CDT 2014,INBOX
272,+13193335280,Mon Jun 23 10:37:29 CDT 2014,INBOX
273,+13124010186,Mon Jun 16 06:56:19 CDT 2014,SENT
274,+13124010186,Mon Jun 16 06:54:46 CDT 2014,INBOX
275,+13124010186,Mon Jun 16 06:53:27 CDT 2014,INBOX
276,+13124010186,Sun Jun 15 21:11:08 CDT 2014,INBOX
277,+13124010186,Sun Jun 15 20:54:06 CDT 2014,SENT
278,+13124010186,Sun Jun 15 20:53:53 CDT 2014,INBOX
279,+13193335280,Sat Jun 14 17:22:07 CDT 2014,INBOX
280,+13195411552,Mon Jun 09 14:58:22 CDT 2014,INBOX
281,+13195411552,Mon Jun 09 14:53:10 CDT 2014,SENT
282,+13195411552,Mon Jun 09 14:19:17 CDT 2014,INBOX
283,+13195411552,Mon Jun 09 14:16:50 CDT 2014,SENT
284,+13195411552,Mon Jun 09 14:10:39 CDT 2014,INBOX
285,+13195411552,Mon Jun 09 13:16:55 CDT 2014,INBOX
286,+13195411552,Mon Jun 09 13:15:33 CDT 2014,SENT
287,+13195411552,Mon Jun 09 10:24:09 CDT 2014,SENT
288,+13195411552,Sat Jun 07 13:45:47 CDT 2014,SENT
289,+13195411552,Sat Jun 07 13:45:24 CDT 2014,INBOX
290,+13195411552,Sat Jun 07 13:45:04 CDT 2014,INBOX
291,+13195411552,Sat Jun 07 13:44:14 CDT 2014,SENT
292,+13195411552,Sat Jun 07 13:43:59 CDT 2014,INBOX
293,+13195411552,Sat Jun 07 13:38:54 CDT 2014,SENT
294,+13195411552,Sat Jun 07 13:37:14 CDT 2014,INBOX
295,+13195411552,Sat Jun 07 13:34:14 CDT 2014,SENT
296,+13195411552,Sat Jun 07 13:21:46 CDT 2014,INBOX
297,+13195411552,Sat Jun 07 13:21:23 CDT 2014,INBOX
298,+13195411552,Sat Jun 07 13:20:43 CDT 2014,INBOX
299,+13195411552,Sat Jun 07 13:20:03 CDT 2014,SENT
300,+13195411552,Sat Jun 07 09:42:44 CDT 2014,INBOX
301,+13195411552,Mon Jun 02 14:16:30 CDT 2014,INBOX
302,+13195411552,Mon Jun 02 14:16:01 CDT 2014,SENT
303,+13195411552,Mon Jun 02 14:14:52 CDT 2014,INBOX
304,+13195411552,Mon Jun 02 14:14:39 CDT 2014,INBOX
305,+13195411552,Mon Jun 02 14:14:36 CDT 2014,INBOX
306,+13195411552,Mon Jun 02 14:14:15 CDT 2014,SENT
307,+13195411552,Mon Jun 02 14:13:01 CDT 2014,INBOX
308,+13193335280,Fri May 30 15:48:31 CDT 2014,INBOX
309,+13193335280,Fri May 30 11:44:31 CDT 2014,SENT
310,+13193335280,Fri May 30 11:36:30 CDT 2014,SENT
311,+13193335280,Fri May 30 11:36:10 CDT 2014,INBOX
312,+13193335280,Fri May 30 11:34:07 CDT 2014,SENT
313,+13193335280,Fri May 30 11:33:50 CDT 2014,INBOX
314,+13193335280,Fri May 30 11:33:42 CDT 2014,INBOX
315,11113000,Wed May 28 11:58:22 CDT 2014,INBOX
316,+13194000195,Tue May 27 18:28:05 CDT 2014,SENT
317,+13194000195,Tue May 27 18:27:34 CDT 2014,INBOX
318,+13194000195,Tue May 27 18:26:42 CDT 2014,SENT
319,+13193335280,Tue May 27 18:23:35 CDT 2014,SENT
320,+13194000195,Tue May 27 18:13:21 CDT 2014,INBOX
321,+14844872046,Tue May 27 16:21:35 CDT 2014,INBOX
322,+13124010186,Fri May 23 18:35:06 CDT 2014,INBOX
323,+13195411552,Fri May 23 18:33:41 CDT 2014,INBOX
324,+13124010186,Fri May 23 16:43:18 CDT 2014,SENT
325,+13124010186,Fri May 23 16:40:55 CDT 2014,SENT
326,+13124010186,Fri May 23 16:40:43 CDT 2014,INBOX
327,+13195411552,Fri May 23 16:40:31 CDT 2014,SENT
328,+13124010186,Fri May 23 16:40:16 CDT 2014,SENT
329,+13195411552,Fri May 23 16:38:42 CDT 2014,INBOX
330,+13124010186,Fri May 23 16:28:14 CDT 2014,INBOX
331,+13193335280,Mon May 19 16:36:36 CDT 2014,SENT
332,+13193335280,Fri May 16 16:54:22 CDT 2014,INBOX
333,+13193335280,Fri May 16 16:15:38 CDT 2014,INBOX
334,+13124010186,Fri May 16 14:51:46 CDT 2014,INBOX
335,+13124010186,Fri May 16 14:51:24 CDT 2014,SENT
336,+13124010186,Fri May 16 14:49:58 CDT 2014,INBOX
337,+13124010186,Fri May 16 14:23:16 CDT 2014,INBOX
338,+13124010186,Fri May 16 14:22:46 CDT 2014,SENT
339,+13124010186,Fri May 16 14:22:39 CDT 2014,SENT
340,+17208975495,Thu May 15 10:56:24 CDT 2014,INBOX
341,+13124010186,Wed May 14 19:26:43 CDT 2014,SENT
342,+13194000195,Mon May 12 22:26:31 CDT 2014,SENT
343,+13194000195,Mon May 12 21:42:33 CDT 2014,INBOX
344,+13194000195,Mon May 12 21:35:24 CDT 2014,SENT
345,+13194000195,Mon May 12 21:31:59 CDT 2014,INBOX
346,+13194000195,Mon May 12 21:27:38 CDT 2014,SENT
347,+13194000195,Mon May 12 19:05:48 CDT 2014,INBOX
348,+13193335280,Sun May 11 13:11:31 CDT 2014,INBOX
349,+13193335280,Fri May 09 16:48:21 CDT 2014,INBOX
350,+13193335280,Thu May 08 15:25:32 CDT 2014,INBOX
351,3193335280,Thu May 08 13:04:49 CDT 2014,SENT
352,+13193335280,Thu May 08 13:03:28 CDT 2014,INBOX
353,3193335280,Thu May 08 12:50:17 CDT 2014,SENT
354,+13193335280,Tue May 06 19:00:56 CDT 2014,SENT
355,+13193335280,Tue May 06 18:56:47 CDT 2014,INBOX
356,+13193335280,Tue May 06 18:56:31 CDT 2014,SENT
357,+13193335280,Tue May 06 18:55:47 CDT 2014,INBOX
358,+13193335280,Tue May 06 18:20:15 CDT 2014,SENT
359,+13193335280,Tue May 06 14:22:17 CDT 2014,SENT
360,+13124010186,Mon May 05 11:11:34 CDT 2014,INBOX
361,+13124010186,Mon May 05 11:09:20 CDT 2014,SENT
362,+13124010186,Mon May 05 11:08:54 CDT 2014,INBOX
363,+13124010186,Mon May 05 11:03:33 CDT 2014,SENT
364,+13124010186,Fri May 02 13:57:09 CDT 2014,INBOX
365,+13124010186,Fri May 02 13:54:06 CDT 2014,INBOX
366,+13124010186,Fri May 02 13:53:57 CDT 2014,SENT
367,+13124010186,Fri May 02 13:53:34 CDT 2014,SENT
368,+13124010186,Fri May 02 13:53:25 CDT 2014,INBOX
369,+13124010186,Fri May 02 13:52:37 CDT 2014,SENT
370,+13193335280,Thu May 01 11:47:35 CDT 2014,SENT
371,+13193335280,Thu May 01 11:41:48 CDT 2014,INBOX
372,+13193335280,Wed Apr 30 13:22:46 CDT 2014,INBOX
373,+13193335280,Wed Apr 30 13:22:32 CDT 2014,INBOX
374,+13193335280,Wed Apr 30 13:22:18 CDT 2014,SENT
375,+13193335280,Wed Apr 30 12:15:56 CDT 2014,INBOX
376,+13193335280,Wed Apr 30 12:15:38 CDT 2014,SENT
377,+13193335280,Wed Apr 30 12:14:31 CDT 2014,INBOX
378,+13193335280,Wed Apr 30 12:05:33 CDT 2014,SENT
379,+13193335280,Wed Apr 30 12:05:04 CDT 2014,INBOX
380,+13193335280,Wed Apr 30 12:05:03 CDT 2014,INBOX
381,+13193335280,Wed Apr 30 11:59:34 CDT 2014,SENT
382,+13193335280,Wed Apr 30 11:58:40 CDT 2014,SENT
383,+13193335280,Wed Apr 30 11:58:13 CDT 2014,INBOX
384,+13193335280,Wed Apr 30 11:57:40 CDT 2014,SENT
385,+13193335280,Wed Apr 30 11:55:57 CDT 2014,INBOX
386,+13193335280,Wed Apr 30 11:45:06 CDT 2014,SENT
387,+13193335280,Wed Apr 30 11:32:56 CDT 2014,INBOX
388,+13193335280,Mon Apr 28 14:21:37 CDT 2014,SENT
389,+13193335280,Mon Apr 28 14:18:56 CDT 2014,INBOX
390,+13124010186,Fri Apr 25 15:17:14 CDT 2014,INBOX
391,+13124010186,Fri Apr 25 15:17:06 CDT 2014,INBOX
392,+13124010186,Fri Apr 25 15:16:33 CDT 2014,SENT
393,+13124010186,Fri Apr 25 15:12:23 CDT 2014,INBOX
394,+13124010186,Fri Apr 25 15:12:17 CDT 2014,INBOX
395,+13195411552,Fri Apr 25 14:41:33 CDT 2014,INBOX
396,+13195411552,Fri Apr 25 14:40:50 CDT 2014,SENT
397,+13195411552,Fri Apr 25 14:34:43 CDT 2014,INBOX
398,+13195411552,Fri Apr 25 14:33:43 CDT 2014,SENT
399,+13195411552,Fri Apr 25 14:33:18 CDT 2014,INBOX
400,+13193335280,Fri Apr 25 13:50:22 CDT 2014,INBOX
401,+13124010186,Fri Apr 25 13:40:25 CDT 2014,INBOX
402,+13193335280,Fri Apr 25 13:40:15 CDT 2014,SENT
403,+13124010186,Fri Apr 25 13:39:48 CDT 2014,SENT
404,+13124010186,Fri Apr 25 13:31:42 CDT 2014,SENT
405,+13193335280,Fri Apr 25 12:12:12 CDT 2014,INBOX
406,+13193335280,Thu Apr 24 12:20:31 CDT 2014,SENT
407,+13193335280,Wed Apr 23 19:54:57 CDT 2014,SENT
408,+13193335280,Wed Apr 23 19:54:36 CDT 2014,INBOX
409,+13193335280,Wed Apr 23 19:54:01 CDT 2014,SENT
410,+13193335280,Wed Apr 23 19:52:44 CDT 2014,INBOX
411,+13193335280,Tue Apr 22 17:38:50 CDT 2014,SENT
412,+13124010186,Tue Apr 22 16:35:17 CDT 2014,INBOX
413,+13193335280,Tue Apr 22 16:29:10 CDT 2014,INBOX
414,+13193335280,Tue Apr 22 16:19:09 CDT 2014,SENT
415,+13193335280,Tue Apr 22 16:18:32 CDT 2014,INBOX
416,+13193335280,Tue Apr 22 16:18:06 CDT 2014,SENT
417,+13193335280,Tue Apr 22 16:17:35 CDT 2014,INBOX
418,+13193335280,Tue Apr 22 16:16:59 CDT 2014,SENT
419,+13193335280,Tue Apr 22 16:16:18 CDT 2014,INBOX
420,+13193335280,Tue Apr 22 16:15:37 CDT 2014,SENT
421,+13193335280,Tue Apr 22 16:15:18 CDT 2014,INBOX
422,+13194007285,Mon Apr 21 13:31:58 CDT 2014,INBOX
423,+13194007285,Mon Apr 21 13:31:06 CDT 2014,SENT
424,+13194007285,Mon Apr 21 13:26:19 CDT 2014,INBOX
425,+13194007285,Sun Apr 20 13:58:14 CDT 2014,INBOX
426,+13194007285,Sun Apr 20 13:57:38 CDT 2014,SENT
427,+13194007285,Sun Apr 20 13:42:58 CDT 2014,INBOX
428,+13124010186,Sat Apr 19 18:03:24 CDT 2014,SENT
429,+13124010186,Sat Apr 19 18:03:16 CDT 2014,INBOX
430,+13124010186,Sat Apr 19 18:03:04 CDT 2014,INBOX
431,+13124010186,Sat Apr 19 18:02:49 CDT 2014,SENT
432,+13124010186,Sat Apr 19 18:02:47 CDT 2014,INBOX
433,+13124010186,Sat Apr 19 18:02:28 CDT 2014,SENT
434,+13124010186,Sat Apr 19 17:29:32 CDT 2014,INBOX
435,+13124010186,Sat Apr 19 17:28:51 CDT 2014,SENT
436,+13124010186,Sat Apr 19 15:18:54 CDT 2014,INBOX
437,+13124010186,Sat Apr 19 15:18:30 CDT 2014,SENT
438,+13124010186,Sat Apr 19 14:50:57 CDT 2014,INBOX
439,+13193335280,Fri Apr 18 22:00:50 CDT 2014,SENT
440,+13193335280,Fri Apr 18 21:59:43 CDT 2014,INBOX
441,+13193335280,Fri Apr 18 21:52:55 CDT 2014,INBOX
442,+13193335280,Fri Apr 18 21:51:36 CDT 2014,SENT
443,+13193335280,Fri Apr 18 21:51:17 CDT 2014,INBOX
444,+13193335280,Fri Apr 18 10:34:58 CDT 2014,INBOX
445,+13193335280,Fri Apr 18 10:34:44 CDT 2014,SENT
446,+13193335280,Fri Apr 18 10:34:26 CDT 2014,INBOX
447,+13193335280,Fri Apr 18 10:32:55 CDT 2014,SENT
448,+13193335280,Fri Apr 18 10:32:13 CDT 2014,INBOX
449,+13193335280,Thu Apr 17 12:18:59 CDT 2014,SENT
450,+13193335280,Thu Apr 17 10:36:28 CDT 2014,SENT
451,+13193335280,Thu Apr 17 10:35:59 CDT 2014,INBOX
452,+13193335280,Wed Apr 16 16:21:24 CDT 2014,INBOX
453,+13193335280,Wed Apr 16 16:21:21 CDT 2014,INBOX
454,+13193335280,Wed Apr 16 16:20:58 CDT 2014,SENT
455,+13193335280,Wed Apr 16 15:51:15 CDT 2014,SENT
456,+13193335280,Wed Apr 16 15:49:04 CDT 2014,INBOX
457,+13193335280,Wed Apr 16 15:48:46 CDT 2014,SENT
458,+13193335280,Wed Apr 16 15:48:13 CDT 2014,INBOX
459,+13193335280,Tue Apr 15 19:20:17 CDT 2014,INBOX
460,+13124010186,Tue Apr 15 17:29:31 CDT 2014,INBOX
461,+13124010186,Tue Apr 15 17:28:42 CDT 2014,SENT
462,+13124010186,Tue Apr 15 17:08:13 CDT 2014,INBOX
463,+13124010186,Tue Apr 15 17:03:56 CDT 2014,SENT
464,+13124010186,Tue Apr 15 17:03:36 CDT 2014,INBOX
465,+13124010186,Fri Apr 11 10:59:48 CDT 2014,INBOX
466,+13124010186,Fri Apr 11 10:59:31 CDT 2014,INBOX
467,+13124010186,Fri Apr 11 10:53:51 CDT 2014,SENT
468,+13124010186,Fri Apr 11 00:49:15 CDT 2014,INBOX
469,+13124010186,Fri Apr 11 00:48:16 CDT 2014,SENT
470,+13124010186,Fri Apr 11 00:23:40 CDT 2014,INBOX
471,+13193335280,Thu Apr 10 12:25:36 CDT 2014,SENT
472,+13124010186,Thu Apr 10 10:32:30 CDT 2014,INBOX
473,+13124010186,Thu Apr 10 10:32:10 CDT 2014,SENT
474,+13124010186,Thu Apr 10 10:31:27 CDT 2014,INBOX
475,+13124010186,Thu Apr 10 10:15:25 CDT 2014,INBOX
476,+13124010186,Thu Apr 10 10:14:37 CDT 2014,SENT
477,+13124010186,Thu Apr 10 10:14:19 CDT 2014,SENT
478,+13124010186,Thu Apr 10 10:14:04 CDT 2014,INBOX
479,+13124010186,Wed Apr 09 22:54:41 CDT 2014,INBOX
480,+13124010186,Wed Apr 09 22:53:50 CDT 2014,SENT
481,+13124010186,Wed Apr 09 22:53:29 CDT 2014,INBOX
482,+13193335280,Wed Apr 09 20:23:33 CDT 2014,SENT
483,+13124010186,Wed Apr 09 08:01:38 CDT 2014,INBOX
484,+13124010186,Wed Apr 09 07:49:40 CDT 2014,SENT
485,+13193335280,Mon Apr 07 15:55:16 CDT 2014,INBOX
486,+13193335280,Mon Apr 07 15:54:53 CDT 2014,SENT
487,+13124010186,Fri Apr 04 11:08:38 CDT 2014,SENT
488,+13124010186,Fri Apr 04 11:08:19 CDT 2014,INBOX
489,+13124010186,Fri Apr 04 11:07:49 CDT 2014,SENT
490,+13124010186,Fri Apr 04 11:07:26 CDT 2014,INBOX
491,+13124010186,Fri Apr 04 11:06:30 CDT 2014,SENT
492,+13193335280,Thu Apr 03 12:34:09 CDT 2014,INBOX
493,+13193335280,Thu Apr 03 12:32:22 CDT 2014,SENT
494,+13193335280,Wed Apr 02 22:14:09 CDT 2014,INBOX
495,+13193335280,Wed Apr 02 18:33:55 CDT 2014,SENT
496,+13193335280,Mon Mar 31 16:22:44 CDT 2014,INBOX
497,+13193335280,Mon Mar 31 16:22:24 CDT 2014,SENT
498,+13193335280,Mon Mar 31 16:21:43 CDT 2014,INBOX
499,+13193335280,Mon Mar 31 15:41:50 CDT 2014,SENT
500,+13193335280,Mon Mar 31 15:41:15 CDT 2014,INBOX
501,+13193335280,Mon Mar 31 15:40:18 CDT 2014,SENT
502,+13193335280,Mon Mar 31 15:20:28 CDT 2014,SENT
503,+13193335280,Mon Mar 31 15:20:23 CDT 2014,SENT
504,+13193335280,Mon Mar 31 15:18:28 CDT 2014,INBOX
505,+13193335280,Mon Mar 31 13:44:41 CDT 2014,INBOX
506,+13193335280,Mon Mar 31 13:41:24 CDT 2014,SENT
507,+13193335280,Mon Mar 31 13:40:26 CDT 2014,INBOX
508,+13193335280,Mon Mar 31 13:35:01 CDT 2014,SENT
509,+13193335280,Mon Mar 31 13:34:39 CDT 2014,SENT
510,+13193335280,Mon Mar 31 13:34:11 CDT 2014,INBOX
511,+13193335280,Mon Mar 31 13:34:02 CDT 2014,INBOX
512,+13193335280,Mon Mar 31 13:33:28 CDT 2014,SENT
513,+13193335280,Mon Mar 31 11:13:43 CDT 2014,INBOX
514,+13193335280,Mon Mar 31 11:13:29 CDT 2014,INBOX
515,+13193335280,Mon Mar 31 11:12:16 CDT 2014,SENT
516,+13193335280,Mon Mar 31 11:11:58 CDT 2014,INBOX
517,+13193335280,Mon Mar 31 11:11:36 CDT 2014,INBOX
518,+13193335280,Mon Mar 31 11:11:26 CDT 2014,INBOX
519,+13193335280,Mon Mar 31 10:07:47 CDT 2014,SENT
520,+13193335280,Mon Mar 31 10:07:29 CDT 2014,INBOX
521,+13193335280,Mon Mar 31 10:07:06 CDT 2014,SENT
522,+13193335280,Mon Mar 31 10:06:45 CDT 2014,INBOX
523,+13193335280,Mon Mar 31 10:06:00 CDT 2014,SENT
524,+13193335280,Mon Mar 31 10:05:15 CDT 2014,INBOX
525,+13193335280,Mon Mar 31 09:32:06 CDT 2014,SENT
526,+13124010186,Fri Mar 28 11:33:45 CDT 2014,INBOX
527,+13124010186,Fri Mar 28 11:33:26 CDT 2014,SENT
528,+13124010186,Fri Mar 28 11:31:21 CDT 2014,INBOX
529,+13124010186,Fri Mar 28 11:29:42 CDT 2014,SENT
530,+13124010186,Fri Mar 28 11:26:57 CDT 2014,SENT
531,+13124010186,Fri Mar 28 11:26:26 CDT 2014,INBOX
532,+13124010186,Fri Mar 28 11:25:53 CDT 2014,SENT
533,+13124010186,Fri Mar 28 11:25:27 CDT 2014,INBOX
534,+13124010186,Fri Mar 28 11:25:21 CDT 2014,SENT
535,+13124010186,Fri Mar 28 11:25:16 CDT 2014,INBOX
536,+13124010186,Fri Mar 28 11:23:39 CDT 2014,SENT
537,+13195411552,Fri Mar 28 11:07:17 CDT 2014,SENT
538,+13195411552,Fri Mar 28 10:51:14 CDT 2014,INBOX
539,+13193335280,Wed Mar 26 15:44:59 CDT 2014,SENT
540,+13193335280,Wed Mar 26 15:43:32 CDT 2014,INBOX
541,+13193335280,Wed Mar 26 15:43:18 CDT 2014,SENT
542,+13193335280,Wed Mar 26 15:42:32 CDT 2014,INBOX
543,+13193335280,Wed Mar 26 15:42:25 CDT 2014,INBOX
544,+13193335280,Wed Mar 26 15:42:14 CDT 2014,SENT
545,+13193335280,Tue Mar 25 18:38:22 CDT 2014,SENT
546,+13193335280,Mon Mar 24 15:31:43 CDT 2014,INBOX
547,+13193335280,Mon Mar 24 15:31:11 CDT 2014,SENT
548,+13193335280,Mon Mar 24 15:01:47 CDT 2014,INBOX
549,+13193335280,Mon Mar 24 15:00:09 CDT 2014,SENT
550,+13193335280,Mon Mar 24 14:58:21 CDT 2014,INBOX
551,+13193335280,Mon Mar 24 14:58:08 CDT 2014,SENT
552,+13193335280,Mon Mar 24 14:49:46 CDT 2014,INBOX
553,+13193335280,Mon Mar 24 14:48:34 CDT 2014,SENT
554,+13193335280,Mon Mar 24 14:48:12 CDT 2014,SENT
555,+13193335280,Mon Mar 24 14:48:02 CDT 2014,SENT
556,+13193335280,Mon Mar 24 14:46:40 CDT 2014,INBOX
557,+13124010186,Mon Mar 24 10:55:25 CDT 2014,INBOX
558,+13124010186,Mon Mar 24 10:55:04 CDT 2014,SENT
559,+13124010186,Mon Mar 24 10:53:55 CDT 2014,INBOX
560,+13124010186,Mon Mar 24 10:52:56 CDT 2014,SENT
561,+13124010186,Mon Mar 24 10:52:34 CDT 2014,INBOX
562,+13124010186,Mon Mar 24 10:52:01 CDT 2014,SENT
563,+13124010186,Mon Mar 24 10:40:38 CDT 2014,INBOX
564,+13124010186,Mon Mar 24 10:39:53 CDT 2014,SENT
565,+13124010186,Mon Mar 24 10:37:31 CDT 2014,INBOX
566,7535,Tue Mar 18 15:37:29 CDT 2014,INBOX
567,7535,Mon Mar 17 09:13:56 CDT 2014,INBOX
568,+13124010186,Fri Mar 14 11:04:05 CDT 2014,INBOX
569,+13124010186,Fri Mar 14 11:03:35 CDT 2014,SENT
570,+13193335280,Wed Mar 12 17:17:22 CDT 2014,INBOX
571,+13193335280,Wed Mar 12 17:16:26 CDT 2014,INBOX
572,+13193335280,Wed Mar 12 17:07:54 CDT 2014,INBOX
573,+13193335280,Wed Mar 12 17:07:33 CDT 2014,SENT
574,+13193335280,Wed Mar 12 16:43:05 CDT 2014,INBOX
575,+13193335280,Mon Mar 10 12:55:21 CDT 2014,INBOX
576,+13193335280,Mon Mar 10 12:55:04 CDT 2014,SENT
577,+13193335280,Mon Mar 10 12:52:54 CDT 2014,INBOX
578,+13193335280,Mon Mar 10 12:52:44 CDT 2014,INBOX
579,+13193335280,Mon Mar 10 12:52:19 CDT 2014,SENT
580,+13193335280,Thu Mar 06 12:35:49 CST 2014,INBOX
581,+13193335280,Thu Mar 06 12:35:31 CST 2014,SENT
582,+13193335280,Thu Mar 06 12:35:16 CST 2014,INBOX
583,+13193335280,Thu Mar 06 12:34:48 CST 2014,SENT
584,+13124010186,Wed Mar 05 13:32:59 CST 2014,INBOX
585,+13193335280,Mon Mar 03 16:35:39 CST 2014,SENT
586,+13193335280,Mon Mar 03 16:33:40 CST 2014,INBOX
587,+13124010186,Fri Feb 28 09:51:14 CST 2014,INBOX
588,+13124010186,Fri Feb 28 09:49:48 CST 2014,INBOX
589,+13124010186,Fri Feb 28 09:48:55 CST 2014,SENT
590,+13124010186,Fri Feb 28 09:46:48 CST 2014,INBOX
591,+13124010186,Fri Feb 28 09:45:37 CST 2014,SENT
592,7535,Fri Feb 28 09:02:03 CST 2014,INBOX
593,+13193335280,Thu Feb 27 12:04:37 CST 2014,SENT
594,+13193335280,Wed Feb 26 19:10:27 CST 2014,INBOX
595,+13193335280,Wed Feb 26 16:02:57 CST 2014,INBOX
596,+13193335280,Wed Feb 26 15:45:56 CST 2014,SENT
597,+13193335280,Wed Feb 26 15:44:15 CST 2014,INBOX
598,+13193335280,Wed Feb 26 15:43:43 CST 2014,SENT
599,+13193335280,Wed Feb 26 15:42:00 CST 2014,INBOX
600,+13193335280,Tue Feb 25 18:39:19 CST 2014,SENT
601,+13193335280,Tue Feb 25 15:40:22 CST 2014,INBOX
602,+13193335280,Tue Feb 25 13:26:27 CST 2014,SENT
603,+13193335280,Tue Feb 25 13:17:11 CST 2014,SENT
604,+13193335280,Tue Feb 25 13:16:51 CST 2014,INBOX
605,+13193335280,Tue Feb 25 13:16:11 CST 2014,SENT
606,+13193335280,Tue Feb 25 12:00:28 CST 2014,INBOX
607,+13193335280,Mon Feb 24 11:52:17 CST 2014,SENT
608,+13193335280,Mon Feb 24 11:52:01 CST 2014,INBOX
609,+13193335280,Mon Feb 24 11:51:35 CST 2014,INBOX
610,+13193335280,Mon Feb 24 11:51:07 CST 2014,SENT
611,+13193335280,Mon Feb 24 11:50:50 CST 2014,SENT
612,+13193335280,Mon Feb 24 11:49:48 CST 2014,INBOX
613,+13193335280,Fri Feb 21 13:02:44 CST 2014,SENT
614,+13193335280,Fri Feb 21 13:01:27 CST 2014,INBOX
615,+13193335280,Fri Feb 21 12:58:44 CST 2014,SENT
616,+13124010186,Fri Feb 21 08:45:12 CST 2014,SENT
617,6849,Thu Feb 20 14:08:17 CST 2014,INBOX
618,7535,Wed Feb 19 16:35:29 CST 2014,INBOX
619,+13124010186,Wed Feb 19 16:26:55 CST 2014,SENT
620,+13124010186,Wed Feb 19 16:26:38 CST 2014,INBOX
621,+13124010186,Wed Feb 19 16:25:45 CST 2014,SENT
622,+13193335280,Wed Feb 19 16:24:38 CST 2014,INBOX
623,+13193335280,Wed Feb 19 16:16:03 CST 2014,SENT
624,+13193335280,Wed Feb 19 16:15:35 CST 2014,INBOX
625,+13193335280,Wed Feb 19 16:15:00 CST 2014,INBOX
626,+13193335280,Tue Feb 18 17:32:31 CST 2014,SENT
627,7535,Mon Feb 17 18:59:52 CST 2014,INBOX
628,+13195940528,Mon Feb 17 16:21:34 CST 2014,INBOX
629,9603,Sun Feb 16 12:13:17 CST 2014,INBOX
630,9603,Sun Feb 16 12:11:54 CST 2014,INBOX
631,+11113271902,Sat Feb 15 17:15:09 CST 2014,INBOX
